{"interpreter": "PyPy", "function": "list", "action": "sort", "amount": 100, "time": 9.700000000001374e-05, "data_type": "object"}
{"interpreter": "PyPy", "function": "list", "action": "sort", "amount": 100, "time": 9.400000000001074e-05, "data_type": "object"}
{"interpreter": "PyPy", "function": "list", "action": "sort", "amount": 100, "time": 9.099999999997999e-05, "data_type": "object"}
{"interpreter": "PyPy", "function": "list", "action": "sort", "amount": 100, "time": 9.399999999999686e-05, "data_type": "object"}
{"interpreter": "PyPy", "function": "list", "action": "sort", "amount": 100, "time": 9.299999999999586e-05, "data_type": "object"}
{"interpreter": "PyPy", "function": "tuple", "action": "sort", "amount": 100, "time": 9.400000000001074e-05, "data_type": "object"}
{"interpreter": "PyPy", "function": "tuple", "action": "sort", "amount": 100, "time": 9.900000000000186e-05, "data_type": "object"}
{"interpreter": "PyPy", "function": "tuple", "action": "sort", "amount": 100, "time": 9.399999999999686e-05, "data_type": "object"}
{"interpreter": "PyPy", "function": "tuple", "action": "sort", "amount": 100, "time": 9.300000000000974e-05, "data_type": "object"}
{"interpreter": "PyPy", "function": "tuple", "action": "sort", "amount": 100, "time": 9.199999999999486e-05, "data_type": "object"}
{"interpreter": "PyPy", "function": "list", "action": "sort", "amount": 1000, "time": 0.0007729999999999959, "data_type": "object"}
{"interpreter": "PyPy", "function": "list", "action": "sort", "amount": 1000, "time": 0.0010229999999999961, "data_type": "object"}
{"interpreter": "PyPy", "function": "list", "action": "sort", "amount": 1000, "time": 0.0008060000000000012, "data_type": "object"}
{"interpreter": "PyPy", "function": "list", "action": "sort", "amount": 1000, "time": 0.0008489999999999887, "data_type": "object"}
{"interpreter": "PyPy", "function": "list", "action": "sort", "amount": 1000, "time": 0.0008050000000000002, "data_type": "object"}
{"interpreter": "PyPy", "function": "tuple", "action": "sort", "amount": 1000, "time": 0.0008009999999999962, "data_type": "object"}
{"interpreter": "PyPy", "function": "tuple", "action": "sort", "amount": 1000, "time": 0.000796000000000005, "data_type": "object"}
{"interpreter": "PyPy", "function": "tuple", "action": "sort", "amount": 1000, "time": 0.0008109999999999923, "data_type": "object"}
{"interpreter": "PyPy", "function": "tuple", "action": "sort", "amount": 1000, "time": 0.0007999999999999952, "data_type": "object"}
{"interpreter": "PyPy", "function": "tuple", "action": "sort", "amount": 1000, "time": 0.0008060000000000012, "data_type": "object"}
{"interpreter": "PyPy", "function": "list", "action": "sort", "amount": 10000, "time": 0.010911000000000004, "data_type": "object"}
{"interpreter": "PyPy", "function": "list", "action": "sort", "amount": 10000, "time": 0.010901999999999995, "data_type": "object"}
{"interpreter": "PyPy", "function": "list", "action": "sort", "amount": 10000, "time": 0.010974000000000012, "data_type": "object"}
{"interpreter": "PyPy", "function": "list", "action": "sort", "amount": 10000, "time": 0.010942000000000007, "data_type": "object"}
{"interpreter": "PyPy", "function": "list", "action": "sort", "amount": 10000, "time": 0.010965000000000003, "data_type": "object"}
{"interpreter": "PyPy", "function": "tuple", "action": "sort", "amount": 10000, "time": 0.010974000000000012, "data_type": "object"}
{"interpreter": "PyPy", "function": "tuple", "action": "sort", "amount": 10000, "time": 0.010871999999999993, "data_type": "object"}
{"interpreter": "PyPy", "function": "tuple", "action": "sort", "amount": 10000, "time": 0.011065999999999993, "data_type": "object"}
{"interpreter": "PyPy", "function": "tuple", "action": "sort", "amount": 10000, "time": 0.011062000000000016, "data_type": "object"}
{"interpreter": "PyPy", "function": "tuple", "action": "sort", "amount": 10000, "time": 0.010994999999999991, "data_type": "object"}
{"interpreter": "PyPy", "function": "list", "action": "sort", "amount": 100000, "time": 0.134451, "data_type": "object"}
{"interpreter": "PyPy", "function": "list", "action": "sort", "amount": 100000, "time": 0.13520000000000001, "data_type": "object"}
{"interpreter": "PyPy", "function": "list", "action": "sort", "amount": 100000, "time": 0.14850199999999994, "data_type": "object"}
{"interpreter": "PyPy", "function": "list", "action": "sort", "amount": 100000, "time": 0.13648299999999997, "data_type": "object"}
{"interpreter": "PyPy", "function": "list", "action": "sort", "amount": 100000, "time": 0.136709, "data_type": "object"}
{"interpreter": "PyPy", "function": "tuple", "action": "sort", "amount": 100000, "time": 0.139676, "data_type": "object"}
{"interpreter": "PyPy", "function": "tuple", "action": "sort", "amount": 100000, "time": 0.137451, "data_type": "object"}
{"interpreter": "PyPy", "function": "tuple", "action": "sort", "amount": 100000, "time": 0.138712, "data_type": "object"}
{"interpreter": "PyPy", "function": "tuple", "action": "sort", "amount": 100000, "time": 0.13876, "data_type": "object"}
{"interpreter": "PyPy", "function": "tuple", "action": "sort", "amount": 100000, "time": 0.138098, "data_type": "object"}
{"interpreter": "PyPy", "function": "list", "action": "sort", "amount": 1000000, "time": 2.065984, "data_type": "object"}
{"interpreter": "PyPy", "function": "list", "action": "sort", "amount": 1000000, "time": 2.074154, "data_type": "object"}
{"interpreter": "PyPy", "function": "list", "action": "sort", "amount": 1000000, "time": 2.040402, "data_type": "object"}
{"interpreter": "PyPy", "function": "list", "action": "sort", "amount": 1000000, "time": 2.062621, "data_type": "object"}
{"interpreter": "PyPy", "function": "list", "action": "sort", "amount": 1000000, "time": 2.0724, "data_type": "object"}
{"interpreter": "PyPy", "function": "tuple", "action": "sort", "amount": 1000000, "time": 2.09902, "data_type": "object"}
{"interpreter": "PyPy", "function": "tuple", "action": "sort", "amount": 1000000, "time": 2.091081, "data_type": "object"}
{"interpreter": "PyPy", "function": "tuple", "action": "sort", "amount": 1000000, "time": 2.0915939999999997, "data_type": "object"}
{"interpreter": "PyPy", "function": "tuple", "action": "sort", "amount": 1000000, "time": 2.0885059999999998, "data_type": "object"}
{"interpreter": "PyPy", "function": "tuple", "action": "sort", "amount": 1000000, "time": 2.09028, "data_type": "object"}
{"interpreter": "PyPy", "function": "list", "action": "sort", "amount": 5000000, "time": 12.821331, "data_type": "object"}
{"interpreter": "PyPy", "function": "list", "action": "sort", "amount": 5000000, "time": 12.809945000000003, "data_type": "object"}
{"interpreter": "PyPy", "function": "list", "action": "sort", "amount": 5000000, "time": 12.816316, "data_type": "object"}
{"interpreter": "PyPy", "function": "list", "action": "sort", "amount": 5000000, "time": 12.813577, "data_type": "object"}
{"interpreter": "PyPy", "function": "list", "action": "sort", "amount": 5000000, "time": 12.895451, "data_type": "object"}
{"interpreter": "PyPy", "function": "tuple", "action": "sort", "amount": 5000000, "time": 12.832528, "data_type": "object"}
{"interpreter": "PyPy", "function": "tuple", "action": "sort", "amount": 5000000, "time": 12.906466, "data_type": "object"}
{"interpreter": "PyPy", "function": "tuple", "action": "sort", "amount": 5000000, "time": 12.826087000000001, "data_type": "object"}
{"interpreter": "PyPy", "function": "tuple", "action": "sort", "amount": 5000000, "time": 12.896692999999999, "data_type": "object"}
{"interpreter": "PyPy", "function": "tuple", "action": "sort", "amount": 5000000, "time": 12.906136, "data_type": "object"}
{"function": "list", "data_type": "object", "amount": 100, "time": 5.3999999999998494e-05, "action": "sort", "interpreter": "CPython"}
{"function": "list", "data_type": "object", "amount": 100, "time": 5.8000000000002494e-05, "action": "sort", "interpreter": "CPython"}
{"function": "list", "data_type": "object", "amount": 100, "time": 5.2999999999997494e-05, "action": "sort", "interpreter": "CPython"}
{"function": "list", "data_type": "object", "amount": 100, "time": 5.200000000000343e-05, "action": "sort", "interpreter": "CPython"}
{"function": "list", "data_type": "object", "amount": 100, "time": 5.200000000000343e-05, "action": "sort", "interpreter": "CPython"}
{"function": "tuple", "data_type": "object", "amount": 100, "time": 5.1999999999996493e-05, "action": "sort", "interpreter": "CPython"}
{"function": "tuple", "data_type": "object", "amount": 100, "time": 5.2999999999997494e-05, "action": "sort", "interpreter": "CPython"}
{"function": "tuple", "data_type": "object", "amount": 100, "time": 5.4999999999999494e-05, "action": "sort", "interpreter": "CPython"}
{"function": "tuple", "data_type": "object", "amount": 100, "time": 5.1999999999996493e-05, "action": "sort", "interpreter": "CPython"}
{"function": "tuple", "data_type": "object", "amount": 100, "time": 5.1999999999996493e-05, "action": "sort", "interpreter": "CPython"}
{"function": "list", "data_type": "object", "amount": 1000, "time": 0.0007769999999999999, "action": "sort", "interpreter": "CPython"}
{"function": "list", "data_type": "object", "amount": 1000, "time": 0.0006009999999999974, "action": "sort", "interpreter": "CPython"}
{"function": "list", "data_type": "object", "amount": 1000, "time": 0.0006140000000000034, "action": "sort", "interpreter": "CPython"}
{"function": "list", "data_type": "object", "amount": 1000, "time": 0.0006169999999999995, "action": "sort", "interpreter": "CPython"}
{"function": "list", "data_type": "object", "amount": 1000, "time": 0.0006079999999999974, "action": "sort", "interpreter": "CPython"}
{"function": "tuple", "data_type": "object", "amount": 1000, "time": 0.0006089999999999984, "action": "sort", "interpreter": "CPython"}
{"function": "tuple", "data_type": "object", "amount": 1000, "time": 0.0006120000000000014, "action": "sort", "interpreter": "CPython"}
{"function": "tuple", "data_type": "object", "amount": 1000, "time": 0.0006169999999999995, "action": "sort", "interpreter": "CPython"}
{"function": "tuple", "data_type": "object", "amount": 1000, "time": 0.0005920000000000022, "action": "sort", "interpreter": "CPython"}
{"function": "tuple", "data_type": "object", "amount": 1000, "time": 0.0006089999999999984, "action": "sort", "interpreter": "CPython"}
{"function": "list", "data_type": "object", "amount": 10000, "time": 0.007776999999999999, "action": "sort", "interpreter": "CPython"}
{"function": "list", "data_type": "object", "amount": 10000, "time": 0.009886999999999993, "action": "sort", "interpreter": "CPython"}
{"function": "list", "data_type": "object", "amount": 10000, "time": 0.0073780000000000096, "action": "sort", "interpreter": "CPython"}
{"function": "list", "data_type": "object", "amount": 10000, "time": 0.007771999999999994, "action": "sort", "interpreter": "CPython"}
{"function": "list", "data_type": "object", "amount": 10000, "time": 0.008923999999999994, "action": "sort", "interpreter": "CPython"}
{"function": "tuple", "data_type": "object", "amount": 10000, "time": 0.007730999999999995, "action": "sort", "interpreter": "CPython"}
{"function": "tuple", "data_type": "object", "amount": 10000, "time": 0.007538000000000003, "action": "sort", "interpreter": "CPython"}
{"function": "tuple", "data_type": "object", "amount": 10000, "time": 0.007942000000000005, "action": "sort", "interpreter": "CPython"}
{"function": "tuple", "data_type": "object", "amount": 10000, "time": 0.007922000000000005, "action": "sort", "interpreter": "CPython"}
{"function": "tuple", "data_type": "object", "amount": 10000, "time": 0.007912000000000002, "action": "sort", "interpreter": "CPython"}
{"function": "list", "data_type": "object", "amount": 100000, "time": 0.10744800000000002, "action": "sort", "interpreter": "CPython"}
{"function": "list", "data_type": "object", "amount": 100000, "time": 0.10776399999999997, "action": "sort", "interpreter": "CPython"}
{"function": "list", "data_type": "object", "amount": 100000, "time": 0.10943899999999998, "action": "sort", "interpreter": "CPython"}
{"function": "list", "data_type": "object", "amount": 100000, "time": 0.10736600000000002, "action": "sort", "interpreter": "CPython"}
{"function": "list", "data_type": "object", "amount": 100000, "time": 0.10880200000000001, "action": "sort", "interpreter": "CPython"}
{"function": "tuple", "data_type": "object", "amount": 100000, "time": 0.10866299999999998, "action": "sort", "interpreter": "CPython"}
{"function": "tuple", "data_type": "object", "amount": 100000, "time": 0.10813699999999998, "action": "sort", "interpreter": "CPython"}
{"function": "tuple", "data_type": "object", "amount": 100000, "time": 0.10705200000000001, "action": "sort", "interpreter": "CPython"}
{"function": "tuple", "data_type": "object", "amount": 100000, "time": 0.10736700000000002, "action": "sort", "interpreter": "CPython"}
{"function": "tuple", "data_type": "object", "amount": 100000, "time": 0.108574, "action": "sort", "interpreter": "CPython"}
{"function": "list", "data_type": "object", "amount": 1000000, "time": 1.7814879999999995, "action": "sort", "interpreter": "CPython"}
{"function": "list", "data_type": "object", "amount": 1000000, "time": 1.780363, "action": "sort", "interpreter": "CPython"}
{"function": "list", "data_type": "object", "amount": 1000000, "time": 1.779408, "action": "sort", "interpreter": "CPython"}
{"function": "list", "data_type": "object", "amount": 1000000, "time": 1.7811119999999998, "action": "sort", "interpreter": "CPython"}
{"function": "list", "data_type": "object", "amount": 1000000, "time": 1.7843549999999997, "action": "sort", "interpreter": "CPython"}
{"function": "tuple", "data_type": "object", "amount": 1000000, "time": 1.7793189999999997, "action": "sort", "interpreter": "CPython"}
{"function": "tuple", "data_type": "object", "amount": 1000000, "time": 1.7884799999999998, "action": "sort", "interpreter": "CPython"}
{"function": "tuple", "data_type": "object", "amount": 1000000, "time": 1.7821649999999996, "action": "sort", "interpreter": "CPython"}
{"function": "tuple", "data_type": "object", "amount": 1000000, "time": 1.7832060000000003, "action": "sort", "interpreter": "CPython"}
{"function": "tuple", "data_type": "object", "amount": 1000000, "time": 1.786041, "action": "sort", "interpreter": "CPython"}
{"function": "list", "data_type": "object", "amount": 5000000, "time": 11.717359000000002, "action": "sort", "interpreter": "CPython"}
{"function": "list", "data_type": "object", "amount": 5000000, "time": 11.68079, "action": "sort", "interpreter": "CPython"}
{"function": "list", "data_type": "object", "amount": 5000000, "time": 11.802790000000002, "action": "sort", "interpreter": "CPython"}
{"function": "list", "data_type": "object", "amount": 5000000, "time": 11.629983999999999, "action": "sort", "interpreter": "CPython"}
{"function": "list", "data_type": "object", "amount": 5000000, "time": 11.716493, "action": "sort", "interpreter": "CPython"}
{"function": "tuple", "data_type": "object", "amount": 5000000, "time": 11.741929, "action": "sort", "interpreter": "CPython"}
{"function": "tuple", "data_type": "object", "amount": 5000000, "time": 11.820416000000002, "action": "sort", "interpreter": "CPython"}
{"function": "tuple", "data_type": "object", "amount": 5000000, "time": 11.807966, "action": "sort", "interpreter": "CPython"}
{"function": "tuple", "data_type": "object", "amount": 5000000, "time": 11.750544, "action": "sort", "interpreter": "CPython"}
{"function": "tuple", "data_type": "object", "amount": 5000000, "time": 11.905785999999999, "action": "sort", "interpreter": "CPython"}
{"function": "list", "data_type": "object", "amount": 100, "time": 4.799999999999943e-05, "action": "sort", "interpreter": "Cython"}
{"function": "list", "data_type": "object", "amount": 100, "time": 4.700000000000537e-05, "action": "sort", "interpreter": "Cython"}
{"function": "list", "data_type": "object", "amount": 100, "time": 4.900000000000043e-05, "action": "sort", "interpreter": "Cython"}
{"function": "list", "data_type": "object", "amount": 100, "time": 4.599999999999743e-05, "action": "sort", "interpreter": "Cython"}
{"function": "list", "data_type": "object", "amount": 100, "time": 4.599999999999743e-05, "action": "sort", "interpreter": "Cython"}
{"function": "tuple", "data_type": "object", "amount": 100, "time": 4.799999999999943e-05, "action": "sort", "interpreter": "Cython"}
{"function": "tuple", "data_type": "object", "amount": 100, "time": 4.900000000000043e-05, "action": "sort", "interpreter": "Cython"}
{"function": "tuple", "data_type": "object", "amount": 100, "time": 4.900000000000043e-05, "action": "sort", "interpreter": "Cython"}
{"function": "tuple", "data_type": "object", "amount": 100, "time": 4.799999999999943e-05, "action": "sort", "interpreter": "Cython"}
{"function": "tuple", "data_type": "object", "amount": 100, "time": 5.099999999999549e-05, "action": "sort", "interpreter": "Cython"}
{"function": "list", "data_type": "object", "amount": 1000, "time": 0.0005239999999999967, "action": "sort", "interpreter": "Cython"}
{"function": "list", "data_type": "object", "amount": 1000, "time": 0.0005259999999999987, "action": "sort", "interpreter": "Cython"}
{"function": "list", "data_type": "object", "amount": 1000, "time": 0.0005280000000000007, "action": "sort", "interpreter": "Cython"}
{"function": "list", "data_type": "object", "amount": 1000, "time": 0.0005290000000000017, "action": "sort", "interpreter": "Cython"}
{"function": "list", "data_type": "object", "amount": 1000, "time": 0.0005199999999999996, "action": "sort", "interpreter": "Cython"}
{"function": "tuple", "data_type": "object", "amount": 1000, "time": 0.0005269999999999997, "action": "sort", "interpreter": "Cython"}
{"function": "tuple", "data_type": "object", "amount": 1000, "time": 0.0005380000000000038, "action": "sort", "interpreter": "Cython"}
{"function": "tuple", "data_type": "object", "amount": 1000, "time": 0.0005280000000000007, "action": "sort", "interpreter": "Cython"}
{"function": "tuple", "data_type": "object", "amount": 1000, "time": 0.0005399999999999988, "action": "sort", "interpreter": "Cython"}
{"function": "tuple", "data_type": "object", "amount": 1000, "time": 0.0005280000000000007, "action": "sort", "interpreter": "Cython"}
{"function": "list", "data_type": "object", "amount": 10000, "time": 0.0069130000000000025, "action": "sort", "interpreter": "Cython"}
{"function": "list", "data_type": "object", "amount": 10000, "time": 0.006544000000000001, "action": "sort", "interpreter": "Cython"}
{"function": "list", "data_type": "object", "amount": 10000, "time": 0.006496999999999996, "action": "sort", "interpreter": "Cython"}
{"function": "list", "data_type": "object", "amount": 10000, "time": 0.006499999999999999, "action": "sort", "interpreter": "Cython"}
{"function": "list", "data_type": "object", "amount": 10000, "time": 0.007038000000000003, "action": "sort", "interpreter": "Cython"}
{"function": "tuple", "data_type": "object", "amount": 10000, "time": 0.006770000000000005, "action": "sort", "interpreter": "Cython"}
{"function": "tuple", "data_type": "object", "amount": 10000, "time": 0.006719000000000003, "action": "sort", "interpreter": "Cython"}
{"function": "tuple", "data_type": "object", "amount": 10000, "time": 0.006926000000000002, "action": "sort", "interpreter": "Cython"}
{"function": "tuple", "data_type": "object", "amount": 10000, "time": 0.007010000000000002, "action": "sort", "interpreter": "Cython"}
{"function": "tuple", "data_type": "object", "amount": 10000, "time": 0.006781999999999996, "action": "sort", "interpreter": "Cython"}
{"function": "list", "data_type": "object", "amount": 100000, "time": 0.09418599999999999, "action": "sort", "interpreter": "Cython"}
{"function": "list", "data_type": "object", "amount": 100000, "time": 0.09437600000000002, "action": "sort", "interpreter": "Cython"}
{"function": "list", "data_type": "object", "amount": 100000, "time": 0.09738, "action": "sort", "interpreter": "Cython"}
{"function": "list", "data_type": "object", "amount": 100000, "time": 0.09401700000000002, "action": "sort", "interpreter": "Cython"}
{"function": "list", "data_type": "object", "amount": 100000, "time": 0.09364600000000001, "action": "sort", "interpreter": "Cython"}
{"function": "tuple", "data_type": "object", "amount": 100000, "time": 0.09434099999999998, "action": "sort", "interpreter": "Cython"}
{"function": "tuple", "data_type": "object", "amount": 100000, "time": 0.10588699999999998, "action": "sort", "interpreter": "Cython"}
{"function": "tuple", "data_type": "object", "amount": 100000, "time": 0.093805, "action": "sort", "interpreter": "Cython"}
{"function": "tuple", "data_type": "object", "amount": 100000, "time": 0.09362100000000001, "action": "sort", "interpreter": "Cython"}
{"function": "tuple", "data_type": "object", "amount": 100000, "time": 0.095143, "action": "sort", "interpreter": "Cython"}
{"function": "list", "data_type": "object", "amount": 1000000, "time": 1.653294, "action": "sort", "interpreter": "Cython"}
{"function": "list", "data_type": "object", "amount": 1000000, "time": 1.64776, "action": "sort", "interpreter": "Cython"}
{"function": "list", "data_type": "object", "amount": 1000000, "time": 1.6506610000000002, "action": "sort", "interpreter": "Cython"}
{"function": "list", "data_type": "object", "amount": 1000000, "time": 1.6520160000000002, "action": "sort", "interpreter": "Cython"}
{"function": "list", "data_type": "object", "amount": 1000000, "time": 1.6544349999999999, "action": "sort", "interpreter": "Cython"}
{"function": "tuple", "data_type": "object", "amount": 1000000, "time": 1.6479769999999998, "action": "sort", "interpreter": "Cython"}
{"function": "tuple", "data_type": "object", "amount": 1000000, "time": 1.6418439999999999, "action": "sort", "interpreter": "Cython"}
{"function": "tuple", "data_type": "object", "amount": 1000000, "time": 1.6564649999999999, "action": "sort", "interpreter": "Cython"}
{"function": "tuple", "data_type": "object", "amount": 1000000, "time": 1.647689, "action": "sort", "interpreter": "Cython"}
{"function": "tuple", "data_type": "object", "amount": 1000000, "time": 1.651049, "action": "sort", "interpreter": "Cython"}
{"function": "list", "data_type": "object", "amount": 5000000, "time": 10.905068, "action": "sort", "interpreter": "Cython"}
{"function": "list", "data_type": "object", "amount": 5000000, "time": 10.881245, "action": "sort", "interpreter": "Cython"}
{"function": "list", "data_type": "object", "amount": 5000000, "time": 10.918235, "action": "sort", "interpreter": "Cython"}
{"function": "list", "data_type": "object", "amount": 5000000, "time": 10.875603000000002, "action": "sort", "interpreter": "Cython"}
{"function": "list", "data_type": "object", "amount": 5000000, "time": 10.871687, "action": "sort", "interpreter": "Cython"}
{"function": "tuple", "data_type": "object", "amount": 5000000, "time": 10.893392, "action": "sort", "interpreter": "Cython"}
{"function": "tuple", "data_type": "object", "amount": 5000000, "time": 10.894922, "action": "sort", "interpreter": "Cython"}
{"function": "tuple", "data_type": "object", "amount": 5000000, "time": 10.875815, "action": "sort", "interpreter": "Cython"}
{"function": "tuple", "data_type": "object", "amount": 5000000, "time": 10.869167999999998, "action": "sort", "interpreter": "Cython"}
{"function": "tuple", "data_type": "object", "amount": 5000000, "time": 10.901634000000001, "action": "sort", "interpreter": "Cython"}
{"amount": 100, "interpreter": "Jython", "function": "list", "data_type": "object", "action": "sort", "time": 0.001987177}
{"amount": 100, "interpreter": "Jython", "function": "list", "data_type": "object", "action": "sort", "time": 0.002089606}
{"amount": 100, "interpreter": "Jython", "function": "list", "data_type": "object", "action": "sort", "time": 0.002468545}
{"amount": 100, "interpreter": "Jython", "function": "list", "data_type": "object", "action": "sort", "time": 0.00203904}
{"amount": 100, "interpreter": "Jython", "function": "list", "data_type": "object", "action": "sort", "time": 0.002023}
{"amount": 100, "interpreter": "Jython", "function": "tuple", "data_type": "object", "action": "sort", "time": 0.001645005}
{"amount": 100, "interpreter": "Jython", "function": "tuple", "data_type": "object", "action": "sort", "time": 0.001834034}
{"amount": 100, "interpreter": "Jython", "function": "tuple", "data_type": "object", "action": "sort", "time": 0.001710314}
{"amount": 100, "interpreter": "Jython", "function": "tuple", "data_type": "object", "action": "sort", "time": 0.001580278}
{"amount": 100, "interpreter": "Jython", "function": "tuple", "data_type": "object", "action": "sort", "time": 0.002006076}
{"amount": 1000, "interpreter": "Jython", "function": "list", "data_type": "object", "action": "sort", "time": 0.016672346}
{"amount": 1000, "interpreter": "Jython", "function": "list", "data_type": "object", "action": "sort", "time": 0.012569575}
{"amount": 1000, "interpreter": "Jython", "function": "list", "data_type": "object", "action": "sort", "time": 0.011627275}
{"amount": 1000, "interpreter": "Jython", "function": "list", "data_type": "object", "action": "sort", "time": 0.013410189}
{"amount": 1000, "interpreter": "Jython", "function": "list", "data_type": "object", "action": "sort", "time": 0.012109664}
{"amount": 1000, "interpreter": "Jython", "function": "tuple", "data_type": "object", "action": "sort", "time": 0.013433099}
{"amount": 1000, "interpreter": "Jython", "function": "tuple", "data_type": "object", "action": "sort", "time": 0.011389818}
{"amount": 1000, "interpreter": "Jython", "function": "tuple", "data_type": "object", "action": "sort", "time": 0.010245132}
{"amount": 1000, "interpreter": "Jython", "function": "tuple", "data_type": "object", "action": "sort", "time": 0.011571847}
{"amount": 1000, "interpreter": "Jython", "function": "tuple", "data_type": "object", "action": "sort", "time": 0.010640436}
{"amount": 10000, "interpreter": "Jython", "function": "list", "data_type": "object", "action": "sort", "time": 0.045459766}
{"amount": 10000, "interpreter": "Jython", "function": "list", "data_type": "object", "action": "sort", "time": 0.038165045}
{"amount": 10000, "interpreter": "Jython", "function": "list", "data_type": "object", "action": "sort", "time": 0.043711744}
{"amount": 10000, "interpreter": "Jython", "function": "list", "data_type": "object", "action": "sort", "time": 0.043871833}
{"amount": 10000, "interpreter": "Jython", "function": "list", "data_type": "object", "action": "sort", "time": 0.039239384}
{"amount": 10000, "interpreter": "Jython", "function": "tuple", "data_type": "object", "action": "sort", "time": 0.035806627}
{"amount": 10000, "interpreter": "Jython", "function": "tuple", "data_type": "object", "action": "sort", "time": 0.039349965}
{"amount": 10000, "interpreter": "Jython", "function": "tuple", "data_type": "object", "action": "sort", "time": 0.037291785}
{"amount": 10000, "interpreter": "Jython", "function": "tuple", "data_type": "object", "action": "sort", "time": 0.036368731}
{"amount": 10000, "interpreter": "Jython", "function": "tuple", "data_type": "object", "action": "sort", "time": 0.03698882}
{"amount": 100000, "interpreter": "Jython", "function": "list", "data_type": "object", "action": "sort", "time": 0.23755735}
{"amount": 100000, "interpreter": "Jython", "function": "list", "data_type": "object", "action": "sort", "time": 0.225977764}
{"amount": 100000, "interpreter": "Jython", "function": "list", "data_type": "object", "action": "sort", "time": 0.231091373}
{"amount": 100000, "interpreter": "Jython", "function": "list", "data_type": "object", "action": "sort", "time": 0.230126708}
{"amount": 100000, "interpreter": "Jython", "function": "list", "data_type": "object", "action": "sort", "time": 0.230784502}
{"amount": 100000, "interpreter": "Jython", "function": "tuple", "data_type": "object", "action": "sort", "time": 0.219670532}
{"amount": 100000, "interpreter": "Jython", "function": "tuple", "data_type": "object", "action": "sort", "time": 0.222420849}
{"amount": 100000, "interpreter": "Jython", "function": "tuple", "data_type": "object", "action": "sort", "time": 0.22010012}
{"amount": 100000, "interpreter": "Jython", "function": "tuple", "data_type": "object", "action": "sort", "time": 0.284772054}
{"amount": 100000, "interpreter": "Jython", "function": "tuple", "data_type": "object", "action": "sort", "time": 0.220296382}
{"amount": 1000000, "interpreter": "Jython", "function": "list", "data_type": "object", "action": "sort", "time": 1.782370689}
{"amount": 1000000, "interpreter": "Jython", "function": "list", "data_type": "object", "action": "sort", "time": 1.734397133}
{"amount": 1000000, "interpreter": "Jython", "function": "list", "data_type": "object", "action": "sort", "time": 1.791228892}
{"amount": 1000000, "interpreter": "Jython", "function": "list", "data_type": "object", "action": "sort", "time": 1.751681739}
{"amount": 1000000, "interpreter": "Jython", "function": "list", "data_type": "object", "action": "sort", "time": 2.037019524}
{"amount": 1000000, "interpreter": "Jython", "function": "tuple", "data_type": "object", "action": "sort", "time": 1.765387826}
{"amount": 1000000, "interpreter": "Jython", "function": "tuple", "data_type": "object", "action": "sort", "time": 1.773279063}
{"amount": 1000000, "interpreter": "Jython", "function": "tuple", "data_type": "object", "action": "sort", "time": 1.74798376}
{"amount": 1000000, "interpreter": "Jython", "function": "tuple", "data_type": "object", "action": "sort", "time": 1.730403839}
{"amount": 1000000, "interpreter": "Jython", "function": "tuple", "data_type": "object", "action": "sort", "time": 1.761491537}
{"amount": 5000000, "interpreter": "Jython", "function": "list", "data_type": "object", "action": "sort", "time": 8.639935679}
{"amount": 5000000, "interpreter": "Jython", "function": "list", "data_type": "object", "action": "sort", "time": 8.822231727}
{"amount": 5000000, "interpreter": "Jython", "function": "list", "data_type": "object", "action": "sort", "time": 8.778654672}
{"amount": 5000000, "interpreter": "Jython", "function": "list", "data_type": "object", "action": "sort", "time": 8.824403852}
{"amount": 5000000, "interpreter": "Jython", "function": "list", "data_type": "object", "action": "sort", "time": 8.79977545}
{"amount": 5000000, "interpreter": "Jython", "function": "tuple", "data_type": "object", "action": "sort", "time": 8.685981205}
{"amount": 5000000, "interpreter": "Jython", "function": "tuple", "data_type": "object", "action": "sort", "time": 8.671389795}
{"amount": 5000000, "interpreter": "Jython", "function": "tuple", "data_type": "object", "action": "sort", "time": 8.627458663}
{"amount": 5000000, "interpreter": "Jython", "function": "tuple", "data_type": "object", "action": "sort", "time": 8.681970176}
{"amount": 5000000, "interpreter": "Jython", "function": "tuple", "data_type": "object", "action": "sort", "time": 8.633755875}
