{"interpreter": "PyPy", "function": "tuple", "action": "sort", "amount": 100, "time": 9.099999999999386e-05, "data_type": "object"}
{"interpreter": "PyPy", "function": "tuple", "action": "sort", "amount": 100, "time": 9.300000000000974e-05, "data_type": "object"}
{"interpreter": "PyPy", "function": "tuple", "action": "sort", "amount": 100, "time": 9.099999999999386e-05, "data_type": "object"}
{"interpreter": "PyPy", "function": "tuple", "action": "sort", "amount": 100, "time": 8.999999999999286e-05, "data_type": "object"}
{"interpreter": "PyPy", "function": "tuple", "action": "sort", "amount": 100, "time": 8.899999999999186e-05, "data_type": "object"}
{"interpreter": "PyPy", "function": "tuple", "action": "sort", "amount": 1000, "time": 0.0007969999999999922, "data_type": "object"}
{"interpreter": "PyPy", "function": "tuple", "action": "sort", "amount": 1000, "time": 0.0008019999999999972, "data_type": "object"}
{"interpreter": "PyPy", "function": "tuple", "action": "sort", "amount": 1000, "time": 0.0008019999999999972, "data_type": "object"}
{"interpreter": "PyPy", "function": "tuple", "action": "sort", "amount": 1000, "time": 0.000795000000000004, "data_type": "object"}
{"interpreter": "PyPy", "function": "tuple", "action": "sort", "amount": 1000, "time": 0.0008090000000000042, "data_type": "object"}
{"interpreter": "PyPy", "function": "tuple", "action": "sort", "amount": 10000, "time": 0.010877999999999999, "data_type": "object"}
{"interpreter": "PyPy", "function": "tuple", "action": "sort", "amount": 10000, "time": 0.011078000000000005, "data_type": "object"}
{"interpreter": "PyPy", "function": "tuple", "action": "sort", "amount": 10000, "time": 0.010952000000000003, "data_type": "object"}
{"interpreter": "PyPy", "function": "tuple", "action": "sort", "amount": 10000, "time": 0.010956000000000007, "data_type": "object"}
{"interpreter": "PyPy", "function": "tuple", "action": "sort", "amount": 10000, "time": 0.010941999999999993, "data_type": "object"}
{"interpreter": "PyPy", "function": "tuple", "action": "sort", "amount": 100000, "time": 0.13747299999999998, "data_type": "object"}
{"interpreter": "PyPy", "function": "tuple", "action": "sort", "amount": 100000, "time": 0.137785, "data_type": "object"}
{"interpreter": "PyPy", "function": "tuple", "action": "sort", "amount": 100000, "time": 0.138265, "data_type": "object"}
{"interpreter": "PyPy", "function": "tuple", "action": "sort", "amount": 100000, "time": 0.137868, "data_type": "object"}
{"interpreter": "PyPy", "function": "tuple", "action": "sort", "amount": 100000, "time": 0.137758, "data_type": "object"}
{"interpreter": "PyPy", "function": "tuple", "action": "sort", "amount": 1000000, "time": 2.085447, "data_type": "object"}
{"interpreter": "PyPy", "function": "tuple", "action": "sort", "amount": 1000000, "time": 2.086277, "data_type": "object"}
{"interpreter": "PyPy", "function": "tuple", "action": "sort", "amount": 1000000, "time": 2.085084, "data_type": "object"}
{"interpreter": "PyPy", "function": "tuple", "action": "sort", "amount": 1000000, "time": 2.088266, "data_type": "object"}
{"interpreter": "PyPy", "function": "tuple", "action": "sort", "amount": 1000000, "time": 2.0826279999999997, "data_type": "object"}
{"interpreter": "PyPy", "function": "tuple", "action": "sort", "amount": 5000000, "time": 12.782179000000001, "data_type": "object"}
{"interpreter": "PyPy", "function": "tuple", "action": "sort", "amount": 5000000, "time": 12.899643999999999, "data_type": "object"}
{"interpreter": "PyPy", "function": "tuple", "action": "sort", "amount": 5000000, "time": 12.787918999999999, "data_type": "object"}
{"interpreter": "PyPy", "function": "tuple", "action": "sort", "amount": 5000000, "time": 12.904435, "data_type": "object"}
{"interpreter": "PyPy", "function": "tuple", "action": "sort", "amount": 5000000, "time": 12.890846, "data_type": "object"}
{"function": "tuple", "data_type": "object", "amount": 100, "time": 5.2999999999997494e-05, "action": "sort", "interpreter": "CPython"}
{"function": "tuple", "data_type": "object", "amount": 100, "time": 5.3999999999998494e-05, "action": "sort", "interpreter": "CPython"}
{"function": "tuple", "data_type": "object", "amount": 100, "time": 5.4999999999999494e-05, "action": "sort", "interpreter": "CPython"}
{"function": "tuple", "data_type": "object", "amount": 100, "time": 5.1999999999996493e-05, "action": "sort", "interpreter": "CPython"}
{"function": "tuple", "data_type": "object", "amount": 100, "time": 5.2999999999997494e-05, "action": "sort", "interpreter": "CPython"}
{"function": "tuple", "data_type": "object", "amount": 1000, "time": 0.000785999999999995, "action": "sort", "interpreter": "CPython"}
{"function": "tuple", "data_type": "object", "amount": 1000, "time": 0.0005910000000000012, "action": "sort", "interpreter": "CPython"}
{"function": "tuple", "data_type": "object", "amount": 1000, "time": 0.0007929999999999951, "action": "sort", "interpreter": "CPython"}
{"function": "tuple", "data_type": "object", "amount": 1000, "time": 0.0006079999999999974, "action": "sort", "interpreter": "CPython"}
{"function": "tuple", "data_type": "object", "amount": 1000, "time": 0.0006089999999999984, "action": "sort", "interpreter": "CPython"}
{"function": "tuple", "data_type": "object", "amount": 10000, "time": 0.007510000000000003, "action": "sort", "interpreter": "CPython"}
{"function": "tuple", "data_type": "object", "amount": 10000, "time": 0.007767000000000003, "action": "sort", "interpreter": "CPython"}
{"function": "tuple", "data_type": "object", "amount": 10000, "time": 0.00787100000000001, "action": "sort", "interpreter": "CPython"}
{"function": "tuple", "data_type": "object", "amount": 10000, "time": 0.007383000000000001, "action": "sort", "interpreter": "CPython"}
{"function": "tuple", "data_type": "object", "amount": 10000, "time": 0.007997000000000004, "action": "sort", "interpreter": "CPython"}
{"function": "tuple", "data_type": "object", "amount": 100000, "time": 0.10979899999999998, "action": "sort", "interpreter": "CPython"}
{"function": "tuple", "data_type": "object", "amount": 100000, "time": 0.10686300000000001, "action": "sort", "interpreter": "CPython"}
{"function": "tuple", "data_type": "object", "amount": 100000, "time": 0.10733299999999998, "action": "sort", "interpreter": "CPython"}
{"function": "tuple", "data_type": "object", "amount": 100000, "time": 0.10722899999999999, "action": "sort", "interpreter": "CPython"}
{"function": "tuple", "data_type": "object", "amount": 100000, "time": 0.10688400000000003, "action": "sort", "interpreter": "CPython"}
{"function": "tuple", "data_type": "object", "amount": 1000000, "time": 1.784739, "action": "sort", "interpreter": "CPython"}
{"function": "tuple", "data_type": "object", "amount": 1000000, "time": 1.7791439999999996, "action": "sort", "interpreter": "CPython"}
{"function": "tuple", "data_type": "object", "amount": 1000000, "time": 1.7848700000000002, "action": "sort", "interpreter": "CPython"}
{"function": "tuple", "data_type": "object", "amount": 1000000, "time": 1.7849719999999998, "action": "sort", "interpreter": "CPython"}
{"function": "tuple", "data_type": "object", "amount": 1000000, "time": 1.7810039999999998, "action": "sort", "interpreter": "CPython"}
{"function": "tuple", "data_type": "object", "amount": 5000000, "time": 11.743266, "action": "sort", "interpreter": "CPython"}
{"function": "tuple", "data_type": "object", "amount": 5000000, "time": 11.682146, "action": "sort", "interpreter": "CPython"}
{"function": "tuple", "data_type": "object", "amount": 5000000, "time": 11.816888, "action": "sort", "interpreter": "CPython"}
{"function": "tuple", "data_type": "object", "amount": 5000000, "time": 11.820594, "action": "sort", "interpreter": "CPython"}
{"function": "tuple", "data_type": "object", "amount": 5000000, "time": 11.762918, "action": "sort", "interpreter": "CPython"}
{"function": "tuple", "data_type": "object", "amount": 100, "time": 4.400000000000237e-05, "action": "sort", "interpreter": "Cython"}
{"function": "tuple", "data_type": "object", "amount": 100, "time": 4.699999999999843e-05, "action": "sort", "interpreter": "Cython"}
{"function": "tuple", "data_type": "object", "amount": 100, "time": 4.400000000000237e-05, "action": "sort", "interpreter": "Cython"}
{"function": "tuple", "data_type": "object", "amount": 100, "time": 4.699999999999843e-05, "action": "sort", "interpreter": "Cython"}
{"function": "tuple", "data_type": "object", "amount": 100, "time": 4.300000000000137e-05, "action": "sort", "interpreter": "Cython"}
{"function": "tuple", "data_type": "object", "amount": 1000, "time": 0.0005259999999999987, "action": "sort", "interpreter": "Cython"}
{"function": "tuple", "data_type": "object", "amount": 1000, "time": 0.0005099999999999966, "action": "sort", "interpreter": "Cython"}
{"function": "tuple", "data_type": "object", "amount": 1000, "time": 0.0005319999999999978, "action": "sort", "interpreter": "Cython"}
{"function": "tuple", "data_type": "object", "amount": 1000, "time": 0.0005070000000000005, "action": "sort", "interpreter": "Cython"}
{"function": "tuple", "data_type": "object", "amount": 1000, "time": 0.0005319999999999978, "action": "sort", "interpreter": "Cython"}
{"function": "tuple", "data_type": "object", "amount": 10000, "time": 0.007042000000000007, "action": "sort", "interpreter": "Cython"}
{"function": "tuple", "data_type": "object", "amount": 10000, "time": 0.006657999999999997, "action": "sort", "interpreter": "Cython"}
{"function": "tuple", "data_type": "object", "amount": 10000, "time": 0.006705000000000003, "action": "sort", "interpreter": "Cython"}
{"function": "tuple", "data_type": "object", "amount": 10000, "time": 0.006883, "action": "sort", "interpreter": "Cython"}
{"function": "tuple", "data_type": "object", "amount": 10000, "time": 0.006841, "action": "sort", "interpreter": "Cython"}
{"function": "tuple", "data_type": "object", "amount": 100000, "time": 0.09876000000000001, "action": "sort", "interpreter": "Cython"}
{"function": "tuple", "data_type": "object", "amount": 100000, "time": 0.09922799999999998, "action": "sort", "interpreter": "Cython"}
{"function": "tuple", "data_type": "object", "amount": 100000, "time": 0.09845000000000001, "action": "sort", "interpreter": "Cython"}
{"function": "tuple", "data_type": "object", "amount": 100000, "time": 0.09856699999999999, "action": "sort", "interpreter": "Cython"}
{"function": "tuple", "data_type": "object", "amount": 100000, "time": 0.09929700000000002, "action": "sort", "interpreter": "Cython"}
{"function": "tuple", "data_type": "object", "amount": 1000000, "time": 1.6928480000000006, "action": "sort", "interpreter": "Cython"}
{"function": "tuple", "data_type": "object", "amount": 1000000, "time": 1.6972590000000003, "action": "sort", "interpreter": "Cython"}
{"function": "tuple", "data_type": "object", "amount": 1000000, "time": 1.7112420000000004, "action": "sort", "interpreter": "Cython"}
{"function": "tuple", "data_type": "object", "amount": 1000000, "time": 1.6966780000000004, "action": "sort", "interpreter": "Cython"}
{"function": "tuple", "data_type": "object", "amount": 1000000, "time": 1.694667, "action": "sort", "interpreter": "Cython"}
{"function": "tuple", "data_type": "object", "amount": 5000000, "time": 11.404769000000002, "action": "sort", "interpreter": "Cython"}
{"function": "tuple", "data_type": "object", "amount": 5000000, "time": 11.407494, "action": "sort", "interpreter": "Cython"}
{"function": "tuple", "data_type": "object", "amount": 5000000, "time": 11.35429, "action": "sort", "interpreter": "Cython"}
{"function": "tuple", "data_type": "object", "amount": 5000000, "time": 11.336188, "action": "sort", "interpreter": "Cython"}
{"function": "tuple", "data_type": "object", "amount": 5000000, "time": 11.530239, "action": "sort", "interpreter": "Cython"}
{"amount": 100, "interpreter": "Jython", "function": "tuple", "data_type": "object", "action": "sort", "time": 0.001581067}
{"amount": 100, "interpreter": "Jython", "function": "tuple", "data_type": "object", "action": "sort", "time": 0.002078028}
{"amount": 100, "interpreter": "Jython", "function": "tuple", "data_type": "object", "action": "sort", "time": 0.001712376}
{"amount": 100, "interpreter": "Jython", "function": "tuple", "data_type": "object", "action": "sort", "time": 0.001894361}
{"amount": 100, "interpreter": "Jython", "function": "tuple", "data_type": "object", "action": "sort", "time": 0.001919259}
{"amount": 1000, "interpreter": "Jython", "function": "tuple", "data_type": "object", "action": "sort", "time": 0.016190715}
{"amount": 1000, "interpreter": "Jython", "function": "tuple", "data_type": "object", "action": "sort", "time": 0.012196232}
{"amount": 1000, "interpreter": "Jython", "function": "tuple", "data_type": "object", "action": "sort", "time": 0.012920852}
{"amount": 1000, "interpreter": "Jython", "function": "tuple", "data_type": "object", "action": "sort", "time": 0.010430067}
{"amount": 1000, "interpreter": "Jython", "function": "tuple", "data_type": "object", "action": "sort", "time": 0.012968179}
{"amount": 10000, "interpreter": "Jython", "function": "tuple", "data_type": "object", "action": "sort", "time": 0.047471229}
{"amount": 10000, "interpreter": "Jython", "function": "tuple", "data_type": "object", "action": "sort", "time": 0.042099944}
{"amount": 10000, "interpreter": "Jython", "function": "tuple", "data_type": "object", "action": "sort", "time": 0.042665412}
{"amount": 10000, "interpreter": "Jython", "function": "tuple", "data_type": "object", "action": "sort", "time": 0.036191653}
{"amount": 10000, "interpreter": "Jython", "function": "tuple", "data_type": "object", "action": "sort", "time": 0.041428809}
{"amount": 100000, "interpreter": "Jython", "function": "tuple", "data_type": "object", "action": "sort", "time": 0.220239074}
{"amount": 100000, "interpreter": "Jython", "function": "tuple", "data_type": "object", "action": "sort", "time": 0.227815823}
{"amount": 100000, "interpreter": "Jython", "function": "tuple", "data_type": "object", "action": "sort", "time": 0.221824674}
{"amount": 100000, "interpreter": "Jython", "function": "tuple", "data_type": "object", "action": "sort", "time": 0.222682559}
{"amount": 100000, "interpreter": "Jython", "function": "tuple", "data_type": "object", "action": "sort", "time": 0.219793872}
{"amount": 1000000, "interpreter": "Jython", "function": "tuple", "data_type": "object", "action": "sort", "time": 1.806346371}
{"amount": 1000000, "interpreter": "Jython", "function": "tuple", "data_type": "object", "action": "sort", "time": 1.800698351}
{"amount": 1000000, "interpreter": "Jython", "function": "tuple", "data_type": "object", "action": "sort", "time": 1.723843576}
{"amount": 1000000, "interpreter": "Jython", "function": "tuple", "data_type": "object", "action": "sort", "time": 1.754230556}
{"amount": 1000000, "interpreter": "Jython", "function": "tuple", "data_type": "object", "action": "sort", "time": 1.756530789}
{"amount": 5000000, "interpreter": "Jython", "function": "tuple", "data_type": "object", "action": "sort", "time": 8.596336724}
{"amount": 5000000, "interpreter": "Jython", "function": "tuple", "data_type": "object", "action": "sort", "time": 8.729361316}
{"amount": 5000000, "interpreter": "Jython", "function": "tuple", "data_type": "object", "action": "sort", "time": 8.684182308}
{"amount": 5000000, "interpreter": "Jython", "function": "tuple", "data_type": "object", "action": "sort", "time": 8.612552101}
{"amount": 5000000, "interpreter": "Jython", "function": "tuple", "data_type": "object", "action": "sort", "time": 8.6304467}
