{"interpreter": "PyPy", "function": "tuple", "action": "append", "amount": 100, "time": 0.00013999999999998736, "data_type": "integer"}
{"interpreter": "PyPy", "function": "tuple", "action": "append", "amount": 100, "time": 0.00013600000000003887, "data_type": "object"}
{"interpreter": "PyPy", "function": "tuple", "action": "append", "amount": 100, "time": 0.0001430000000000181, "data_type": "integer"}
{"interpreter": "PyPy", "function": "tuple", "action": "append", "amount": 100, "time": 0.000140000000000029, "data_type": "object"}
{"interpreter": "PyPy", "function": "tuple", "action": "append", "amount": 100, "time": 0.000134000000000023, "data_type": "integer"}
{"interpreter": "PyPy", "function": "tuple", "action": "append", "amount": 100, "time": 0.00014399999999999136, "data_type": "object"}
{"interpreter": "PyPy", "function": "tuple", "action": "append", "amount": 100, "time": 0.0001419999999999616, "data_type": "integer"}
{"interpreter": "PyPy", "function": "tuple", "action": "append", "amount": 100, "time": 0.00014000000000000123, "data_type": "object"}
{"interpreter": "PyPy", "function": "tuple", "action": "append", "amount": 100, "time": 0.0001400000000000151, "data_type": "integer"}
{"interpreter": "PyPy", "function": "tuple", "action": "append", "amount": 100, "time": 0.00013500000000005175, "data_type": "object"}
{"interpreter": "PyPy", "function": "tuple", "action": "sort", "amount": 100, "time": 3.0000000000002247e-05, "data_type": "integer"}
{"interpreter": "PyPy", "function": "tuple", "action": "sort", "amount": 100, "time": 0.0002459999999999962, "data_type": "object"}
{"interpreter": "PyPy", "function": "tuple", "action": "sort", "amount": 100, "time": 2.9000000000001247e-05, "data_type": "integer"}
{"interpreter": "PyPy", "function": "tuple", "action": "sort", "amount": 100, "time": 0.00016100000000000836, "data_type": "object"}
{"interpreter": "PyPy", "function": "tuple", "action": "sort", "amount": 100, "time": 2.8000000000000247e-05, "data_type": "integer"}
{"interpreter": "PyPy", "function": "tuple", "action": "sort", "amount": 100, "time": 0.00015500000000000236, "data_type": "object"}
{"interpreter": "PyPy", "function": "tuple", "action": "sort", "amount": 100, "time": 2.9000000000001247e-05, "data_type": "integer"}
{"interpreter": "PyPy", "function": "tuple", "action": "sort", "amount": 100, "time": 0.00015500000000001624, "data_type": "object"}
{"interpreter": "PyPy", "function": "tuple", "action": "sort", "amount": 100, "time": 2.6999999999999247e-05, "data_type": "integer"}
{"interpreter": "PyPy", "function": "tuple", "action": "sort", "amount": 100, "time": 0.00015899999999999248, "data_type": "object"}
{"interpreter": "PyPy", "function": "tuple", "action": "append", "amount": 1000, "time": 0.0019720000000000293, "data_type": "integer"}
{"interpreter": "PyPy", "function": "tuple", "action": "append", "amount": 1000, "time": 0.002471999999999988, "data_type": "object"}
{"interpreter": "PyPy", "function": "tuple", "action": "append", "amount": 1000, "time": 0.0020860000000003792, "data_type": "integer"}
{"interpreter": "PyPy", "function": "tuple", "action": "append", "amount": 1000, "time": 0.00218700000000005, "data_type": "object"}
{"interpreter": "PyPy", "function": "tuple", "action": "append", "amount": 1000, "time": 0.002097999999999961, "data_type": "integer"}
{"interpreter": "PyPy", "function": "tuple", "action": "append", "amount": 1000, "time": 0.0021379999999999733, "data_type": "object"}
{"interpreter": "PyPy", "function": "tuple", "action": "append", "amount": 1000, "time": 0.0021589999999999387, "data_type": "integer"}
{"interpreter": "PyPy", "function": "tuple", "action": "append", "amount": 1000, "time": 0.002217999999999956, "data_type": "object"}
{"interpreter": "PyPy", "function": "tuple", "action": "append", "amount": 1000, "time": 0.0019889999999998104, "data_type": "integer"}
{"interpreter": "PyPy", "function": "tuple", "action": "append", "amount": 1000, "time": 0.0023449999999999166, "data_type": "object"}
{"interpreter": "PyPy", "function": "tuple", "action": "sort", "amount": 1000, "time": 0.0001239999999999991, "data_type": "integer"}
{"interpreter": "PyPy", "function": "tuple", "action": "sort", "amount": 1000, "time": 0.0011720000000000064, "data_type": "object"}
{"interpreter": "PyPy", "function": "tuple", "action": "sort", "amount": 1000, "time": 0.00012199999999999711, "data_type": "integer"}
{"interpreter": "PyPy", "function": "tuple", "action": "sort", "amount": 1000, "time": 0.0012009999999999937, "data_type": "object"}
{"interpreter": "PyPy", "function": "tuple", "action": "sort", "amount": 1000, "time": 0.00012099999999999611, "data_type": "integer"}
{"interpreter": "PyPy", "function": "tuple", "action": "sort", "amount": 1000, "time": 0.0012030000000000096, "data_type": "object"}
{"interpreter": "PyPy", "function": "tuple", "action": "sort", "amount": 1000, "time": 0.00012099999999999611, "data_type": "integer"}
{"interpreter": "PyPy", "function": "tuple", "action": "sort", "amount": 1000, "time": 0.0011539999999999884, "data_type": "object"}
{"interpreter": "PyPy", "function": "tuple", "action": "sort", "amount": 1000, "time": 0.00012499999999998623, "data_type": "integer"}
{"interpreter": "PyPy", "function": "tuple", "action": "sort", "amount": 1000, "time": 0.0012000000000000066, "data_type": "object"}
{"interpreter": "PyPy", "function": "tuple", "action": "append", "amount": 10000, "time": 0.05706699999999877, "data_type": "integer"}
{"interpreter": "PyPy", "function": "tuple", "action": "append", "amount": 10000, "time": 0.05766699999999947, "data_type": "object"}
{"interpreter": "PyPy", "function": "tuple", "action": "append", "amount": 10000, "time": 0.05710199999999964, "data_type": "integer"}
{"interpreter": "PyPy", "function": "tuple", "action": "append", "amount": 10000, "time": 0.05735500000000056, "data_type": "object"}
{"interpreter": "PyPy", "function": "tuple", "action": "append", "amount": 10000, "time": 0.05699999999999997, "data_type": "integer"}
{"interpreter": "PyPy", "function": "tuple", "action": "append", "amount": 10000, "time": 0.058249000000000564, "data_type": "object"}
{"interpreter": "PyPy", "function": "tuple", "action": "append", "amount": 10000, "time": 0.057791000000000675, "data_type": "integer"}
{"interpreter": "PyPy", "function": "tuple", "action": "append", "amount": 10000, "time": 0.05729000000000041, "data_type": "object"}
{"interpreter": "PyPy", "function": "tuple", "action": "append", "amount": 10000, "time": 0.05706800000000019, "data_type": "integer"}
{"interpreter": "PyPy", "function": "tuple", "action": "append", "amount": 10000, "time": 0.058423999999999865, "data_type": "object"}
{"interpreter": "PyPy", "function": "tuple", "action": "sort", "amount": 10000, "time": 0.0012920000000000015, "data_type": "integer"}
{"interpreter": "PyPy", "function": "tuple", "action": "sort", "amount": 10000, "time": 0.004541000000000003, "data_type": "object"}
{"interpreter": "PyPy", "function": "tuple", "action": "sort", "amount": 10000, "time": 0.0012640000000000151, "data_type": "integer"}
{"interpreter": "PyPy", "function": "tuple", "action": "sort", "amount": 10000, "time": 0.004536999999999999, "data_type": "object"}
{"interpreter": "PyPy", "function": "tuple", "action": "sort", "amount": 10000, "time": 0.0012989999999999946, "data_type": "integer"}
{"interpreter": "PyPy", "function": "tuple", "action": "sort", "amount": 10000, "time": 0.004517999999999994, "data_type": "object"}
{"interpreter": "PyPy", "function": "tuple", "action": "sort", "amount": 10000, "time": 0.0012910000000000005, "data_type": "integer"}
{"interpreter": "PyPy", "function": "tuple", "action": "sort", "amount": 10000, "time": 0.004611999999999991, "data_type": "object"}
{"interpreter": "PyPy", "function": "tuple", "action": "sort", "amount": 10000, "time": 0.0012630000000000002, "data_type": "integer"}
{"interpreter": "PyPy", "function": "tuple", "action": "sort", "amount": 10000, "time": 0.004490000000000008, "data_type": "object"}
{"interpreter": "PyPy", "function": "tuple", "action": "append", "amount": 100000, "time": 25.026727000000395, "data_type": "integer"}
{"interpreter": "PyPy", "function": "tuple", "action": "append", "amount": 100000, "time": 25.209583999999435, "data_type": "object"}
{"interpreter": "PyPy", "function": "tuple", "action": "append", "amount": 100000, "time": 25.059036999999844, "data_type": "integer"}
{"interpreter": "PyPy", "function": "tuple", "action": "append", "amount": 100000, "time": 25.26671699999989, "data_type": "object"}
{"interpreter": "PyPy", "function": "tuple", "action": "append", "amount": 100000, "time": 25.03329600000016, "data_type": "integer"}
{"interpreter": "PyPy", "function": "tuple", "action": "append", "amount": 100000, "time": 25.299402000000015, "data_type": "object"}
{"interpreter": "PyPy", "function": "tuple", "action": "append", "amount": 100000, "time": 25.034050000000317, "data_type": "integer"}
{"interpreter": "PyPy", "function": "tuple", "action": "append", "amount": 100000, "time": 25.234208000000226, "data_type": "object"}
{"interpreter": "PyPy", "function": "tuple", "action": "append", "amount": 100000, "time": 25.063984999999416, "data_type": "integer"}
{"interpreter": "PyPy", "function": "tuple", "action": "append", "amount": 100000, "time": 25.297749000000046, "data_type": "object"}
{"interpreter": "PyPy", "function": "tuple", "action": "sort", "amount": 100000, "time": 0.019296000000000008, "data_type": "integer"}
{"interpreter": "PyPy", "function": "tuple", "action": "sort", "amount": 100000, "time": 0.026254999999999973, "data_type": "object"}
{"interpreter": "PyPy", "function": "tuple", "action": "sort", "amount": 100000, "time": 0.019169999999999993, "data_type": "integer"}
{"interpreter": "PyPy", "function": "tuple", "action": "sort", "amount": 100000, "time": 0.02623600000000001, "data_type": "object"}
{"interpreter": "PyPy", "function": "tuple", "action": "sort", "amount": 100000, "time": 0.019235000000000002, "data_type": "integer"}
{"interpreter": "PyPy", "function": "tuple", "action": "sort", "amount": 100000, "time": 0.026401000000000008, "data_type": "object"}
{"interpreter": "PyPy", "function": "tuple", "action": "sort", "amount": 100000, "time": 0.019162000000000012, "data_type": "integer"}
{"interpreter": "PyPy", "function": "tuple", "action": "sort", "amount": 100000, "time": 0.026283, "data_type": "object"}
{"interpreter": "PyPy", "function": "tuple", "action": "sort", "amount": 100000, "time": 0.019218, "data_type": "integer"}
{"interpreter": "PyPy", "function": "tuple", "action": "sort", "amount": 100000, "time": 0.026339, "data_type": "object"}
{"interpreter": "PyPy", "function": "tuple", "action": "append", "amount": 1000000, "time": 900, "data_type": "integer"}
{"interpreter": "PyPy", "function": "tuple", "action": "append", "amount": 1000000, "time": 900, "data_type": "object"}
{"interpreter": "PyPy", "function": "tuple", "action": "append", "amount": 1000000, "time": 900, "data_type": "integer"}
{"interpreter": "PyPy", "function": "tuple", "action": "append", "amount": 1000000, "time": 900, "data_type": "object"}
{"interpreter": "PyPy", "function": "tuple", "action": "append", "amount": 1000000, "time": 900, "data_type": "integer"}
{"interpreter": "PyPy", "function": "tuple", "action": "append", "amount": 1000000, "time": 900, "data_type": "object"}
{"interpreter": "PyPy", "function": "tuple", "action": "append", "amount": 1000000, "time": 900, "data_type": "integer"}
{"interpreter": "PyPy", "function": "tuple", "action": "append", "amount": 1000000, "time": 900, "data_type": "object"}
{"interpreter": "PyPy", "function": "tuple", "action": "append", "amount": 1000000, "time": 900, "data_type": "integer"}
{"interpreter": "PyPy", "function": "tuple", "action": "append", "amount": 1000000, "time": 900, "data_type": "object"}
{"interpreter": "PyPy", "function": "tuple", "action": "sort", "amount": 1000000, "time": 0.23579300000000003, "data_type": "integer"}
{"interpreter": "PyPy", "function": "tuple", "action": "sort", "amount": 1000000, "time": 0.32328499999999993, "data_type": "object"}
{"interpreter": "PyPy", "function": "tuple", "action": "sort", "amount": 1000000, "time": 0.23660400000000004, "data_type": "integer"}
{"interpreter": "PyPy", "function": "tuple", "action": "sort", "amount": 1000000, "time": 0.32300999999999996, "data_type": "object"}
{"interpreter": "PyPy", "function": "tuple", "action": "sort", "amount": 1000000, "time": 0.23649900000000001, "data_type": "integer"}
{"interpreter": "PyPy", "function": "tuple", "action": "sort", "amount": 1000000, "time": 0.32554799999999995, "data_type": "object"}
{"interpreter": "PyPy", "function": "tuple", "action": "sort", "amount": 1000000, "time": 0.236858, "data_type": "integer"}
{"interpreter": "PyPy", "function": "tuple", "action": "sort", "amount": 1000000, "time": 0.326745, "data_type": "object"}
{"interpreter": "PyPy", "function": "tuple", "action": "sort", "amount": 1000000, "time": 0.237394, "data_type": "integer"}
{"interpreter": "PyPy", "function": "tuple", "action": "sort", "amount": 1000000, "time": 0.323824, "data_type": "object"}
{"interpreter": "PyPy", "function": "tuple", "action": "sort", "amount": 5000000, "time": 1.1826720000000002, "data_type": "integer"}
{"interpreter": "PyPy", "function": "tuple", "action": "sort", "amount": 5000000, "time": 1.3947290000000003, "data_type": "object"}
{"interpreter": "PyPy", "function": "tuple", "action": "sort", "amount": 5000000, "time": 1.1853000000000002, "data_type": "integer"}
{"interpreter": "PyPy", "function": "tuple", "action": "sort", "amount": 5000000, "time": 1.3955670000000002, "data_type": "object"}
{"interpreter": "PyPy", "function": "tuple", "action": "sort", "amount": 5000000, "time": 1.182709, "data_type": "integer"}
{"interpreter": "PyPy", "function": "tuple", "action": "sort", "amount": 5000000, "time": 1.4021370000000002, "data_type": "object"}
{"interpreter": "PyPy", "function": "tuple", "action": "sort", "amount": 5000000, "time": 1.1851330000000002, "data_type": "integer"}
{"interpreter": "PyPy", "function": "tuple", "action": "sort", "amount": 5000000, "time": 1.3980650000000003, "data_type": "object"}
{"interpreter": "PyPy", "function": "tuple", "action": "sort", "amount": 5000000, "time": 1.1830760000000002, "data_type": "integer"}
{"interpreter": "PyPy", "function": "tuple", "action": "sort", "amount": 5000000, "time": 1.3948270000000003, "data_type": "object"}
{"function": "tuple", "data_type": "integer", "amount": 100, "time": 0.00010999999999998511, "action": "append", "interpreter": "CPython"}
{"function": "tuple", "data_type": "object", "amount": 100, "time": 0.00011999999999994654, "action": "append", "interpreter": "CPython"}
{"function": "tuple", "data_type": "integer", "amount": 100, "time": 0.00012200000000000405, "action": "append", "interpreter": "CPython"}
{"function": "tuple", "data_type": "object", "amount": 100, "time": 0.00011699999999999905, "action": "append", "interpreter": "CPython"}
{"function": "tuple", "data_type": "integer", "amount": 100, "time": 0.00011800000000000699, "action": "append", "interpreter": "CPython"}
{"function": "tuple", "data_type": "object", "amount": 100, "time": 0.00011500000000001787, "action": "append", "interpreter": "CPython"}
{"function": "tuple", "data_type": "integer", "amount": 100, "time": 0.00011699999999999211, "action": "append", "interpreter": "CPython"}
{"function": "tuple", "data_type": "object", "amount": 100, "time": 0.00012900000000004574, "action": "append", "interpreter": "CPython"}
{"function": "tuple", "data_type": "integer", "amount": 100, "time": 0.00012999999999999817, "action": "append", "interpreter": "CPython"}
{"function": "tuple", "data_type": "object", "amount": 100, "time": 0.0001120000000000218, "action": "append", "interpreter": "CPython"}
{"function": "tuple", "data_type": "integer", "amount": 100, "time": 2.3000000000002185e-05, "action": "sort", "interpreter": "CPython"}
{"function": "tuple", "data_type": "object", "amount": 100, "time": 9.000000000002062e-06, "action": "sort", "interpreter": "CPython"}
{"function": "tuple", "data_type": "integer", "amount": 100, "time": 2.4000000000003185e-05, "action": "sort", "interpreter": "CPython"}
{"function": "tuple", "data_type": "object", "amount": 100, "time": 9.000000000002062e-06, "action": "sort", "interpreter": "CPython"}
{"function": "tuple", "data_type": "integer", "amount": 100, "time": 3.0000000000002247e-05, "action": "sort", "interpreter": "CPython"}
{"function": "tuple", "data_type": "object", "amount": 100, "time": 9.999999999996123e-06, "action": "sort", "interpreter": "CPython"}
{"function": "tuple", "data_type": "integer", "amount": 100, "time": 2.8000000000000247e-05, "action": "sort", "interpreter": "CPython"}
{"function": "tuple", "data_type": "object", "amount": 100, "time": 8.999999999995123e-06, "action": "sort", "interpreter": "CPython"}
{"function": "tuple", "data_type": "integer", "amount": 100, "time": 2.4999999999997247e-05, "action": "sort", "interpreter": "CPython"}
{"function": "tuple", "data_type": "object", "amount": 100, "time": 9.999999999996123e-06, "action": "sort", "interpreter": "CPython"}
{"function": "tuple", "data_type": "integer", "amount": 1000, "time": 0.002550999999999977, "action": "append", "interpreter": "CPython"}
{"function": "tuple", "data_type": "object", "amount": 1000, "time": 0.00309600000000005, "action": "append", "interpreter": "CPython"}
{"function": "tuple", "data_type": "integer", "amount": 1000, "time": 0.0024390000000000037, "action": "append", "interpreter": "CPython"}
{"function": "tuple", "data_type": "object", "amount": 1000, "time": 0.00295700000000005, "action": "append", "interpreter": "CPython"}
{"function": "tuple", "data_type": "integer", "amount": 1000, "time": 0.0025100000000000122, "action": "append", "interpreter": "CPython"}
{"function": "tuple", "data_type": "object", "amount": 1000, "time": 0.0029819999999998598, "action": "append", "interpreter": "CPython"}
{"function": "tuple", "data_type": "integer", "amount": 1000, "time": 0.0024929999999999744, "action": "append", "interpreter": "CPython"}
{"function": "tuple", "data_type": "object", "amount": 1000, "time": 0.003016999999999874, "action": "append", "interpreter": "CPython"}
{"function": "tuple", "data_type": "integer", "amount": 1000, "time": 0.00243300000000006, "action": "append", "interpreter": "CPython"}
{"function": "tuple", "data_type": "object", "amount": 1000, "time": 0.0029780000000001194, "action": "append", "interpreter": "CPython"}
{"function": "tuple", "data_type": "integer", "amount": 1000, "time": 0.00028000000000000247, "action": "sort", "interpreter": "CPython"}
{"function": "tuple", "data_type": "object", "amount": 1000, "time": 4.799999999999943e-05, "action": "sort", "interpreter": "CPython"}
{"function": "tuple", "data_type": "integer", "amount": 1000, "time": 0.00027999999999999553, "action": "sort", "interpreter": "CPython"}
{"function": "tuple", "data_type": "object", "amount": 1000, "time": 4.500000000000337e-05, "action": "sort", "interpreter": "CPython"}
{"function": "tuple", "data_type": "integer", "amount": 1000, "time": 0.0003029999999999977, "action": "sort", "interpreter": "CPython"}
{"function": "tuple", "data_type": "object", "amount": 1000, "time": 4.599999999999743e-05, "action": "sort", "interpreter": "CPython"}
{"function": "tuple", "data_type": "integer", "amount": 1000, "time": 0.00028100000000000347, "action": "sort", "interpreter": "CPython"}
{"function": "tuple", "data_type": "object", "amount": 1000, "time": 4.400000000000237e-05, "action": "sort", "interpreter": "CPython"}
{"function": "tuple", "data_type": "integer", "amount": 1000, "time": 0.00027800000000000047, "action": "sort", "interpreter": "CPython"}
{"function": "tuple", "data_type": "object", "amount": 1000, "time": 4.699999999999843e-05, "action": "sort", "interpreter": "CPython"}
{"function": "tuple", "data_type": "integer", "amount": 10000, "time": 0.20020900000000064, "action": "append", "interpreter": "CPython"}
{"function": "tuple", "data_type": "object", "amount": 10000, "time": 0.3629870000000013, "action": "append", "interpreter": "CPython"}
{"function": "tuple", "data_type": "integer", "amount": 10000, "time": 0.20072100000000007, "action": "append", "interpreter": "CPython"}
{"function": "tuple", "data_type": "object", "amount": 10000, "time": 0.3700469999999982, "action": "append", "interpreter": "CPython"}
{"function": "tuple", "data_type": "integer", "amount": 10000, "time": 0.19908199999999965, "action": "append", "interpreter": "CPython"}
{"function": "tuple", "data_type": "object", "amount": 10000, "time": 0.3648609999999982, "action": "append", "interpreter": "CPython"}
{"function": "tuple", "data_type": "integer", "amount": 10000, "time": 0.19980099999999956, "action": "append", "interpreter": "CPython"}
{"function": "tuple", "data_type": "object", "amount": 10000, "time": 0.3647219999999992, "action": "append", "interpreter": "CPython"}
{"function": "tuple", "data_type": "integer", "amount": 10000, "time": 0.19954899999999912, "action": "append", "interpreter": "CPython"}
{"function": "tuple", "data_type": "object", "amount": 10000, "time": 0.3640169999999987, "action": "append", "interpreter": "CPython"}
{"function": "tuple", "data_type": "integer", "amount": 10000, "time": 0.003695000000000004, "action": "sort", "interpreter": "CPython"}
{"function": "tuple", "data_type": "object", "amount": 10000, "time": 0.0004669999999999952, "action": "sort", "interpreter": "CPython"}
{"function": "tuple", "data_type": "integer", "amount": 10000, "time": 0.0037750000000000006, "action": "sort", "interpreter": "CPython"}
{"function": "tuple", "data_type": "object", "amount": 10000, "time": 0.00046299999999999814, "action": "sort", "interpreter": "CPython"}
{"function": "tuple", "data_type": "integer", "amount": 10000, "time": 0.0036409999999999984, "action": "sort", "interpreter": "CPython"}
{"function": "tuple", "data_type": "object", "amount": 10000, "time": 0.00042299999999999977, "action": "sort", "interpreter": "CPython"}
{"function": "tuple", "data_type": "integer", "amount": 10000, "time": 0.003694999999999997, "action": "sort", "interpreter": "CPython"}
{"function": "tuple", "data_type": "object", "amount": 10000, "time": 0.0004289999999999988, "action": "sort", "interpreter": "CPython"}
{"function": "tuple", "data_type": "integer", "amount": 10000, "time": 0.003974999999999999, "action": "sort", "interpreter": "CPython"}
{"function": "tuple", "data_type": "object", "amount": 10000, "time": 0.0005079999999999946, "action": "sort", "interpreter": "CPython"}
{"function": "tuple", "data_type": "integer", "amount": 100000, "time": 25.11387200000009, "action": "append", "interpreter": "CPython"}
{"function": "tuple", "data_type": "object", "amount": 100000, "time": 46.274252000000175, "action": "append", "interpreter": "CPython"}
{"function": "tuple", "data_type": "integer", "amount": 100000, "time": 25.10511900000034, "action": "append", "interpreter": "CPython"}
{"function": "tuple", "data_type": "object", "amount": 100000, "time": 46.560119999999806, "action": "append", "interpreter": "CPython"}
{"function": "tuple", "data_type": "integer", "amount": 100000, "time": 25.11286599999943, "action": "append", "interpreter": "CPython"}
{"function": "tuple", "data_type": "object", "amount": 100000, "time": 46.58099300000003, "action": "append", "interpreter": "CPython"}
{"function": "tuple", "data_type": "integer", "amount": 100000, "time": 25.100810999999826, "action": "append", "interpreter": "CPython"}
{"function": "tuple", "data_type": "object", "amount": 100000, "time": 46.22566499999938, "action": "append", "interpreter": "CPython"}
{"function": "tuple", "data_type": "integer", "amount": 100000, "time": 25.120604999999994, "action": "append", "interpreter": "CPython"}
{"function": "tuple", "data_type": "object", "amount": 100000, "time": 46.247864000000625, "action": "append", "interpreter": "CPython"}
{"function": "tuple", "data_type": "integer", "amount": 100000, "time": 0.048100000000000004, "action": "sort", "interpreter": "CPython"}
{"function": "tuple", "data_type": "object", "amount": 100000, "time": 0.004848999999999992, "action": "sort", "interpreter": "CPython"}
{"function": "tuple", "data_type": "integer", "amount": 100000, "time": 0.04925199999999999, "action": "sort", "interpreter": "CPython"}
{"function": "tuple", "data_type": "object", "amount": 100000, "time": 0.004925000000000013, "action": "sort", "interpreter": "CPython"}
{"function": "tuple", "data_type": "integer", "amount": 100000, "time": 0.04993799999999998, "action": "sort", "interpreter": "CPython"}
{"function": "tuple", "data_type": "object", "amount": 100000, "time": 0.0048789999999999945, "action": "sort", "interpreter": "CPython"}
{"function": "tuple", "data_type": "integer", "amount": 100000, "time": 0.04807, "action": "sort", "interpreter": "CPython"}
{"function": "tuple", "data_type": "object", "amount": 100000, "time": 0.004852999999999996, "action": "sort", "interpreter": "CPython"}
{"function": "tuple", "data_type": "integer", "amount": 100000, "time": 0.048082000000000014, "action": "sort", "interpreter": "CPython"}
{"function": "tuple", "data_type": "object", "amount": 100000, "time": 0.004942000000000002, "action": "sort", "interpreter": "CPython"}
{"function": "tuple", "data_type": "integer", "amount": 1000000, "time": 900, "action": "append", "interpreter": "CPython"}
{"function": "tuple", "data_type": "object", "amount": 1000000, "time": 900, "action": "append", "interpreter": "CPython"}
{"function": "tuple", "data_type": "integer", "amount": 1000000, "time": 900, "action": "append", "interpreter": "CPython"}
{"function": "tuple", "data_type": "object", "amount": 1000000, "time": 900, "action": "append", "interpreter": "CPython"}
{"function": "tuple", "data_type": "integer", "amount": 1000000, "time": 900, "action": "append", "interpreter": "CPython"}
{"function": "tuple", "data_type": "object", "amount": 1000000, "time": 900, "action": "append", "interpreter": "CPython"}
{"function": "tuple", "data_type": "integer", "amount": 1000000, "time": 900, "action": "append", "interpreter": "CPython"}
{"function": "tuple", "data_type": "object", "amount": 1000000, "time": 900, "action": "append", "interpreter": "CPython"}
{"function": "tuple", "data_type": "integer", "amount": 1000000, "time": 900, "action": "append", "interpreter": "CPython"}
{"function": "tuple", "data_type": "object", "amount": 1000000, "time": 900, "action": "append", "interpreter": "CPython"}
{"function": "tuple", "data_type": "integer", "amount": 1000000, "time": 0.728776, "action": "sort", "interpreter": "CPython"}
{"function": "tuple", "data_type": "object", "amount": 1000000, "time": 0.05215699999999979, "action": "sort", "interpreter": "CPython"}
{"function": "tuple", "data_type": "integer", "amount": 1000000, "time": 0.728617, "action": "sort", "interpreter": "CPython"}
{"function": "tuple", "data_type": "object", "amount": 1000000, "time": 0.05232799999999971, "action": "sort", "interpreter": "CPython"}
{"function": "tuple", "data_type": "integer", "amount": 1000000, "time": 0.726918, "action": "sort", "interpreter": "CPython"}
{"function": "tuple", "data_type": "object", "amount": 1000000, "time": 0.053472000000000186, "action": "sort", "interpreter": "CPython"}
{"function": "tuple", "data_type": "integer", "amount": 1000000, "time": 0.72847, "action": "sort", "interpreter": "CPython"}
{"function": "tuple", "data_type": "object", "amount": 1000000, "time": 0.0520290000000001, "action": "sort", "interpreter": "CPython"}
{"function": "tuple", "data_type": "integer", "amount": 1000000, "time": 0.727891, "action": "sort", "interpreter": "CPython"}
{"function": "tuple", "data_type": "object", "amount": 1000000, "time": 0.0521250000000002, "action": "sort", "interpreter": "CPython"}
{"function": "tuple", "data_type": "integer", "amount": 5000000, "time": 4.846627, "action": "sort", "interpreter": "CPython"}
{"function": "tuple", "data_type": "object", "amount": 5000000, "time": 0.27211799999999897, "action": "sort", "interpreter": "CPython"}
{"function": "tuple", "data_type": "integer", "amount": 5000000, "time": 4.834131999999999, "action": "sort", "interpreter": "CPython"}
{"function": "tuple", "data_type": "object", "amount": 5000000, "time": 0.2691020000000002, "action": "sort", "interpreter": "CPython"}
{"function": "tuple", "data_type": "integer", "amount": 5000000, "time": 4.840470999999999, "action": "sort", "interpreter": "CPython"}
{"function": "tuple", "data_type": "object", "amount": 5000000, "time": 0.26936300000000024, "action": "sort", "interpreter": "CPython"}
{"function": "tuple", "data_type": "integer", "amount": 5000000, "time": 4.830748, "action": "sort", "interpreter": "CPython"}
{"function": "tuple", "data_type": "object", "amount": 5000000, "time": 0.2696630000000013, "action": "sort", "interpreter": "CPython"}
{"function": "tuple", "data_type": "integer", "amount": 5000000, "time": 4.841352, "action": "sort", "interpreter": "CPython"}
{"function": "tuple", "data_type": "object", "amount": 5000000, "time": 0.26900499999999994, "action": "sort", "interpreter": "CPython"}
{"function": "tuple", "data_type": "integer", "amount": 100, "time": 0.00010300000000002668, "action": "append", "interpreter": "Cython"}
{"function": "tuple", "data_type": "object", "amount": 100, "time": 0.00010699999999995435, "action": "append", "interpreter": "Cython"}
{"function": "tuple", "data_type": "integer", "amount": 100, "time": 9.20000000000365e-05, "action": "append", "interpreter": "Cython"}
{"function": "tuple", "data_type": "object", "amount": 100, "time": 0.00010199999999999793, "action": "append", "interpreter": "Cython"}
{"function": "tuple", "data_type": "integer", "amount": 100, "time": 0.00010500000000000786, "action": "append", "interpreter": "Cython"}
{"function": "tuple", "data_type": "object", "amount": 100, "time": 0.00011099999999999999, "action": "append", "interpreter": "Cython"}
{"function": "tuple", "data_type": "integer", "amount": 100, "time": 0.00010199999999997711, "action": "append", "interpreter": "Cython"}
{"function": "tuple", "data_type": "object", "amount": 100, "time": 0.00011300000000001587, "action": "append", "interpreter": "Cython"}
{"function": "tuple", "data_type": "integer", "amount": 100, "time": 0.0001120000000000218, "action": "append", "interpreter": "Cython"}
{"function": "tuple", "data_type": "object", "amount": 100, "time": 0.00011300000000003668, "action": "append", "interpreter": "Cython"}
{"function": "tuple", "data_type": "integer", "amount": 100, "time": 2.1000000000000185e-05, "action": "sort", "interpreter": "Cython"}
{"function": "tuple", "data_type": "object", "amount": 100, "time": 5.999999999999062e-06, "action": "sort", "interpreter": "Cython"}
{"function": "tuple", "data_type": "integer", "amount": 100, "time": 2.1000000000000185e-05, "action": "sort", "interpreter": "Cython"}
{"function": "tuple", "data_type": "object", "amount": 100, "time": 7.999999999994123e-06, "action": "sort", "interpreter": "Cython"}
{"function": "tuple", "data_type": "integer", "amount": 100, "time": 2.2000000000001185e-05, "action": "sort", "interpreter": "Cython"}
{"function": "tuple", "data_type": "object", "amount": 100, "time": 7.000000000000062e-06, "action": "sort", "interpreter": "Cython"}
{"function": "tuple", "data_type": "integer", "amount": 100, "time": 2.4999999999997247e-05, "action": "sort", "interpreter": "Cython"}
{"function": "tuple", "data_type": "object", "amount": 100, "time": 8.000000000001062e-06, "action": "sort", "interpreter": "Cython"}
{"function": "tuple", "data_type": "integer", "amount": 100, "time": 2.2000000000001185e-05, "action": "sort", "interpreter": "Cython"}
{"function": "tuple", "data_type": "object", "amount": 100, "time": 7.000000000000062e-06, "action": "sort", "interpreter": "Cython"}
{"function": "tuple", "data_type": "integer", "amount": 1000, "time": 0.0024550000000000335, "action": "append", "interpreter": "Cython"}
{"function": "tuple", "data_type": "object", "amount": 1000, "time": 0.0029240000000000724, "action": "append", "interpreter": "Cython"}
{"function": "tuple", "data_type": "integer", "amount": 1000, "time": 0.002390000000000024, "action": "append", "interpreter": "Cython"}
{"function": "tuple", "data_type": "object", "amount": 1000, "time": 0.0030009999999999065, "action": "append", "interpreter": "Cython"}
{"function": "tuple", "data_type": "integer", "amount": 1000, "time": 0.002326999999999968, "action": "append", "interpreter": "Cython"}
{"function": "tuple", "data_type": "object", "amount": 1000, "time": 0.0029679999999999984, "action": "append", "interpreter": "Cython"}
{"function": "tuple", "data_type": "integer", "amount": 1000, "time": 0.0023170000000000274, "action": "append", "interpreter": "Cython"}
{"function": "tuple", "data_type": "object", "amount": 1000, "time": 0.0028510000000001243, "action": "append", "interpreter": "Cython"}
{"function": "tuple", "data_type": "integer", "amount": 1000, "time": 0.0024109999999999757, "action": "append", "interpreter": "Cython"}
{"function": "tuple", "data_type": "object", "amount": 1000, "time": 0.003014999999999775, "action": "append", "interpreter": "Cython"}
{"function": "tuple", "data_type": "integer", "amount": 1000, "time": 0.00028199999999999753, "action": "sort", "interpreter": "Cython"}
{"function": "tuple", "data_type": "object", "amount": 1000, "time": 4.400000000000237e-05, "action": "sort", "interpreter": "Cython"}
{"function": "tuple", "data_type": "integer", "amount": 1000, "time": 0.00027900000000000147, "action": "sort", "interpreter": "Cython"}
{"function": "tuple", "data_type": "object", "amount": 1000, "time": 4.599999999999743e-05, "action": "sort", "interpreter": "Cython"}
{"function": "tuple", "data_type": "integer", "amount": 1000, "time": 0.00027699999999999947, "action": "sort", "interpreter": "Cython"}
{"function": "tuple", "data_type": "object", "amount": 1000, "time": 4.299999999999443e-05, "action": "sort", "interpreter": "Cython"}
{"function": "tuple", "data_type": "integer", "amount": 1000, "time": 0.0002730000000000024, "action": "sort", "interpreter": "Cython"}
{"function": "tuple", "data_type": "object", "amount": 1000, "time": 4.400000000000237e-05, "action": "sort", "interpreter": "Cython"}
{"function": "tuple", "data_type": "integer", "amount": 1000, "time": 0.00028000000000000247, "action": "sort", "interpreter": "Cython"}
{"function": "tuple", "data_type": "object", "amount": 1000, "time": 4.500000000000337e-05, "action": "sort", "interpreter": "Cython"}
{"function": "tuple", "data_type": "integer", "amount": 10000, "time": 0.19923599999999872, "action": "append", "interpreter": "Cython"}
{"function": "tuple", "data_type": "object", "amount": 10000, "time": 0.36104099999999834, "action": "append", "interpreter": "Cython"}
{"function": "tuple", "data_type": "integer", "amount": 10000, "time": 0.19992000000000099, "action": "append", "interpreter": "Cython"}
{"function": "tuple", "data_type": "object", "amount": 10000, "time": 0.36342699999999856, "action": "append", "interpreter": "Cython"}
{"function": "tuple", "data_type": "integer", "amount": 10000, "time": 0.19924600000000067, "action": "append", "interpreter": "Cython"}
{"function": "tuple", "data_type": "object", "amount": 10000, "time": 0.3637390000000003, "action": "append", "interpreter": "Cython"}
{"function": "tuple", "data_type": "integer", "amount": 10000, "time": 0.19790700000000053, "action": "append", "interpreter": "Cython"}
{"function": "tuple", "data_type": "object", "amount": 10000, "time": 0.3625610000000025, "action": "append", "interpreter": "Cython"}
{"function": "tuple", "data_type": "integer", "amount": 10000, "time": 0.19907600000000103, "action": "append", "interpreter": "Cython"}
{"function": "tuple", "data_type": "object", "amount": 10000, "time": 0.3623660000000005, "action": "append", "interpreter": "Cython"}
{"function": "tuple", "data_type": "integer", "amount": 10000, "time": 0.0036670000000000036, "action": "sort", "interpreter": "Cython"}
{"function": "tuple", "data_type": "object", "amount": 10000, "time": 0.0004269999999999968, "action": "sort", "interpreter": "Cython"}
{"function": "tuple", "data_type": "integer", "amount": 10000, "time": 0.004362000000000005, "action": "sort", "interpreter": "Cython"}
{"function": "tuple", "data_type": "object", "amount": 10000, "time": 0.0004170000000000007, "action": "sort", "interpreter": "Cython"}
{"function": "tuple", "data_type": "integer", "amount": 10000, "time": 0.004172000000000002, "action": "sort", "interpreter": "Cython"}
{"function": "tuple", "data_type": "object", "amount": 10000, "time": 0.0005050000000000054, "action": "sort", "interpreter": "Cython"}
{"function": "tuple", "data_type": "integer", "amount": 10000, "time": 0.003710999999999999, "action": "sort", "interpreter": "Cython"}
{"function": "tuple", "data_type": "object", "amount": 10000, "time": 0.0004559999999999981, "action": "sort", "interpreter": "Cython"}
{"function": "tuple", "data_type": "integer", "amount": 10000, "time": 0.0035649999999999987, "action": "sort", "interpreter": "Cython"}
{"function": "tuple", "data_type": "object", "amount": 10000, "time": 0.0004559999999999981, "action": "sort", "interpreter": "Cython"}
{"function": "tuple", "data_type": "integer", "amount": 100000, "time": 25.083304000000147, "action": "append", "interpreter": "Cython"}
{"function": "tuple", "data_type": "object", "amount": 100000, "time": 46.12228599999979, "action": "append", "interpreter": "Cython"}
{"function": "tuple", "data_type": "integer", "amount": 100000, "time": 25.086815000000122, "action": "append", "interpreter": "Cython"}
{"function": "tuple", "data_type": "object", "amount": 100000, "time": 46.5425720000008, "action": "append", "interpreter": "Cython"}
{"function": "tuple", "data_type": "integer", "amount": 100000, "time": 25.092864999999946, "action": "append", "interpreter": "Cython"}
{"function": "tuple", "data_type": "object", "amount": 100000, "time": 46.049602000001, "action": "append", "interpreter": "Cython"}
{"function": "tuple", "data_type": "integer", "amount": 100000, "time": 25.077583999999632, "action": "append", "interpreter": "Cython"}
{"function": "tuple", "data_type": "object", "amount": 100000, "time": 47.27308800000008, "action": "append", "interpreter": "Cython"}
{"function": "tuple", "data_type": "integer", "amount": 100000, "time": 25.067375000000077, "action": "append", "interpreter": "Cython"}
{"function": "tuple", "data_type": "object", "amount": 100000, "time": 46.076446000000175, "action": "append", "interpreter": "Cython"}
{"function": "tuple", "data_type": "integer", "amount": 100000, "time": 0.04789399999999999, "action": "sort", "interpreter": "Cython"}
{"function": "tuple", "data_type": "object", "amount": 100000, "time": 0.004830000000000001, "action": "sort", "interpreter": "Cython"}
{"function": "tuple", "data_type": "integer", "amount": 100000, "time": 0.052093, "action": "sort", "interpreter": "Cython"}
{"function": "tuple", "data_type": "object", "amount": 100000, "time": 0.004849999999999993, "action": "sort", "interpreter": "Cython"}
{"function": "tuple", "data_type": "integer", "amount": 100000, "time": 0.04815899999999998, "action": "sort", "interpreter": "Cython"}
{"function": "tuple", "data_type": "object", "amount": 100000, "time": 0.004949999999999982, "action": "sort", "interpreter": "Cython"}
{"function": "tuple", "data_type": "integer", "amount": 100000, "time": 0.048551999999999984, "action": "sort", "interpreter": "Cython"}
{"function": "tuple", "data_type": "object", "amount": 100000, "time": 0.00480899999999998, "action": "sort", "interpreter": "Cython"}
{"function": "tuple", "data_type": "integer", "amount": 100000, "time": 0.04830499999999999, "action": "sort", "interpreter": "Cython"}
{"function": "tuple", "data_type": "object", "amount": 100000, "time": 0.0050100000000000144, "action": "sort", "interpreter": "Cython"}
{"function": "tuple", "data_type": "integer", "amount": 1000000, "time": 900, "action": "append", "interpreter": "Cython"}
{"function": "tuple", "data_type": "object", "amount": 1000000, "time": 900, "action": "append", "interpreter": "Cython"}
{"function": "tuple", "data_type": "integer", "amount": 1000000, "time": 900, "action": "append", "interpreter": "Cython"}
{"function": "tuple", "data_type": "object", "amount": 1000000, "time": 900, "action": "append", "interpreter": "Cython"}
{"function": "tuple", "data_type": "integer", "amount": 1000000, "time": 900, "action": "append", "interpreter": "Cython"}
{"function": "tuple", "data_type": "object", "amount": 1000000, "time": 900, "action": "append", "interpreter": "Cython"}
{"function": "tuple", "data_type": "integer", "amount": 1000000, "time": 900, "action": "append", "interpreter": "Cython"}
{"function": "tuple", "data_type": "object", "amount": 1000000, "time": 900, "action": "append", "interpreter": "Cython"}
{"function": "tuple", "data_type": "integer", "amount": 1000000, "time": 900, "action": "append", "interpreter": "Cython"}
{"function": "tuple", "data_type": "object", "amount": 1000000, "time": 900, "action": "append", "interpreter": "Cython"}
{"function": "tuple", "data_type": "integer", "amount": 1000000, "time": 0.726383, "action": "sort", "interpreter": "Cython"}
{"function": "tuple", "data_type": "object", "amount": 1000000, "time": 0.052039999999999864, "action": "sort", "interpreter": "Cython"}
{"function": "tuple", "data_type": "integer", "amount": 1000000, "time": 0.7252860000000001, "action": "sort", "interpreter": "Cython"}
{"function": "tuple", "data_type": "object", "amount": 1000000, "time": 0.0519099999999999, "action": "sort", "interpreter": "Cython"}
{"function": "tuple", "data_type": "integer", "amount": 1000000, "time": 0.7257619999999999, "action": "sort", "interpreter": "Cython"}
{"function": "tuple", "data_type": "object", "amount": 1000000, "time": 0.051841000000000026, "action": "sort", "interpreter": "Cython"}
{"function": "tuple", "data_type": "integer", "amount": 1000000, "time": 0.726107, "action": "sort", "interpreter": "Cython"}
{"function": "tuple", "data_type": "object", "amount": 1000000, "time": 0.052095, "action": "sort", "interpreter": "Cython"}
{"function": "tuple", "data_type": "integer", "amount": 1000000, "time": 0.726702, "action": "sort", "interpreter": "Cython"}
{"function": "tuple", "data_type": "object", "amount": 1000000, "time": 0.05188399999999982, "action": "sort", "interpreter": "Cython"}
{"function": "tuple", "data_type": "integer", "amount": 5000000, "time": 4.844079999999999, "action": "sort", "interpreter": "Cython"}
{"function": "tuple", "data_type": "object", "amount": 5000000, "time": 0.2731709999999996, "action": "sort", "interpreter": "Cython"}
{"function": "tuple", "data_type": "integer", "amount": 5000000, "time": 4.833398999999999, "action": "sort", "interpreter": "Cython"}
{"function": "tuple", "data_type": "object", "amount": 5000000, "time": 0.2689699999999995, "action": "sort", "interpreter": "Cython"}
{"function": "tuple", "data_type": "integer", "amount": 5000000, "time": 4.838611000000001, "action": "sort", "interpreter": "Cython"}
{"function": "tuple", "data_type": "object", "amount": 5000000, "time": 0.26659399999999955, "action": "sort", "interpreter": "Cython"}
{"function": "tuple", "data_type": "integer", "amount": 5000000, "time": 4.84074, "action": "sort", "interpreter": "Cython"}
{"function": "tuple", "data_type": "object", "amount": 5000000, "time": 0.2709829999999993, "action": "sort", "interpreter": "Cython"}
{"function": "tuple", "data_type": "integer", "amount": 5000000, "time": 4.853544, "action": "sort", "interpreter": "Cython"}
{"function": "tuple", "data_type": "object", "amount": 5000000, "time": 0.2712540000000008, "action": "sort", "interpreter": "Cython"}
{"amount": 100, "interpreter": "Jython", "function": "tuple", "data_type": "integer", "action": "append", "time": 0.0005218920000000001}
{"amount": 100, "interpreter": "Jython", "function": "tuple", "data_type": "object", "action": "append", "time": 0.0005038270000000006}
{"amount": 100, "interpreter": "Jython", "function": "tuple", "data_type": "integer", "action": "append", "time": 0.0008566670000000015}
{"amount": 100, "interpreter": "Jython", "function": "tuple", "data_type": "object", "action": "append", "time": 0.00052393}
{"amount": 100, "interpreter": "Jython", "function": "tuple", "data_type": "integer", "action": "append", "time": 0.0008074300000000028}
{"amount": 100, "interpreter": "Jython", "function": "tuple", "data_type": "object", "action": "append", "time": 0.0005003280000000008}
{"amount": 100, "interpreter": "Jython", "function": "tuple", "data_type": "integer", "action": "append", "time": 0.000612449}
{"amount": 100, "interpreter": "Jython", "function": "tuple", "data_type": "object", "action": "append", "time": 0.0004968010000000031}
{"amount": 100, "interpreter": "Jython", "function": "tuple", "data_type": "integer", "action": "append", "time": 0.0005548150000000002}
{"amount": 100, "interpreter": "Jython", "function": "tuple", "data_type": "object", "action": "append", "time": 0.0005133040000000007}
{"amount": 100, "interpreter": "Jython", "function": "tuple", "data_type": "integer", "action": "sort", "time": 0.000624392}
{"amount": 100, "interpreter": "Jython", "function": "tuple", "data_type": "object", "action": "sort", "time": 0.002730882}
{"amount": 100, "interpreter": "Jython", "function": "tuple", "data_type": "integer", "action": "sort", "time": 0.000553699}
{"amount": 100, "interpreter": "Jython", "function": "tuple", "data_type": "object", "action": "sort", "time": 0.002448255}
{"amount": 100, "interpreter": "Jython", "function": "tuple", "data_type": "integer", "action": "sort", "time": 0.000639374}
{"amount": 100, "interpreter": "Jython", "function": "tuple", "data_type": "object", "action": "sort", "time": 0.002494043}
{"amount": 100, "interpreter": "Jython", "function": "tuple", "data_type": "integer", "action": "sort", "time": 0.000538686}
{"amount": 100, "interpreter": "Jython", "function": "tuple", "data_type": "object", "action": "sort", "time": 0.004205931}
{"amount": 100, "interpreter": "Jython", "function": "tuple", "data_type": "integer", "action": "sort", "time": 0.000647428}
{"amount": 100, "interpreter": "Jython", "function": "tuple", "data_type": "object", "action": "sort", "time": 0.002462254}
{"amount": 1000, "interpreter": "Jython", "function": "tuple", "data_type": "integer", "action": "append", "time": 0.007027489999999938}
{"amount": 1000, "interpreter": "Jython", "function": "tuple", "data_type": "object", "action": "append", "time": 0.0043964390000000115}
{"amount": 1000, "interpreter": "Jython", "function": "tuple", "data_type": "integer", "action": "append", "time": 0.008116601000000029}
{"amount": 1000, "interpreter": "Jython", "function": "tuple", "data_type": "object", "action": "append", "time": 0.0060167509999999765}
{"amount": 1000, "interpreter": "Jython", "function": "tuple", "data_type": "integer", "action": "append", "time": 0.005452190999999975}
{"amount": 1000, "interpreter": "Jython", "function": "tuple", "data_type": "object", "action": "append", "time": 0.0048966230000000235}
{"amount": 1000, "interpreter": "Jython", "function": "tuple", "data_type": "integer", "action": "append", "time": 0.0049739250000000075}
{"amount": 1000, "interpreter": "Jython", "function": "tuple", "data_type": "object", "action": "append", "time": 0.004987644000000006}
{"amount": 1000, "interpreter": "Jython", "function": "tuple", "data_type": "integer", "action": "append", "time": 0.005107198999999991}
{"amount": 1000, "interpreter": "Jython", "function": "tuple", "data_type": "object", "action": "append", "time": 0.006481329999999938}
{"amount": 1000, "interpreter": "Jython", "function": "tuple", "data_type": "integer", "action": "sort", "time": 0.006363053}
{"amount": 1000, "interpreter": "Jython", "function": "tuple", "data_type": "object", "action": "sort", "time": 0.021853119}
{"amount": 1000, "interpreter": "Jython", "function": "tuple", "data_type": "integer", "action": "sort", "time": 0.007235933}
{"amount": 1000, "interpreter": "Jython", "function": "tuple", "data_type": "object", "action": "sort", "time": 0.026209679}
{"amount": 1000, "interpreter": "Jython", "function": "tuple", "data_type": "integer", "action": "sort", "time": 0.006342565}
{"amount": 1000, "interpreter": "Jython", "function": "tuple", "data_type": "object", "action": "sort", "time": 0.019369222}
{"amount": 1000, "interpreter": "Jython", "function": "tuple", "data_type": "integer", "action": "sort", "time": 0.006450134}
{"amount": 1000, "interpreter": "Jython", "function": "tuple", "data_type": "object", "action": "sort", "time": 0.023526688}
{"amount": 1000, "interpreter": "Jython", "function": "tuple", "data_type": "integer", "action": "sort", "time": 0.006627939}
{"amount": 1000, "interpreter": "Jython", "function": "tuple", "data_type": "object", "action": "sort", "time": 0.018598467}
{"amount": 10000, "interpreter": "Jython", "function": "tuple", "data_type": "integer", "action": "append", "time": 0.10274272199999993}
{"amount": 10000, "interpreter": "Jython", "function": "tuple", "data_type": "object", "action": "append", "time": 0.09973771499999949}
{"amount": 10000, "interpreter": "Jython", "function": "tuple", "data_type": "integer", "action": "append", "time": 0.10052923399999933}
{"amount": 10000, "interpreter": "Jython", "function": "tuple", "data_type": "object", "action": "append", "time": 0.10519757300000061}
{"amount": 10000, "interpreter": "Jython", "function": "tuple", "data_type": "integer", "action": "append", "time": 0.09553273499999947}
{"amount": 10000, "interpreter": "Jython", "function": "tuple", "data_type": "object", "action": "append", "time": 0.09906723399999859}
{"amount": 10000, "interpreter": "Jython", "function": "tuple", "data_type": "integer", "action": "append", "time": 0.10213113300000026}
{"amount": 10000, "interpreter": "Jython", "function": "tuple", "data_type": "object", "action": "append", "time": 0.09971960400000024}
{"amount": 10000, "interpreter": "Jython", "function": "tuple", "data_type": "integer", "action": "append", "time": 0.09921421799999829}
{"amount": 10000, "interpreter": "Jython", "function": "tuple", "data_type": "object", "action": "append", "time": 0.10928477499999911}
{"amount": 10000, "interpreter": "Jython", "function": "tuple", "data_type": "integer", "action": "sort", "time": 0.023042442}
{"amount": 10000, "interpreter": "Jython", "function": "tuple", "data_type": "object", "action": "sort", "time": 0.056268877}
{"amount": 10000, "interpreter": "Jython", "function": "tuple", "data_type": "integer", "action": "sort", "time": 0.023140141}
{"amount": 10000, "interpreter": "Jython", "function": "tuple", "data_type": "object", "action": "sort", "time": 0.05010207}
{"amount": 10000, "interpreter": "Jython", "function": "tuple", "data_type": "integer", "action": "sort", "time": 0.023879599}
{"amount": 10000, "interpreter": "Jython", "function": "tuple", "data_type": "object", "action": "sort", "time": 0.046118345}
{"amount": 10000, "interpreter": "Jython", "function": "tuple", "data_type": "integer", "action": "sort", "time": 0.02330903}
{"amount": 10000, "interpreter": "Jython", "function": "tuple", "data_type": "object", "action": "sort", "time": 0.049246668}
{"amount": 10000, "interpreter": "Jython", "function": "tuple", "data_type": "integer", "action": "sort", "time": 0.023742225}
{"amount": 10000, "interpreter": "Jython", "function": "tuple", "data_type": "object", "action": "sort", "time": 0.048032344}
{"amount": 100000, "interpreter": "Jython", "function": "tuple", "data_type": "integer", "action": "append", "time": 4.157264770999941}
{"amount": 100000, "interpreter": "Jython", "function": "tuple", "data_type": "object", "action": "append", "time": 4.227625114000001}
{"amount": 100000, "interpreter": "Jython", "function": "tuple", "data_type": "integer", "action": "append", "time": 4.143025187000011}
{"amount": 100000, "interpreter": "Jython", "function": "tuple", "data_type": "object", "action": "append", "time": 4.186485317999949}
{"amount": 100000, "interpreter": "Jython", "function": "tuple", "data_type": "integer", "action": "append", "time": 4.1372077360000175}
{"amount": 100000, "interpreter": "Jython", "function": "tuple", "data_type": "object", "action": "append", "time": 4.177350172000042}
{"amount": 100000, "interpreter": "Jython", "function": "tuple", "data_type": "integer", "action": "append", "time": 4.16929537399997}
{"amount": 100000, "interpreter": "Jython", "function": "tuple", "data_type": "object", "action": "append", "time": 4.171546251}
{"amount": 100000, "interpreter": "Jython", "function": "tuple", "data_type": "integer", "action": "append", "time": 4.14532794499997}
{"amount": 100000, "interpreter": "Jython", "function": "tuple", "data_type": "object", "action": "append", "time": 4.200229298000049}
{"amount": 100000, "interpreter": "Jython", "function": "tuple", "data_type": "integer", "action": "sort", "time": 0.117818361}
{"amount": 100000, "interpreter": "Jython", "function": "tuple", "data_type": "object", "action": "sort", "time": 0.248933687}
{"amount": 100000, "interpreter": "Jython", "function": "tuple", "data_type": "integer", "action": "sort", "time": 0.115829905}
{"amount": 100000, "interpreter": "Jython", "function": "tuple", "data_type": "object", "action": "sort", "time": 0.241621889}
{"amount": 100000, "interpreter": "Jython", "function": "tuple", "data_type": "integer", "action": "sort", "time": 0.114241341}
{"amount": 100000, "interpreter": "Jython", "function": "tuple", "data_type": "object", "action": "sort", "time": 0.255370303}
{"amount": 100000, "interpreter": "Jython", "function": "tuple", "data_type": "integer", "action": "sort", "time": 0.117518517}
{"amount": 100000, "interpreter": "Jython", "function": "tuple", "data_type": "object", "action": "sort", "time": 0.268316112}
{"amount": 100000, "interpreter": "Jython", "function": "tuple", "data_type": "integer", "action": "sort", "time": 0.11786384}
{"amount": 100000, "interpreter": "Jython", "function": "tuple", "data_type": "object", "action": "sort", "time": 0.261788141}
{"amount": 1000000, "interpreter": "Jython", "function": "tuple", "data_type": "integer", "action": "append", "time": 535.7813229719752}
{"amount": 1000000, "interpreter": "Jython", "function": "tuple", "data_type": "object", "action": "append", "time": 537.0799420680167}
{"amount": 1000000, "interpreter": "Jython", "function": "tuple", "data_type": "integer", "action": "append", "time": 535.8078436199928}
{"amount": 1000000, "interpreter": "Jython", "function": "tuple", "data_type": "object", "action": "append", "time": 536.9417251470176}
{"amount": 1000000, "interpreter": "Jython", "function": "tuple", "data_type": "integer", "action": "append", "time": 536.0285253929961}
{"amount": 1000000, "interpreter": "Jython", "function": "tuple", "data_type": "object", "action": "append", "time": 537.066803688987}
{"amount": 1000000, "interpreter": "Jython", "function": "tuple", "data_type": "integer", "action": "append", "time": 536.0076487049934}
{"amount": 1000000, "interpreter": "Jython", "function": "tuple", "data_type": "object", "action": "append", "time": 537.0566010679878}
{"amount": 1000000, "interpreter": "Jython", "function": "tuple", "data_type": "integer", "action": "append", "time": 535.705029077995}
{"amount": 1000000, "interpreter": "Jython", "function": "tuple", "data_type": "object", "action": "append", "time": 537.1581686759984}
{"amount": 1000000, "interpreter": "Jython", "function": "tuple", "data_type": "integer", "action": "sort", "time": 0.761580709}
{"amount": 1000000, "interpreter": "Jython", "function": "tuple", "data_type": "object", "action": "sort", "time": 1.827204914}
{"amount": 1000000, "interpreter": "Jython", "function": "tuple", "data_type": "integer", "action": "sort", "time": 0.719651491}
{"amount": 1000000, "interpreter": "Jython", "function": "tuple", "data_type": "object", "action": "sort", "time": 1.59322112}
{"amount": 1000000, "interpreter": "Jython", "function": "tuple", "data_type": "integer", "action": "sort", "time": 0.714947619}
{"amount": 1000000, "interpreter": "Jython", "function": "tuple", "data_type": "object", "action": "sort", "time": 1.795658126}
{"amount": 1000000, "interpreter": "Jython", "function": "tuple", "data_type": "integer", "action": "sort", "time": 0.799921077}
{"amount": 1000000, "interpreter": "Jython", "function": "tuple", "data_type": "object", "action": "sort", "time": 1.820478192}
{"amount": 1000000, "interpreter": "Jython", "function": "tuple", "data_type": "integer", "action": "sort", "time": 0.753060725}
{"amount": 1000000, "interpreter": "Jython", "function": "tuple", "data_type": "object", "action": "sort", "time": 1.541221876}
{"amount": 5000000, "interpreter": "Jython", "function": "tuple", "data_type": "integer", "action": "sort", "time": 4.514508211}
{"amount": 5000000, "interpreter": "Jython", "function": "tuple", "data_type": "object", "action": "sort", "time": 13.209562744}
{"amount": 5000000, "interpreter": "Jython", "function": "tuple", "data_type": "integer", "action": "sort", "time": 4.762112587}
{"amount": 5000000, "interpreter": "Jython", "function": "tuple", "data_type": "object", "action": "sort", "time": 12.336201998}
{"amount": 5000000, "interpreter": "Jython", "function": "tuple", "data_type": "integer", "action": "sort", "time": 4.59083088}
{"amount": 5000000, "interpreter": "Jython", "function": "tuple", "data_type": "object", "action": "sort", "time": 11.933814279}
{"amount": 5000000, "interpreter": "Jython", "function": "tuple", "data_type": "integer", "action": "sort", "time": 5.36869876}
{"amount": 5000000, "interpreter": "Jython", "function": "tuple", "data_type": "object", "action": "sort", "time": 12.023568642}
{"amount": 5000000, "interpreter": "Jython", "function": "tuple", "data_type": "integer", "action": "sort", "time": 4.509039557}
{"amount": 5000000, "interpreter": "Jython", "function": "tuple", "data_type": "object", "action": "sort", "time": 11.809580454}
