Interpreter,Function,Action,Amount,Type,Smallest Value,Largest Value,Largest Variation (s),Largest Variation (%)
CPython,dict,insert,100,integer,0.00014400000000001217,0.00015300000000002117,9.000000000009e-06,6.250000000005722
PyPy,dict,insert,100,integer,0.00019399999999997197,0.00020100000000000673,7.000000000034756e-06,3.6082474226988492
Jython,dict,insert,100,integer,0.0023525710000000025,0.0033634210000000084,0.0010108500000000058,42.967884922495635
Cython,dict,insert,100,integer,0.0001320000000000071,0.0001360000000000458,4.000000000038695e-06,3.030303030332181
CPython,dict,insert,100,object,0.00013300000000004975,0.00016099999999999448,2.7999999999944736e-05,21.052631578897945
PyPy,dict,insert,100,object,0.00018800000000002148,0.00020500000000005236,1.700000000003088e-05,9.042553191504755
Jython,dict,insert,100,object,0.0024227579999999975,0.004104106999999992,0.0016813489999999947,69.39814046636091
Cython,dict,insert,100,object,0.00012599999999998723,0.0001500000000000043,2.4000000000017063e-05,19.04761904763452
CPython,dict,insert,1000,integer,0.0013149999999998857,0.0014270000000000463,0.00011200000000016058,8.517110266172647
PyPy,dict,insert,1000,integer,0.0018509999999999222,0.0019289999999998059,7.799999999988372e-05,4.213938411663263
Jython,dict,insert,1000,integer,0.016447653999999964,0.017514913999999902,0.001067259999999938,6.488828133178995
Cython,dict,insert,1000,integer,0.0013049999999999243,0.001382000000000036,7.70000000001117e-05,5.9003831417713535
CPython,dict,insert,1000,object,0.0013330000000000009,0.0013680000000000567,3.500000000005582e-05,2.625656414107712
PyPy,dict,insert,1000,object,0.0018210000000001003,0.0019049999999998513,8.399999999975094e-05,4.612850082358392
Jython,dict,insert,1000,object,0.013994505999999908,0.018287882999999963,0.004293377000000055,30.679017894594367
Cython,dict,insert,1000,object,0.0012469999999999981,0.0013280000000000167,8.100000000001856e-05,6.495589414596525
CPython,dict,insert,10000,integer,0.013686000000000323,0.013836999999999655,0.00015099999999933222,1.103317258507443
PyPy,dict,insert,10000,integer,0.01294199999999987,0.013053000000000356,0.00011100000000048571,0.8576726935596262
Jython,dict,insert,10000,integer,0.060450328000000636,0.06808771999999864,0.007637391999998008,12.634161389493087
Cython,dict,insert,10000,integer,0.013358999999999524,0.013519000000000017,0.00016000000000049308,1.1976944382101862
CPython,dict,insert,10000,object,0.013391999999999932,0.014415999999999998,0.0010240000000000665,7.646356033453343
PyPy,dict,insert,10000,object,0.012999999999999706,0.013098000000000026,9.800000000032005e-05,0.7538461538486328
Jython,dict,insert,10000,object,0.058726588000000135,0.061262567000000136,0.0025359790000000007,4.318280844104199
Cython,dict,insert,10000,object,0.01284500000000019,0.013054000000000454,0.00020900000000026453,1.6270922537972865
CPython,dict,insert,100000,integer,0.14417700000000638,0.15444599999999714,0.010268999999990758,7.122495266228526
PyPy,dict,insert,100000,integer,0.13296100000000177,0.13435899999999723,0.0013979999999954584,1.0514361354046975
Jython,dict,insert,100000,integer,0.2570317769999921,0.26755795500001245,0.01052617800002037,4.095282740087306
Cython,dict,insert,100000,integer,0.14198300000001335,0.15983099999999556,0.01784799999998221,12.570519005782756
CPython,dict,insert,100000,object,0.14367599999996605,0.14415300000007397,0.0004770000001079189,0.33199699330996935
PyPy,dict,insert,100000,object,0.13189199999999301,0.13303199999999799,0.0011400000000049704,0.8643435538205735
Jython,dict,insert,100000,object,0.27131486899999874,0.281121210999991,0.009806341999992252,3.6143769179094636
Cython,dict,insert,100000,object,0.1385460000000004,0.13949099999999304,0.0009449999999926462,0.6820839287981201
CPython,dict,insert,1000000,integer,1.5374629999997844,1.5768000000000808,0.039337000000296385,2.5585656370463483
PyPy,dict,insert,1000000,integer,1.5309060000002535,1.5395890000003938,0.008683000000140328,0.5671804800646736
Jython,dict,insert,1000000,integer,1.615516931000065,1.6773125109999603,0.06179557999989527,3.82512735175369
Cython,dict,insert,1000000,integer,1.5091459999998285,1.5860400000004033,0.07689400000057489,5.095199536730285
CPython,dict,insert,1000000,object,1.497065000000127,1.5182980000002368,0.021233000000109747,1.4183084902865235
PyPy,dict,insert,1000000,object,1.5184930000001131,1.5229119999999576,0.0044189999998445195,0.2910122074875676
Jython,dict,insert,1000000,object,1.6446129240000653,2.165305270000091,0.5206923460000259,31.660480007270404
Cython,dict,insert,1000000,object,1.4769019999998703,1.5182179999997882,0.041315999999917974,2.7974774223287397
CPython,dict,insert,5000000,integer,7.811024999992075,8.00406200000253,0.19303700001045598,2.471340189164058
PyPy,dict,insert,5000000,integer,8.17561000000041,8.193495000001091,0.017885000000681828,0.21876043500950915
Jython,dict,insert,5000000,integer,7.389226435996561,20.043118519001514,12.653892083004951,171.24785919892253
Cython,dict,insert,5000000,integer,7.729698999993079,7.848867000000846,0.1191680000077664,1.541690045212279
CPython,dict,insert,5000000,object,7.525479000001454,8.039656999997145,0.5141779999956917,6.832495313528779
PyPy,dict,insert,5000000,object,8.149120999998365,8.174745000001174,0.025624000002808955,0.3144388211049277
Jython,dict,insert,5000000,object,14.883579548006548,71.98725684600569,57.10367729799914,383.6689763629301
Cython,dict,insert,5000000,object,7.448475999996413,7.597727999997295,0.14925200000088168,2.0037924536637233
CPython,dict,merge_all_match,100,integer,1.8000000000004124e-05,2.2999999999995246e-05,4.999999999991123e-06,27.777777777722097
PyPy,dict,merge_all_match,100,integer,5.8999999999989616e-05,6.1000000000005494e-05,2.000000000015878e-06,3.389830508502085
Jython,dict,merge_all_match,100,integer,0.000148473,0.000212878,6.440499999999999e-05,43.37825732624786
Cython,dict,merge_all_match,100,integer,1.9999999999999185e-05,2.0000000000006124e-05,6.938893903907228e-18,3.469446951953756e-11
CPython,dict,merge_all_match,100,object,2.5999999999998247e-05,4.300000000000137e-05,1.7000000000003124e-05,65.3846153846318
PyPy,dict,merge_all_match,100,object,5.8999999999989616e-05,6.20000000000065e-05,3.000000000016878e-06,5.084745762741366
Jython,dict,merge_all_match,100,object,0.000152515,0.000168571,1.6055999999999997e-05,10.52748909943284
Cython,dict,merge_all_match,100,object,1.9999999999999185e-05,2.2000000000001185e-05,2.000000000002e-06,10.00000000001041
CPython,dict,merge_all_match,1000,integer,0.0002370000000000011,0.00040499999999999564,0.00016799999999999454,70.88607594936445
PyPy,dict,merge_all_match,1000,integer,0.0004040000000000016,0.0004109999999999947,6.999999999993123e-06,1.7326732673250238
Jython,dict,merge_all_match,1000,integer,0.000973601,0.001044051,7.045e-05,7.236023792087313
Cython,dict,merge_all_match,1000,integer,0.00018699999999999967,0.00028399999999999953,9.699999999999986e-05,51.87165775401071
CPython,dict,merge_all_match,1000,object,0.00027699999999999947,0.0005070000000000005,0.00023000000000000104,83.03249097472978
PyPy,dict,merge_all_match,1000,object,0.0004070000000000046,0.0004099999999999937,2.9999999999891225e-06,0.7371007370980562
Jython,dict,merge_all_match,1000,object,0.000928863,0.001182107,0.0002532439999999999,27.263869914077738
Cython,dict,merge_all_match,1000,object,0.00020599999999999785,0.00032100000000000184,0.00011500000000000399,55.82524271844912
CPython,dict,merge_all_match,10000,integer,0.0034260000000000124,0.003481000000000012,5.4999999999999494e-05,1.605370694687662
PyPy,dict,merge_all_match,10000,integer,0.00469,0.0047659999999999925,7.599999999999274e-05,1.6204690831554958
Jython,dict,merge_all_match,10000,integer,0.010005238,0.012271557,0.002266319000000001,22.651325235841476
Cython,dict,merge_all_match,10000,integer,0.0034230000000000094,0.0034650000000000097,4.200000000000037e-05,1.2269938650306824
CPython,dict,merge_all_match,10000,object,0.006041000000000019,0.006183000000000022,0.00014200000000000323,2.3506042046019338
PyPy,dict,merge_all_match,10000,object,0.004855999999999999,0.004924999999999985,6.899999999998574e-05,1.420922570016181
Jython,dict,merge_all_match,10000,object,0.010346625,0.011846482,0.0014998570000000003,14.496098969470724
Cython,dict,merge_all_match,10000,object,0.0035390000000000005,0.003604999999999997,6.599999999999662e-05,1.8649335970612209
CPython,dict,merge_all_match,100000,integer,0.054332999999999965,0.05462600000000006,0.00029300000000009874,0.5392671120683543
PyPy,dict,merge_all_match,100000,integer,0.05343600000000004,0.053701,0.0002649999999999597,0.49592035331978357
Jython,dict,merge_all_match,100000,integer,0.096593455,0.10165859,0.005065134999999998,5.243766257247966
Cython,dict,merge_all_match,100000,integer,0.05444900000000008,0.05494399999999999,0.0004949999999999122,0.9091076052818444
CPython,dict,merge_all_match,100000,object,0.08346999999999993,0.083847,0.0003770000000000717,0.45165927878288253
PyPy,dict,merge_all_match,100000,object,0.05314799999999997,0.05363300000000004,0.0004850000000000687,0.9125460976896007
Jython,dict,merge_all_match,100000,object,0.096888827,0.101485319,0.004596492000000008,4.744088810157654
Cython,dict,merge_all_match,100000,object,0.057142999999999944,0.057850999999999986,0.0007080000000000419,1.2389969025078182
CPython,dict,merge_all_match,1000000,integer,0.631228000000001,0.6381070000000006,0.006878999999999635,1.0897805547281845
PyPy,dict,merge_all_match,1000000,integer,0.622897,0.624829000000001,0.001932000000000933,0.3101636386113487
Jython,dict,merge_all_match,1000000,integer,0.913228424,0.966761661,0.05353323700000001,5.861976652623332
Cython,dict,merge_all_match,1000000,integer,0.627192,0.6368480000000005,0.009656000000000553,1.5395604535773022
CPython,dict,merge_all_match,1000000,object,1.0091219999999996,1.01891,0.009788000000000352,0.9699520969714619
PyPy,dict,merge_all_match,1000000,object,0.6237849999999998,0.6248740000000002,0.0010890000000003397,0.1745793823192831
Jython,dict,merge_all_match,1000000,object,0.958759175,0.991538209,0.03277903400000004,3.4189017278504834
Cython,dict,merge_all_match,1000000,object,0.6773969999999991,0.68424,0.006843000000000821,1.010190479143077
CPython,dict,merge_all_match,5000000,integer,3.7711630000000014,3.8991900000000044,0.128027000000003,3.39489436017491
PyPy,dict,merge_all_match,5000000,integer,3.5388230000000007,5.396109000000003,1.857286000000002,52.48315612281264
Cython,dict,merge_all_match,5000000,integer,3.9581969999999984,3.9887569999999997,0.030560000000001253,0.7720686969345201
CPython,dict,merge_all_match,5000000,object,8.116591,8.161784000000011,0.04519300000001181,0.5567977984847556
PyPy,dict,merge_all_match,5000000,object,3.8472499999999954,4.065570000000001,0.21832000000000562,5.67470270972788
Cython,dict,merge_all_match,5000000,object,4.173161,4.209197000000003,0.036036000000002844,0.8635180861702398
CPython,dict,merge_half_match,100,integer,1.4000000000000123e-05,1.5000000000001124e-05,1.000000000001e-06,7.142857142864223
PyPy,dict,merge_half_match,100,integer,3.499999999999337e-05,3.500000000000725e-05,1.3877787807814457e-17,3.9650822308048816e-11
Jython,dict,merge_half_match,100,integer,0.000123214,0.000174803,5.1589000000000024e-05,41.86943042186767
Cython,dict,merge_half_match,100,integer,1.5000000000001124e-05,1.7000000000003124e-05,2.000000000002e-06,13.33333333334567
CPython,dict,merge_half_match,100,object,1.8000000000004124e-05,1.9999999999999185e-05,1.9999999999950613e-06,11.11111111108113
PyPy,dict,merge_half_match,100,object,3.499999999999337e-05,3.599999999999437e-05,1.000000000001e-06,2.857142857146256
Jython,dict,merge_half_match,100,object,0.000115791,0.000124415,8.624000000000004e-06,7.4479018231123355
Cython,dict,merge_half_match,100,object,1.5999999999995185e-05,2.0000000000006124e-05,4.000000000010939e-06,25.000000000075893
CPython,dict,merge_half_match,1000,integer,0.0001250000000000001,0.00019800000000000373,7.300000000000362e-05,58.40000000000284
PyPy,dict,merge_half_match,1000,integer,0.00023499999999998522,0.0002380000000000021,3.000000000016878e-06,1.2765957446881133
Jython,dict,merge_half_match,1000,integer,0.000534423,0.000699261,0.00016483799999999994,30.844106634632105
Cython,dict,merge_half_match,1000,integer,0.00013200000000000017,0.00017500000000000154,4.300000000000137e-05,32.57575757575857
CPython,dict,merge_half_match,1000,object,0.0001799999999999996,0.00035700000000000315,0.00017700000000000354,98.33333333333552
PyPy,dict,merge_half_match,1000,object,0.00024000000000001798,0.0002440000000000081,3.9999999999901226e-06,1.6666666666624264
Jython,dict,merge_half_match,1000,object,0.000627592,0.001475316,0.000847724,135.07565424670807
Cython,dict,merge_half_match,1000,object,0.0001460000000000003,0.00019600000000000173,5.000000000000143e-05,34.24657534246667
CPython,dict,merge_half_match,10000,integer,0.0021689999999999904,0.0021869999999999945,1.8000000000004124e-05,0.829875518672393
PyPy,dict,merge_half_match,10000,integer,0.003911999999999999,0.004087000000000007,0.00017500000000000848,4.473415132924553
Jython,dict,merge_half_match,10000,integer,0.00680762,0.007239321,0.0004317009999999996,6.341437976855341
Cython,dict,merge_half_match,10000,integer,0.0021710000000000063,0.0022030000000000105,3.200000000000425e-05,1.4739751266699288
CPython,dict,merge_half_match,10000,object,0.0034450000000000036,0.0036429999999999796,0.00019799999999997597,5.747460087082025
PyPy,dict,merge_half_match,10000,object,0.003911999999999999,0.004025000000000001,0.00011300000000000199,2.8885480572597655
Jython,dict,merge_half_match,10000,object,0.007232387,0.007501398,0.0002690110000000004,3.719532707527963
Cython,dict,merge_half_match,10000,object,0.002237000000000003,0.002249000000000001,1.1999999999998123e-05,0.5364327223959815
CPython,dict,merge_half_match,100000,integer,0.040157999999999916,0.04076399999999991,0.0006059999999999954,1.5090392947855886
PyPy,dict,merge_half_match,100000,integer,0.05220900000000006,0.0526080000000001,0.0003990000000000382,0.764236051255603
Jython,dict,merge_half_match,100000,integer,0.060959753,0.064529859,0.0035701059999999965,5.856496826684971
Cython,dict,merge_half_match,100000,integer,0.04026099999999999,0.04125000000000001,0.0009890000000000176,2.456471523310444
CPython,dict,merge_half_match,100000,object,0.05487600000000015,0.055414000000000074,0.0005379999999999274,0.9803921568626103
PyPy,dict,merge_half_match,100000,object,0.06287100000000001,0.06849699999999992,0.005625999999999909,8.948481811964035
Jython,dict,merge_half_match,100000,object,0.06026128,0.063857517,0.003596237000000002,5.967740811346858
Cython,dict,merge_half_match,100000,object,0.04140100000000002,0.041896000000000044,0.0004950000000000232,1.1956232941233857
CPython,dict,merge_half_match,1000000,integer,0.4684000000000008,0.4747539999999999,0.006353999999999083,1.3565328778819539
PyPy,dict,merge_half_match,1000000,integer,0.6614320000000014,0.6646019999999995,0.0031699999999981188,0.47926317444546257
Jython,dict,merge_half_match,1000000,integer,0.542424451,0.582762419,0.040337968,7.436605766136453
Cython,dict,merge_half_match,1000000,integer,0.4680530000000003,0.4732649999999996,0.005211999999999328,1.1135491066181236
CPython,dict,merge_half_match,1000000,object,0.677538000000002,0.6812249999999995,0.0036869999999975533,0.5441761200106182
PyPy,dict,merge_half_match,1000000,object,0.6613550000000004,0.6677579999999992,0.006402999999998826,0.9681638454383535
Jython,dict,merge_half_match,1000000,object,0.579617892,0.593146543,0.013528651000000003,2.334063731766238
Cython,dict,merge_half_match,1000000,object,0.4900140000000004,0.49614899999999995,0.0061349999999995575,1.252005044753732
CPython,dict,merge_half_match,5000000,integer,2.843333000000001,2.9169750000000008,0.07364199999999954,2.5899885803034506
PyPy,dict,merge_half_match,5000000,integer,5.193935999999994,6.810297999999996,1.6163620000000023,31.12017552776939
Cython,dict,merge_half_match,5000000,integer,2.9319810000000004,2.948585999999999,0.016604999999998427,0.5663406413615376
CPython,dict,merge_half_match,5000000,object,4.743618999999995,4.830573000000001,0.08695400000000575,1.833073018722748
PyPy,dict,merge_half_match,5000000,object,6.074758000000003,6.334744000000001,0.25998599999999783,4.279775424798777
Cython,dict,merge_half_match,5000000,object,3.1175210000000035,3.169364999999999,0.05184399999999556,1.6629879959107092
CPython,dict,merge_none_match,100,integer,8.000000000001062e-06,9.999999999996123e-06,1.9999999999950613e-06,24.99999999993495
PyPy,dict,merge_none_match,100,integer,1.3999999999986246e-05,1.4000000000000123e-05,1.3877787807814457e-17,9.912705577020065e-11
Jython,dict,merge_none_match,100,integer,8.3128e-05,9.3459e-05,1.0331000000000007e-05,12.42782215378694
Cython,dict,merge_none_match,100,integer,8.999999999995123e-06,1.1999999999998123e-05,3.0000000000030003e-06,33.333333333384736
CPython,dict,merge_none_match,100,object,8.999999999995123e-06,9.000000000002062e-06,6.938893903907228e-18,7.709882115456654e-11
PyPy,dict,merge_none_match,100,object,1.2999999999985246e-05,1.4000000000014001e-05,1.0000000000287557e-06,7.69230769253762
Jython,dict,merge_none_match,100,object,7.6894e-05,0.000112902,3.6008e-05,46.82810102218639
Cython,dict,merge_none_match,100,object,9.999999999996123e-06,1.2000000000005062e-05,2.000000000008939e-06,20.000000000097145
CPython,dict,merge_none_match,1000,integer,7.599999999999968e-05,0.0001270000000000021,5.100000000000243e-05,67.10526315789822
PyPy,dict,merge_none_match,1000,integer,7.000000000000062e-05,7.399999999999074e-05,3.9999999999901226e-06,5.714285714271553
Jython,dict,merge_none_match,1000,integer,0.000213851,0.000265936,5.208499999999997e-05,24.355743017334486
Cython,dict,merge_none_match,1000,integer,7.700000000000068e-05,9.10000000000008e-05,1.4000000000000123e-05,18.181818181818183
CPython,dict,merge_none_match,1000,object,6.699999999999762e-05,0.0001480000000000023,8.100000000000468e-05,120.89552238807097
PyPy,dict,merge_none_match,1000,object,6.499999999998174e-05,6.90000000000135e-05,4.000000000031756e-06,6.153846153896738
Jython,dict,merge_none_match,1000,object,0.000253689,0.00028163,2.7941000000000023e-05,11.013879198546261
Cython,dict,merge_none_match,1000,object,7.700000000000068e-05,0.00013799999999999923,6.0999999999998555e-05,79.22077922077665
CPython,dict,merge_none_match,10000,integer,0.0008029999999999982,0.0008139999999999953,1.0999999999997123e-05,1.369863013698275
PyPy,dict,merge_none_match,10000,integer,0.0064680000000000015,0.006591999999999987,0.00012399999999998523,1.9171304885588312
Jython,dict,merge_none_match,10000,integer,0.002429276,0.002775964,0.00034668799999999994,14.271247894434389
Cython,dict,merge_none_match,10000,integer,0.0008100000000000052,0.0008239999999999914,1.3999999999986246e-05,1.7283950617266859
CPython,dict,merge_none_match,10000,object,0.0008039999999999992,0.0011390000000000011,0.00033500000000000196,41.66666666666695
PyPy,dict,merge_none_match,10000,object,0.010027999999999981,0.010191000000000006,0.00016300000000002424,1.625448743518394
Jython,dict,merge_none_match,10000,object,0.002414083,0.002769031,0.0003549479999999999,14.703222714380571
Cython,dict,merge_none_match,10000,object,0.0008080000000000032,0.0008300000000000113,2.2000000000008124e-05,2.7227722772287173
CPython,dict,merge_none_match,100000,integer,0.02547199999999994,0.02590199999999998,0.00043000000000004146,1.6881281407036843
PyPy,dict,merge_none_match,100000,integer,0.04794999999999994,0.04833399999999999,0.00038400000000005097,0.8008342022941637
Jython,dict,merge_none_match,100000,integer,0.025121391,0.025564463,0.0004430719999999992,1.7637239912391762
Cython,dict,merge_none_match,100000,integer,0.02553100000000008,0.025805000000000078,0.00027399999999999647,1.0732051231835635
CPython,dict,merge_none_match,100000,object,0.023767000000000094,0.024442999999999993,0.0006759999999998989,2.8442798838721597
PyPy,dict,merge_none_match,100000,object,0.0969469999999999,0.09790699999999997,0.0009600000000000719,0.9902317761251744
Jython,dict,merge_none_match,100000,object,0.024259074,0.025242304,0.0009832300000000016,4.053040111918541
Cython,dict,merge_none_match,100000,object,0.02579600000000004,0.02593499999999993,0.0001389999999998892,0.5388432315083307
CPython,dict,merge_none_match,1000000,integer,0.3028410000000008,0.3083090000000004,0.005467999999999584,1.8055679382909084
PyPy,dict,merge_none_match,1000000,integer,0.5215740000000002,0.525930999999999,0.004356999999998834,0.8353560568584386
Jython,dict,merge_none_match,1000000,integer,0.224952618,0.236863092,0.011910474000000004,5.294658984586703
Cython,dict,merge_none_match,1000000,integer,0.304303,0.31214099999999956,0.007837999999999568,2.5757222242303124
CPython,dict,merge_none_match,1000000,object,0.2776940000000021,0.2800799999999999,0.002385999999997779,0.8592191404919662
PyPy,dict,merge_none_match,1000000,object,0.5236539999999987,0.5271660000000011,0.003512000000002402,0.6706718558442045
Jython,dict,merge_none_match,1000000,object,0.222614924,0.237383007,0.014768083000000015,6.63391417549347
Cython,dict,merge_none_match,1000000,object,0.31047199999999986,0.3179090000000002,0.00743700000000036,2.395385091087236
CPython,dict,merge_none_match,5000000,integer,1.906794000000005,1.926563999999999,0.01976999999999407,1.0368188697884522
PyPy,dict,merge_none_match,5000000,integer,5.914146999999993,6.828991000000002,0.9148440000000093,15.468739617057379
Cython,dict,merge_none_match,5000000,integer,1.9212739999999968,1.9473460000000031,0.026072000000006312,1.3570162298561452
CPython,dict,merge_none_match,5000000,object,1.9513900000000035,1.9718719999999905,0.02048199999998701,1.0496107902565337
PyPy,dict,merge_none_match,5000000,object,6.015749999999997,7.703150000000001,1.6874000000000038,28.049702863317204
Cython,dict,merge_none_match,5000000,object,2.026532000000003,2.0352400000000017,0.008707999999998606,0.42969960503947596
CPython,dict,overwrite,100,integer,6.399999999996686e-05,9.700000000003456e-05,3.30000000000677e-05,51.562500000132474
PyPy,dict,overwrite,100,integer,0.00011799999999996535,0.00012400000000008238,6.000000000117023e-06,5.084745762812529
Jython,dict,overwrite,100,integer,0.0026736170000000023,0.003386789000000004,0.0007131720000000019,26.67442644178285
Cython,dict,overwrite,100,integer,5.899999999998268e-05,6.800000000002637e-05,9.000000000043695e-06,15.254237288214131
CPython,dict,overwrite,100,object,5.8999999999996555e-05,6.50000000000095e-05,6.0000000000129394e-06,10.169491525446253
PyPy,dict,overwrite,100,object,0.00011899999999998023,0.00012600000000002887,7.000000000048634e-06,5.882352941218317
Jython,dict,overwrite,100,object,0.002269431000000003,0.0031781280000000005,0.0009086969999999974,40.04074148982701
Cython,dict,overwrite,100,object,4.8999999999986554e-05,5.700000000000843e-05,8.000000000021878e-06,16.326530612294025
CPython,dict,overwrite,1000,integer,0.0006320000000000145,0.00068,4.7999999999985554e-05,7.594936708858299
PyPy,dict,overwrite,1000,integer,0.0011449999999999516,0.0012109999999998095,6.599999999985784e-05,5.764192139725819
Jython,dict,overwrite,1000,integer,0.014591077000000036,0.01755327299999996,0.002962195999999924,20.301421204205262
Cython,dict,overwrite,1000,integer,0.00061299999999994,0.0006709999999999217,5.799999999998168e-05,9.461663947795653
CPython,dict,overwrite,1000,object,0.0006289999999999213,0.0006749999999999465,4.600000000002519e-05,7.313195548494586
PyPy,dict,overwrite,1000,object,0.0011239999999999029,0.0011600000000000776,3.600000000017478e-05,3.202846975104795
Jython,dict,overwrite,1000,object,0.012927571000000023,0.018594743999999993,0.00566717299999997,43.83787952121833
Cython,dict,overwrite,1000,object,0.0005230000000000234,0.0006109999999999588,8.799999999993535e-05,16.826003824078665
CPython,dict,overwrite,10000,integer,0.006152999999999964,0.006984999999999908,0.0008319999999999439,13.521859255646817
PyPy,dict,overwrite,10000,integer,0.006314000000000042,0.0065629999999995,0.000248999999999458,3.943617358242894
Jython,dict,overwrite,10000,integer,0.047936537000000154,0.05644326599999985,0.0085067289999997,17.745814638215673
Cython,dict,overwrite,10000,integer,0.005740000000000203,0.0063329999999992975,0.0005929999999990943,10.331010452945527
CPython,dict,overwrite,10000,object,0.0061529999999997975,0.006303000000000156,0.00015000000000035818,2.437835202346223
PyPy,dict,overwrite,10000,object,0.0063560000000005,0.006548000000000373,0.00019199999999987283,3.020767778474791
Jython,dict,overwrite,10000,object,0.0452309489999995,0.05153519699999958,0.006304248000000082,13.937907869233854
Cython,dict,overwrite,10000,object,0.005508999999999792,0.005816000000000737,0.0003070000000009454,5.572699219476439
CPython,dict,overwrite,100000,integer,0.06837300000000945,0.07187600000000455,0.0035029999999950934,5.123367411104689
PyPy,dict,overwrite,100000,integer,0.06111099999999975,0.06250400000001516,0.0013930000000154097,2.279458689950116
Jython,dict,overwrite,100000,integer,0.1707746910000042,0.17913924999998737,0.008364558999983174,4.898008569655657
Cython,dict,overwrite,100000,integer,0.06690899999999161,0.06974400000000036,0.002835000000008747,4.237098148244784
CPython,dict,overwrite,100000,object,0.06913500000000117,0.0717730000000214,0.0026380000000202353,3.815722861098128
PyPy,dict,overwrite,100000,object,0.059639,0.06121099999999363,0.001571999999993634,2.6358590854870707
Jython,dict,overwrite,100000,object,0.16407637400000324,0.17531323899998183,0.011236864999978585,6.848557611334319
Cython,dict,overwrite,100000,object,0.06186900000000062,0.06436300000000561,0.0024940000000049922,4.031097965063226
CPython,dict,overwrite,1000000,integer,0.7366589999999098,0.7761320000000445,0.03947300000013465,5.358381557836052
PyPy,dict,overwrite,1000000,integer,0.6876650000001345,0.6924320000002542,0.004767000000119648,0.6932154464919278
Jython,dict,overwrite,1000000,integer,0.8006221289998252,1.2398644209997975,0.43924229199997233,54.86262196483308
Cython,dict,overwrite,1000000,integer,0.6956659999999535,0.7662709999999677,0.07060500000001424,10.149267033320438
CPython,dict,overwrite,1000000,object,0.7185819999999561,0.7546600000000847,0.03607800000012862,5.0207213651512035
PyPy,dict,overwrite,1000000,object,0.6706029999999812,0.677790999999381,0.007187999999399786,1.0718711367828637
Jython,dict,overwrite,1000000,object,0.8373273799998037,0.890407664999933,0.05308028500012929,6.339251082431072
Cython,dict,overwrite,1000000,object,0.6524769999998039,0.6743820000002203,0.021905000000416397,3.357206460982223
CPython,dict,overwrite,5000000,integer,3.780619999999111,3.854394000019475,0.07377400002036438,1.951373055752277
PyPy,dict,overwrite,5000000,integer,3.72307700000626,3.771626999998766,0.04854999999250609,1.3040288984736135
Jython,dict,overwrite,5000000,integer,3.951086676000976,11.021177175994232,7.070090499993256,178.94040500141915
Cython,dict,overwrite,5000000,integer,3.5724920000012155,3.955309000005805,0.3828170000045894,10.715685297670623
CPython,dict,overwrite,5000000,object,3.7432810000013603,3.8448549999969472,0.10157399999558692,2.713501871634804
PyPy,dict,overwrite,5000000,object,3.6583059999968626,3.669608000001933,0.011302000005070312,0.3089408049813221
Cython,dict,overwrite,5000000,object,3.3423280000037785,3.404834999999828,0.06250699999604947,1.8701635505545477
CPython,dict,read,100,integer,0.00010400000000002768,0.00011499999999998317,1.099999999995549e-05,10.576923076877463
PyPy,dict,read,100,integer,0.00019300000000006812,0.00019900000000000473,5.999999999936612e-06,3.1088082901214995
Jython,dict,read,100,integer,0.001417370999999981,0.0017184629999999947,0.00030109200000001364,21.242991425675964
Cython,dict,read,100,integer,9.299999999994035e-05,0.00011099999999998611,1.8000000000045757e-05,19.354838709739035
CPython,dict,read,100,object,8.900000000002656e-05,0.0001120000000000218,2.2999999999995246e-05,25.84269662920043
PyPy,dict,read,100,object,0.00018600000000001948,0.00021400000000006136,2.800000000004188e-05,15.053763440881154
Jython,dict,read,100,object,0.0012056559999999682,0.0014171029999999743,0.0002114470000000061,17.537921264441238
Cython,dict,read,100,object,8.900000000000574e-05,0.00011099999999999999,2.1999999999994246e-05,24.719101123587446
CPython,dict,read,1000,integer,0.0010959999999999373,0.0011499999999999566,5.400000000001931e-05,4.927007299272117
PyPy,dict,read,1000,integer,0.00207699999999969,0.0021639999999999576,8.700000000026742e-05,4.18873375061533
Jython,dict,read,1000,integer,0.010931109999999833,0.011198409000000138,0.00026729900000030567,2.4453051885884394
Cython,dict,read,1000,integer,0.0010850000000000443,0.0011529999999999388,6.799999999989453e-05,6.267281105980807
CPython,dict,read,1000,object,0.000987000000000078,0.0011939999999999867,0.00020699999999990865,20.97264437688878
PyPy,dict,read,1000,object,0.00205499999999971,0.0021890000000000104,0.00013400000000030055,6.5206812652223585
Jython,dict,read,1000,object,0.009754347000000423,0.010131569000000673,0.0003772220000002498,3.867219404848253
Cython,dict,read,1000,object,0.0009610000000000729,0.001053999999999923,9.299999999985015e-05,9.677419354822382
CPython,dict,read,10000,integer,0.010639000000000232,0.011742999999999934,0.0011039999999997024,10.376915123598819
PyPy,dict,read,10000,integer,0.01005500000000302,0.010194999999997012,0.00013999999999399215,1.392342118288912
Jython,dict,read,10000,integer,0.0572483640000063,0.059700936000006075,0.002452571999999778,4.2840909829309854
Cython,dict,read,10000,integer,0.010682999999999054,0.011694000000002841,0.0010110000000037866,9.463633810763607
CPython,dict,read,10000,object,0.010690999999999118,0.011860000000001064,0.0011690000000019463,10.934430829688923
PyPy,dict,read,10000,object,0.010336999999999708,0.010540999999997427,0.0002039999999977199,1.9734932765572766
Jython,dict,read,10000,object,0.05138325399999128,0.05235938199999857,0.0009761280000072856,1.8997006301069435
Cython,dict,read,10000,object,0.009769999999997836,0.010729999999999199,0.0009600000000013625,9.825997952933216
CPython,dict,read,100000,integer,0.11977300000000851,0.12578899999986132,0.006015999999852806,5.022834862491862
PyPy,dict,read,100000,integer,0.09568600000000749,0.09704999999991332,0.0013639999999058294,1.425495892717558
Jython,dict,read,100000,integer,0.2840836180002627,0.3086718089999262,0.024588190999663473,8.655265366143265
Cython,dict,read,100000,integer,0.11196099999994724,0.11842499999993172,0.006463999999984482,5.7734389653428675
CPython,dict,read,100000,object,0.11774000000006224,0.12803799999989074,0.0102979999998285,8.746390351471934
PyPy,dict,read,100000,object,0.09792000000001949,0.09973599999998739,0.0018159999999678988,1.8545751633655405
Jython,dict,read,100000,object,0.2232600040002456,0.2709063249998045,0.0476463209995589,21.341180751527034
Cython,dict,read,100000,object,0.11057000000002776,0.11454000000005798,0.003970000000030227,3.590485665215909
CPython,dict,read,1000000,integer,1.1985250000006666,1.2539419999995651,0.055416999998898486,4.623766713157227
PyPy,dict,read,1000000,integer,1.016354000001371,1.0293299999994732,0.012975999998102061,1.2767205125462737
Jython,dict,read,1000000,integer,1.904624150004338,2.254250656004385,0.34962650600004697,18.356719145835186
Cython,dict,read,1000000,integer,1.1888269999994305,1.2382429999987492,0.04941599999931867,4.1567023628620765
CPython,dict,read,1000000,object,1.2400749999982716,1.3064329999996893,0.06635800000141767,5.351127956092185
PyPy,dict,read,1000000,object,0.9761640000016847,1.0296729999992138,0.053508999997529116,5.481558426395234
Jython,dict,read,1000000,object,1.190896130996666,1.9873481870027028,0.7964520560060369,66.878381352997
Cython,dict,read,1000000,object,1.096179999997668,1.2514710000008944,0.15529100000322638,14.166560236781983
CPython,dict,read,5000000,integer,6.197835000012454,6.35706700000933,0.15923199999687654,2.569155196880146
PyPy,dict,read,5000000,integer,5.032784999998398,5.330503999996459,0.29771899999806095,5.915591466715858
Jython,dict,read,5000000,integer,8.292675985028957,12.672817576985103,4.380141591956146,52.81939870632545
Cython,dict,read,5000000,integer,6.092969000005784,6.543198999982188,0.4502299999764041,7.389336790913867
CPython,dict,read,5000000,object,6.402409000005207,6.6217830000188584,0.21937400001365148,3.426429020911864
PyPy,dict,read,5000000,object,5.067094999998854,5.437293000001095,0.37019800000224024,7.3059218349433745
Jython,dict,read,5000000,object,900,900,0,0
Cython,dict,read,5000000,object,6.124368000013721,6.360358999998294,0.23599099998457262,3.853311884329026
CPython,generator,generate,100,integer,0.00016200000000003711,0.00021500000000002073,5.2999999999983616e-05,32.71604938269844
PyPy,generator,generate,100,integer,0.0003219999999999612,0.00033100000000006735,9.000000000106145e-06,2.795031055933922
Jython,generator,generate,100,integer,0.0010301769999999924,0.0012391730000000112,0.0002089960000000188,20.287387507197337
Cython,generator,generate,100,integer,0.00016599999999999254,0.00018100000000004224,1.5000000000049696e-05,9.036144578343597
CPython,generator,generate,100,object,0.00015699999999996272,0.00017400000000000748,1.7000000000044757e-05,10.828025477738084
PyPy,generator,generate,100,object,0.0003250000000000197,0.0003419999999999812,1.699999999996149e-05,5.230769230757065
Jython,generator,generate,100,object,0.0009922200000000148,0.0012044899999999765,0.0002122699999999617,21.393440970748276
Cython,generator,generate,100,object,0.00013199999999997936,0.0001640000000000183,3.200000000003894e-05,24.242424242457535
CPython,generator,generate,1000,integer,0.0016050000000001272,0.001680000000000119,7.499999999999174e-05,4.672897196260798
PyPy,generator,generate,1000,integer,0.003153000000000253,0.003205000000000152,5.199999999989935e-05,1.6492229622548422
Jython,generator,generate,1000,integer,0.00710383399999972,0.008650137000000505,0.0015463030000007856,21.76716122590768
Cython,generator,generate,1000,integer,0.0016129999999999825,0.0016819999999999682,6.899999999998574e-05,4.277743335399038
CPython,generator,generate,1000,object,0.0016099999999999934,0.0016479999999998995,3.7999999999906164e-05,2.3602484471991505
PyPy,generator,generate,1000,object,0.003137000000000348,0.003260000000000013,0.00012299999999966504,3.920943576654492
Jython,generator,generate,1000,object,0.007088592000000503,0.00795138100000025,0.0008627889999997468,12.171514455898794
Cython,generator,generate,1000,object,0.0014469999999999206,0.0015470000000001594,0.00010000000000023879,6.910850034571133
CPython,generator,generate,10000,integer,0.01551200000000142,0.016228999999999556,0.0007169999999981358,4.622227952540421
PyPy,generator,generate,10000,integer,0.009761000000001699,0.010213000000000208,0.00045199999999850915,4.630673086757817
Jython,generator,generate,10000,integer,0.03591599600000772,0.0377902849999939,0.001874288999986179,5.2185354959549946
Cython,generator,generate,10000,integer,0.01578899999999961,0.01667500000000162,0.0008860000000020102,5.6115016783965554
CPython,generator,generate,10000,object,0.015545999999998339,0.016202000000000737,0.0006560000000023977,4.219734980075054
PyPy,generator,generate,10000,object,0.009838000000004121,0.010169999999999998,0.00033199999999587726,3.3746696482591805
Jython,generator,generate,10000,object,0.033500208999996936,0.038357190000002137,0.0048569810000052005,14.49836029382875
Cython,generator,generate,10000,object,0.013985999999998097,0.015737999999999995,0.0017520000000018979,12.526812526827802
CPython,generator,generate,100000,integer,0.15551000000004278,0.1657920000000095,0.010281999999966707,6.611793453773955
PyPy,generator,generate,100000,integer,0.06932799999999693,0.07344599999997752,0.004117999999980582,5.939879990740774
Jython,generator,generate,100000,integer,0.18156451199987328,0.1904590900000558,0.008894578000182507,4.8988527010105996
Cython,generator,generate,100000,integer,0.15167900000004866,0.1604799999999728,0.008800999999924147,5.80238530048413
CPython,generator,generate,100000,object,0.15787000000004586,0.17111399999996044,0.013243999999914574,8.389180971629015
PyPy,generator,generate,100000,object,0.07101500000001514,0.07225200000000657,0.0012369999999914394,1.7418855171318395
Jython,generator,generate,100000,object,0.1792949329999693,0.1993020280000976,0.020007095000128317,11.158762082881474
Cython,generator,generate,100000,object,0.13946600000002066,0.15322500000002584,0.013759000000005184,9.865486928716063
CPython,generator,generate,1000000,integer,1.5704010000001576,1.6440360000026109,0.07363500000245327,4.688929770322732
PyPy,generator,generate,1000000,integer,0.6618049999997029,0.6846279999997151,0.02282300000001225,3.4485989075365846
Jython,generator,generate,1000000,integer,1.1275014949995161,1.2839096890010144,0.1564081940014983,13.872105242890648
Cython,generator,generate,1000000,integer,1.5415329999983305,1.6485089999976958,0.10697599999936536,6.939585464565547
CPython,generator,generate,1000000,object,1.6136760000009291,1.6582580000016776,0.04458200000074841,2.7627603063268427
PyPy,generator,generate,1000000,object,0.6770470000004349,0.6986050000001749,0.021557999999739952,3.184121634055849
Jython,generator,generate,1000000,object,1.0815913029997979,1.2779047200103784,0.19631341701058047,18.150424884714255
Cython,generator,generate,1000000,object,1.4182219999979633,1.5344070000014987,0.11618500000353538,8.192299936378241
CPython,generator,generate,5000000,integer,7.819874999979989,8.284504999997203,0.46463000001721433,5.941655077842079
PyPy,generator,generate,5000000,integer,3.3457349999981663,3.42830499999962,0.08257000000145354,2.467918110714052
Jython,generator,generate,5000000,integer,5.214549447972471,6.157146787000169,0.9425973390276976,18.076294959561647
Cython,generator,generate,5000000,integer,7.7381440000009825,8.119022999988044,0.3808789999870612,4.9220975984294535
CPython,generator,generate,5000000,object,8.01928400000436,8.294149999990685,0.274865999986325,3.427562859554239
PyPy,generator,generate,5000000,object,3.4366600000018726,3.5175640000156605,0.08090400001378795,2.3541461772111254
Jython,generator,generate,5000000,object,5.1818844149736005,5.760835517034532,0.5789511020609313,11.172597759764596
Cython,generator,generate,5000000,object,7.162727999997176,7.922394000013087,0.759666000015911,10.605819458957685
CPython,list,append,100,integer,7.300000000000362e-05,8.400000000000768e-05,1.1000000000004062e-05,15.068493150689749
PyPy,list,append,100,integer,0.00010500000000000786,0.00013999999999997348,3.4999999999965614e-05,33.333333333298086
Jython,list,append,100,integer,0.002371896999999995,0.003665287000000004,0.0012933900000000088,54.52977089646015
Cython,list,append,100,integer,5.500000000002031e-05,6.0000000000004494e-05,4.999999999984184e-06,9.090909090876977
CPython,list,append,100,object,7.799999999999474e-05,8.400000000005625e-05,6.000000000061512e-06,7.692307692387073
PyPy,list,append,100,object,0.00010499999999999399,0.00011499999999997623,9.999999999982245e-06,9.52380952379316
Jython,list,append,100,object,0.0024514450000000004,0.0034799660000000045,0.001028521000000004,41.955703676811176
Cython,list,append,100,object,5.0999999999981616e-05,6.199999999999262e-05,1.1000000000011001e-05,21.568627451009736
CPython,list,append,1000,integer,0.0006949999999999942,0.000769999999999868,7.499999999987378e-05,10.791366906456748
PyPy,list,append,1000,integer,0.0010899999999999799,0.0011509999999998882,6.099999999990835e-05,5.596330275221053
Jython,list,append,1000,integer,0.013850783000000026,0.01901924700000005,0.005168464000000025,37.31532000754048
Cython,list,append,1000,integer,0.00048700000000005683,0.0006060000000000024,0.00011899999999994554,24.43531827513997
CPython,list,append,1000,object,0.0007050000000000042,0.0007670000000000801,6.200000000007588e-05,8.794326241145463
PyPy,list,append,1000,object,0.001091000000000203,0.0011290000000000744,3.799999999987147e-05,3.483043079730926
Jython,list,append,1000,object,0.013361797999999918,0.014595808000000078,0.0012340100000001603,9.235358894066263
Cython,list,append,1000,object,0.0005310000000000037,0.0006250000000000491,9.400000000004544e-05,17.70244821093122
CPython,list,append,10000,integer,0.006906999999999969,0.007692000000000081,0.000785000000000112,11.365281598380129
PyPy,list,append,10000,integer,0.0051529999999999215,0.005226000000000064,7.30000000001424e-05,1.4166504948601495
Jython,list,append,10000,integer,0.046877425000000195,0.053476990999999446,0.006599565999999252,14.078345813574922
Cython,list,append,10000,integer,0.005191000000000126,0.005614000000000209,0.00042300000000008303,8.148718936622476
CPython,list,append,10000,object,0.0069339999999999125,0.0074160000000007276,0.0004820000000008151,6.951254687061165
PyPy,list,append,10000,object,0.005175000000000249,0.005255999999999761,8.099999999951202e-05,1.565217391294843
Jython,list,append,10000,object,0.04569478800000021,0.04815281999999916,0.002458031999998951,5.379239312805084
Cython,list,append,10000,object,0.005069999999999915,0.005434999999999884,0.0003649999999999695,7.199211045364411
CPython,list,append,100000,integer,0.06734499999999874,0.07611400000000126,0.008769000000002525,13.021011210932793
PyPy,list,append,100000,integer,0.04617599999999848,0.046669999999999004,0.0004940000000005218,1.069819819820985
Jython,list,append,100000,integer,0.14216613800000502,0.15232497800000444,0.01015883999999942,7.145752246571585
Cython,list,append,100000,integer,0.05025400000000048,0.052954000000009833,0.0027000000000093546,5.372706650235462
CPython,list,append,100000,object,0.06669500000000184,0.07177799999999054,0.005082999999988708,7.62126096407312
PyPy,list,append,100000,object,0.047461000000001405,0.047620999999999594,0.00015999999999818937,0.33711889761737984
Jython,list,append,100000,object,0.15194433000001512,0.16450790500000753,0.012563574999992416,8.268538220538513
Cython,list,append,100000,object,0.05070800000000685,0.05215600000001085,0.0014480000000040016,2.8555651968206317
CPython,list,append,1000000,integer,0.7017020000006281,0.7369270000000905,0.03522499999946238,5.019937238233731
PyPy,list,append,1000000,integer,0.47068400000001215,0.4762299999999926,0.0055459999999804555,1.1782852189537592
Jython,list,append,1000000,integer,0.6400107490000869,0.713333237999975,0.07332248899988802,11.456446491631981
Cython,list,append,1000000,integer,0.4931829999998759,0.5006729999999213,0.007490000000045405,1.5187060381333681
CPython,list,append,1000000,object,0.6641290000000848,0.715994000000115,0.05186500000003025,7.8094767733412676
PyPy,list,append,1000000,object,0.4864879999999938,0.4910480000000052,0.004560000000011388,0.9373304171966105
Jython,list,append,1000000,object,0.7923521319999844,0.8201589789999977,0.027806847000013235,3.509405209755122
Cython,list,append,1000000,object,0.49539300000001407,0.5280349999998393,0.0326419999998252,6.589112078657605
CPython,list,append,5000000,integer,3.496383999999502,3.655799000000014,0.15941500000051168,4.559424822918031
PyPy,list,append,5000000,integer,2.3447959999995325,2.370597999999648,0.025802000000115566,1.1003942347274862
Jython,list,append,5000000,integer,2.443648328001225,2.7626326420002325,0.3189843139990076,13.053609651758686
Cython,list,append,5000000,integer,2.552124999998771,2.6864130000008486,0.13428800000207763,5.261811235818869
CPython,list,append,5000000,object,3.366961999999365,3.6782709999941012,0.31130899999473627,9.24599089608956
PyPy,list,append,5000000,object,2.459749000000375,2.4747050000011708,0.014956000000795555,0.6080295184912474
Jython,list,append,5000000,object,2.7385706370012084,3.4799317089989272,0.7413610719977188,27.071095482478576
Cython,list,append,5000000,object,2.56767800000104,2.8947610000005577,0.32708299999951773,12.738474216758691
CPython,list,list_comprehension,100,integer,9.999999999996123e-06,1.6999999999996185e-05,7.000000000000062e-06,70.00000000002775
PyPy,list,list_comprehension,100,integer,2.3999999999996247e-05,2.6999999999999247e-05,3.0000000000030003e-06,12.500000000014456
Jython,list,list_comprehension,100,integer,0.00015206,0.00021149,5.942999999999999e-05,39.08325660923319
Cython,list,list_comprehension,100,integer,5.999999999999062e-06,1.1000000000004062e-05,5.0000000000050004e-06,83.3333333334297
CPython,list,list_comprehension,100,object,0.00017700000000000354,0.00019700000000000273,1.9999999999999185e-05,11.2994350282479
PyPy,list,list_comprehension,100,object,0.00014799999999999536,0.00016000000000000736,1.2000000000012001e-05,8.108108108116472
Jython,list,list_comprehension,100,object,0.001235367,0.001779382,0.0005440149999999999,44.0367113578394
Cython,list,list_comprehension,100,object,1.7000000000003124e-05,2.1000000000000185e-05,3.9999999999970615e-06,23.529411764684273
CPython,list,list_comprehension,1000,integer,7.399999999999768e-05,0.00013500000000000317,6.1000000000005494e-05,82.43243243244244
PyPy,list,list_comprehension,1000,integer,0.0001270000000000021,0.0001280000000000031,1.000000000001e-06,0.787401574803924
Jython,list,list_comprehension,1000,integer,0.000521539,0.000693338,0.00017179900000000004,32.940777199787554
Cython,list,list_comprehension,1000,integer,2.5999999999998247e-05,2.9000000000001247e-05,3.0000000000030003e-06,11.538461538473856
CPython,list,list_comprehension,1000,object,0.0017220000000000013,0.0018320000000000003,0.00010999999999999899,6.3879210220672995
PyPy,list,list_comprehension,1000,object,0.0012929999999999886,0.0013120000000000076,1.9000000000019e-05,1.4694508894059681
Jython,list,list_comprehension,1000,object,0.010291414,0.013163648,0.0028722339999999996,27.909031742382528
Cython,list,list_comprehension,1000,object,0.00010999999999999899,0.00012100000000000305,1.1000000000004062e-05,10.000000000003785
CPython,list,list_comprehension,10000,integer,0.000685000000000005,0.0007510000000000017,6.599999999999662e-05,9.6350364963498
PyPy,list,list_comprehension,10000,integer,0.0017390000000000044,0.00177999999999999,4.099999999998549e-05,2.357676825761092
Jython,list,list_comprehension,10000,integer,0.004433711,0.005086907,0.000653196,14.73248933004429
Cython,list,list_comprehension,10000,integer,0.00031599999999999684,0.00042199999999999876,0.00010600000000000193,33.5443037974693
CPython,list,list_comprehension,10000,object,0.009346999999999994,0.009896999999999996,0.0005500000000000019,5.884240932919678
PyPy,list,list_comprehension,10000,object,0.004036000000000012,0.004182999999999992,0.00014699999999998048,3.642220019821111
Jython,list,list_comprehension,10000,object,0.046064481,0.061030228,0.014965747000000001,32.48869123262238
Cython,list,list_comprehension,10000,object,0.0011380000000000001,0.0012500000000000011,0.00011200000000000099,9.841827768014145
CPython,list,list_comprehension,100000,integer,0.006268000000000003,0.006616000000000004,0.0003480000000000011,5.552010210593505
PyPy,list,list_comprehension,100000,integer,0.0023400000000000087,0.0024119999999999836,7.199999999997486e-05,3.0769230769219913
Jython,list,list_comprehension,100000,integer,0.040898854,0.051040894,0.010142040000000005,24.797858639266533
Cython,list,list_comprehension,100000,integer,0.002602,0.0028349999999999972,0.0002329999999999971,8.954650269023716
CPython,list,list_comprehension,100000,object,0.115041,0.117846,0.002805000000000002,2.4382611416799245
PyPy,list,list_comprehension,100000,object,0.011632000000000003,0.011790000000000009,0.00015800000000000536,1.3583218707015587
Jython,list,list_comprehension,100000,object,0.172997483,0.216405643,0.04340816,25.091787029063305
Cython,list,list_comprehension,100000,object,0.010604000000000002,0.011285999999999997,0.0006819999999999951,6.431535269709496
CPython,list,list_comprehension,1000000,integer,0.066331,0.06722600000000001,0.0008950000000000069,1.3492936937480315
PyPy,list,list_comprehension,1000000,integer,0.007667999999999994,0.008085999999999996,0.0004180000000000017,5.4512258737611115
Jython,list,list_comprehension,1000000,integer,0.377651224,0.404720824,0.02706959999999997,7.16788356020262
Cython,list,list_comprehension,1000000,integer,0.025858000000000006,0.027452000000000004,0.0015939999999999982,6.164436538015306
CPython,list,list_comprehension,1000000,object,1.804958,1.8128909999999998,0.007932999999999746,0.43951161190452886
PyPy,list,list_comprehension,1000000,object,0.21226599999999995,0.214729,0.0024630000000000485,1.1603365588459993
Jython,list,list_comprehension,1000000,object,1.255403199,1.302291804,0.04688860499999992,3.7349438839529285
Cython,list,list_comprehension,1000000,object,0.10223499999999999,0.10645900000000001,0.004224000000000019,4.1316574558615144
CPython,list,list_comprehension,5000000,integer,0.334501,0.34511200000000003,0.010611000000000037,3.1721878260453744
PyPy,list,list_comprehension,5000000,integer,0.03322399999999999,0.034941,0.0017170000000000102,5.167950878882768
Jython,list,list_comprehension,5000000,integer,1.780969622,1.856800516,0.07583089400000009,4.25784320312231
Cython,list,list_comprehension,5000000,integer,0.126866,0.128334,0.001467999999999997,1.1571264168492719
CPython,list,list_comprehension,5000000,object,10.208727,10.245632,0.036905000000000854,0.36150442655583653
PyPy,list,list_comprehension,5000000,object,1.440214,1.446137,0.005922999999999901,0.41125832688752506
Jython,list,list_comprehension,5000000,object,6.056737271,6.342063625,0.2853263539999995,4.710892040276506
Cython,list,list_comprehension,5000000,object,0.5106679999999999,0.534671,0.024003000000000108,4.700314098396632
CPython,list,sort,100,integer,2.2999999999995246e-05,3.0000000000002247e-05,7.000000000007001e-06,30.43478260873238
PyPy,list,sort,100,integer,2.4999999999997247e-05,2.6999999999999247e-05,2.000000000002e-06,8.000000000008882
Jython,list,sort,100,integer,0.001115336,0.001469225,0.000353889,31.729362272893553
Cython,list,sort,100,integer,2.3999999999996247e-05,2.6000000000005186e-05,2.000000000008939e-06,8.333333333371883
CPython,list,sort,100,object,5.200000000000343e-05,5.8000000000002494e-05,5.999999999999062e-06,11.538461538458971
PyPy,list,sort,100,object,9.099999999997999e-05,9.700000000001374e-05,6.000000000033756e-06,6.593406593445137
Jython,list,sort,100,object,0.001987177,0.002468545,0.0004813679999999998,24.223710318708388
Cython,list,sort,100,object,4.599999999999743e-05,4.900000000000043e-05,3.0000000000030003e-06,6.521739130441668
CPython,list,sort,1000,integer,0.00027900000000000147,0.00028600000000000153,7.000000000000062e-06,2.508960573476711
PyPy,list,sort,1000,integer,0.00011200000000000099,0.00011700000000000599,5.0000000000050004e-06,4.464285714290139
Jython,list,sort,1000,integer,0.006812201,0.009283768,0.002471566999999999,36.281474959414716
Cython,list,sort,1000,integer,0.0003059999999999938,0.0003140000000000018,8.000000000008e-06,2.614379084969988
CPython,list,sort,1000,object,0.0006009999999999974,0.0007769999999999999,0.00017600000000000254,29.284525790349967
PyPy,list,sort,1000,object,0.0007729999999999959,0.0010229999999999961,0.0002500000000000002,32.34152652005194
Jython,list,sort,1000,object,0.011627275,0.016672346,0.005045071000000002,43.38996884480673
Cython,list,sort,1000,object,0.0005199999999999996,0.0005290000000000017,9.000000000002062e-06,1.7307692307696285
CPython,list,sort,10000,integer,0.003707000000000002,0.004633000000000005,0.0009260000000000032,24.979768006474313
PyPy,list,sort,10000,integer,0.0012159999999999949,0.0012379999999999891,2.1999999999994246e-05,1.809210526315324
Jython,list,sort,10000,integer,0.024829054,0.027349659,0.0025206049999999987,10.151836634613622
Cython,list,sort,10000,integer,0.003916000000000003,0.004156,0.00023999999999999716,6.128702757916164
CPython,list,sort,10000,object,0.0073780000000000096,0.009886999999999993,0.0025089999999999835,34.00650582813744
PyPy,list,sort,10000,object,0.010901999999999995,0.010974000000000012,7.20000000000165e-05,0.6604292790315219
Jython,list,sort,10000,object,0.038165045,0.045459766,0.007294720999999997,19.113618233648086
Cython,list,sort,10000,object,0.006496999999999996,0.007038000000000003,0.0005410000000000068,8.326920116977176
CPython,list,sort,100000,integer,0.048483,0.04944299999999999,0.0009599999999999886,1.9800754903780475
PyPy,list,sort,100000,integer,0.01594799999999999,0.016014,6.60000000000105e-05,0.4138449962378389
Jython,list,sort,100000,integer,0.105439563,0.110443776,0.0050042129999999935,4.746048691419551
Cython,list,sort,100000,integer,0.05061399999999999,0.05199100000000001,0.001377000000000017,2.72059114079112
CPython,list,sort,100000,object,0.10736600000000002,0.10943899999999998,0.0020729999999999638,1.9307788312873382
PyPy,list,sort,100000,object,0.134451,0.14850199999999994,0.014050999999999952,10.450647447769041
Jython,list,sort,100000,object,0.225977764,0.23755735,0.011579586000000003,5.124214787787706
Cython,list,sort,100000,object,0.09364600000000001,0.09738,0.0037339999999999873,3.9873566409670325
CPython,list,sort,1000000,integer,0.72742,0.7298340000000001,0.0024140000000001383,0.3318577987957629
PyPy,list,sort,1000000,integer,0.190471,0.191318,0.0008469999999999867,0.4446871177239509
Jython,list,sort,1000000,integer,0.798304504,0.83623831,0.03793380600000007,4.751796565086155
Cython,list,sort,1000000,integer,0.75711,0.7684529999999999,0.011342999999999992,1.4981970915718974
CPython,list,sort,1000000,object,1.779408,1.7843549999999997,0.004946999999999591,0.2780138113349828
PyPy,list,sort,1000000,object,2.040402,2.074154,0.033752000000000226,1.6541838324016653
Jython,list,sort,1000000,object,1.734397133,2.037019524,0.3026223910000001,17.448275555930596
Cython,list,sort,1000000,object,1.64776,1.6544349999999999,0.0066749999999999865,0.4050954022430443
CPython,list,sort,5000000,integer,4.843119,4.8488,0.005681000000000047,0.11730044213243672
PyPy,list,sort,5000000,integer,1.062064,1.064193,0.0021290000000000475,0.20045872941744075
Jython,list,sort,5000000,integer,4.645340561,5.534721793,0.8893812319999999,19.145662633797148
Cython,list,sort,5000000,integer,4.988099,4.999465000000001,0.011366000000000653,0.22786235798448773
CPython,list,sort,5000000,object,11.629983999999999,11.802790000000002,0.17280600000000312,1.4858661886379476
PyPy,list,sort,5000000,object,12.809945000000003,12.895451,0.08550599999999697,0.6674970111112651
Jython,list,sort,5000000,object,8.639935679,8.824403852,0.18446817299999907,2.1350641932249856
Cython,list,sort,5000000,object,10.871687,10.918235,0.04654799999999959,0.42815802184150065
CPython,objects,add,100,object,0.00014300000000002505,0.0001540000000000638,1.1000000000038757e-05,7.692307692333447
PyPy,objects,add,100,object,0.0001860000000000056,0.00019900000000000473,1.2999999999999123e-05,6.989247311827275
Jython,objects,add,100,object,0.004718784999999991,0.005771060000000001,0.0010522750000000096,22.299702147904846
Cython,objects,add,100,object,7.300000000000362e-05,8.199999999997792e-05,8.999999999974306e-06,12.328767123251863
CPython,objects,add,1000,object,0.0013730000000000755,0.001453000000000003,7.999999999992735e-05,5.826656955566129
PyPy,objects,add,1000,object,0.0017369999999999053,0.001775999999999986,3.900000000008064e-05,2.245250431783694
Jython,objects,add,1000,object,0.013383945999999943,0.015505395999999946,0.002121450000000002,15.850706510621091
Cython,objects,add,1000,object,0.0006920000000000329,0.000807000000000016,0.00011499999999998317,16.61849710982337
CPython,objects,add,10000,object,0.014189999999999849,0.014876999999999897,0.0006870000000000487,4.841437632135701
PyPy,objects,add,10000,object,0.006071000000000187,0.006200000000000067,0.0001289999999998792,2.1248558721771573
Jython,objects,add,10000,object,0.053805327000000375,0.0602617330000004,0.006456406000000026,11.999566511323275
Cython,objects,add,10000,object,0.006591000000000478,0.007304000000000005,0.0007129999999995265,10.817781823691014
CPython,objects,add,100000,object,0.14484300000003564,0.1520560000000068,0.007212999999971159,4.979874760926924
PyPy,objects,add,100000,object,0.04652500000000018,0.04754899999999776,0.0010239999999975824,2.200967221918492
Jython,objects,add,100000,object,0.23641420999999424,0.24583064100000263,0.009416431000008385,3.9830224249247177
Cython,objects,add,100000,object,0.07012899999999977,0.07462199999999951,0.004492999999999733,6.406764676524331
CPython,objects,add,1000000,object,1.4690609999996949,1.5394880000000128,0.07042700000031799,4.794014680148245
PyPy,objects,add,1000000,object,0.4460770000000043,0.45490499999996015,0.008827999999955871,1.9790305261100185
Jython,objects,add,1000000,object,1.2745449529996575,1.7249089289999093,0.4503639760002518,35.33527593046558
Cython,objects,add,1000000,object,0.682514000000132,0.7172220000000029,0.03470799999987095,5.085316931207894
CPython,objects,add,5000000,object,7.204018000004432,7.4641199999976315,0.26010199999319994,3.6105129108927816
PyPy,objects,add,5000000,object,2.275684000000258,2.301715000000084,0.026030999999826054,1.143875863249164
Jython,objects,add,5000000,object,4.088745067000018,6.280090578000281,2.1913455110002626,53.59457425424887
Cython,objects,add,5000000,object,3.4629490000015726,3.65820999999857,0.19526099999699742,5.638575676306776
CPython,objects,generate,100,object,0.000249000000000027,0.0002680000000000182,1.8999999999991246e-05,7.630522088349072
PyPy,objects,generate,100,object,0.0003029999999999977,0.00031300000000004935,1.0000000000051634e-05,3.300330033020366
Jython,objects,generate,100,object,0.0016383870000000007,0.0024582250000000022,0.0008198380000000016,50.03933747032912
Cython,objects,generate,100,object,6.999999999999368e-05,8.099999999999774e-05,1.1000000000004062e-05,15.714285714292936
CPython,objects,generate,1000,object,0.0025260000000000213,0.0030070000000000305,0.0004810000000000092,19.041963578780884
PyPy,objects,generate,1000,object,0.0028460000000000013,0.0029519999999999963,0.00010599999999999499,3.724525650034959
Jython,objects,generate,1000,object,0.015090400000000028,0.018792396000000138,0.00370199600000011,24.532126384987166
Cython,objects,generate,1000,object,0.0006730000000000069,0.0007940000000000169,0.00012100000000000999,17.97919762258674
CPython,objects,generate,10000,object,0.01787800000000038,0.018953999999999742,0.0010759999999993622,6.0185703098743675
PyPy,objects,generate,10000,object,0.0073069999999999385,0.007377999999999635,7.09999999996963e-05,0.9716710004064173
Jython,objects,generate,10000,object,0.04486437600000106,0.0589260620000009,0.014061685999999844,31.342653690312133
Cython,objects,generate,10000,object,0.006773999999999655,0.007150999999999942,0.00037700000000028683,5.565397106588515
CPython,objects,generate,100000,object,0.1932939999999941,0.206421999999999,0.013128000000004886,6.791726592654343
PyPy,objects,generate,100000,object,0.04478799999999819,0.04505499999999932,0.00026700000000112745,0.5961418237053189
Jython,objects,generate,100000,object,0.18350881400001337,0.19932319099999285,0.01581437699997948,8.617775165817553
Cython,objects,generate,100000,object,0.0668539999999944,0.07097100000000152,0.004117000000007115,6.158195470738415
CPython,objects,generate,1000000,object,2.6180970000000388,2.6389950000002296,0.02089800000019082,0.7982133587942124
PyPy,objects,generate,1000000,object,0.41948400000004965,0.4258709999999774,0.006386999999927756,1.5225848899903214
Jython,objects,generate,1000000,object,0.9918880469997076,1.0886851330000686,0.09679708600036108,9.758872111944063
Cython,objects,generate,1000000,object,0.6684689999998821,0.6974009999999161,0.02893200000003404,4.328098984401542
CPython,objects,generate,5000000,object,14.157909999998367,14.695958999996986,0.5380489999986189,3.8003419996219847
PyPy,objects,generate,5000000,object,2.1261210000002113,2.1298740000006067,0.0037530000003953568,0.1765186459470079
Jython,objects,generate,5000000,object,3.3122337799991106,3.975025214998559,0.6627914349994484,20.01040624009415
Cython,objects,generate,5000000,object,3.3657389999999348,3.531094000000074,0.16535500000013936,4.912888373107439
CPython,tuple,append,100,integer,0.00011199999999999405,0.0001339999999999883,2.1999999999994246e-05,19.64285714285305
PyPy,tuple,append,100,integer,0.0001390000000000141,0.00014900000000007962,1.0000000000065512e-05,7.194244604362947
Jython,tuple,append,100,integer,0.0005045680000000004,0.0005797980000000007,7.523000000000035e-05,14.909784211444304
Cython,tuple,append,100,integer,9.699999999998599e-05,0.00012200000000001099,2.5000000000025002e-05,25.773195876318162
CPython,tuple,append,100,object,0.0001080000000000178,0.00012199999999999711,1.3999999999979307e-05,12.962962962941665
PyPy,tuple,append,100,object,0.00013499999999998236,0.0001559999999999756,2.0999999999993246e-05,15.555555555552585
Jython,tuple,append,100,object,0.0005246229999999995,0.0009021909999999982,0.0003775679999999987,71.96939516567117
Cython,tuple,append,100,object,0.00011199999999998017,0.00011500000000000399,3.000000000023817e-06,2.678571428593168
CPython,tuple,append,1000,integer,0.002469000000000124,0.0025749999999999315,0.00010599999999980764,4.293236127979032
PyPy,tuple,append,1000,integer,0.0022409999999998542,0.002306000000000155,6.500000000030093e-05,2.900490852311698
Jython,tuple,append,1000,integer,0.004883760000000035,0.0063987650000000154,0.0015150049999999807,31.02128278211808
Cython,tuple,append,1000,integer,0.0023630000000001913,0.0026390000000000996,0.00027599999999990826,11.680067710532624
CPython,tuple,append,1000,object,0.0029589999999999894,0.0031389999999999404,0.00017999999999995103,6.083136194658725
PyPy,tuple,append,1000,object,0.002381000000000008,0.0025120000000000975,0.00013100000000008938,5.5018899622044914
Jython,tuple,append,1000,object,0.004731478999999997,0.0061132540000000115,0.0013817750000000148,29.20387050222596
Cython,tuple,append,1000,object,0.0030049999999998897,0.003222999999999754,0.00021799999999986414,7.2545757071504875
CPython,tuple,append,10000,integer,0.19964799999999974,0.2025499999999999,0.0029020000000001545,1.4535582625421533
PyPy,tuple,append,10000,integer,0.06000199999999993,0.06524300000000098,0.00524100000000105,8.734708843040325
Jython,tuple,append,10000,integer,0.1385291850000002,0.14702986999999948,0.008500684999999286,6.136385628775102
Cython,tuple,append,10000,integer,0.20073700000000097,0.20193100000000005,0.0011939999999990847,0.5948081320329979
CPython,tuple,append,10000,object,0.36227599999999893,0.36540899999999893,0.003132999999999997,0.8648102551645723
PyPy,tuple,append,10000,object,0.06078899999999962,0.06432399999999927,0.0035349999999996495,5.815196828373014
Jython,tuple,append,10000,object,0.14191220899999935,0.15350283800000042,0.011590629000001074,8.167464294774755
Cython,tuple,append,10000,object,0.22334700000000324,0.22490400000000085,0.0015569999999976158,0.6971215194283304
CPython,tuple,append,100000,integer,25.106001999999954,25.128018999999917,0.02201699999996265,0.0876961612604137
PyPy,tuple,append,100000,integer,25.322922999999793,25.42580300000017,0.10288000000037556,0.4062722143110272
Jython,tuple,append,100000,integer,4.602849790000048,4.616137271000057,0.013287481000009649,0.28867944004771684
Cython,tuple,append,100000,integer,25.14233100000041,25.184712000000115,0.04238099999970402,0.16856432285337158
CPython,tuple,append,100000,object,46.042690000000036,46.46054900000001,0.41785899999997156,0.9075468874645927
PyPy,tuple,append,100000,object,25.523383999999776,25.60239599999987,0.07901200000009467,0.30956710129070414
Jython,tuple,append,100000,object,4.6521415190000885,4.672075334000102,0.019933815000013233,0.4284868574741407
Cython,tuple,append,100000,object,22.360140999999828,22.37303099999994,0.012890000000112423,0.05764722145585988
CPython,tuple,append,1000000,integer,900,900,0,0
PyPy,tuple,append,1000000,integer,900,900,0,0
Jython,tuple,append,1000000,integer,529.2305893580057,529.6969196670149,0.4663303090092086,0.0881147685690089
Cython,tuple,append,1000000,integer,900,900,0,0
CPython,tuple,append,1000000,object,900,900,0,0
PyPy,tuple,append,1000000,object,900,900,0,0
Jython,tuple,append,1000000,object,529.8630485100176,530.31971892499,0.4566704149723364,0.08618649974866148
Cython,tuple,append,1000000,object,900,900,0,0
CPython,tuple,sort,100,integer,2.3999999999996247e-05,2.8999999999994308e-05,4.9999999999980616e-06,20.833333333328515
PyPy,tuple,sort,100,integer,2.6999999999999247e-05,2.9000000000001247e-05,2.000000000002e-06,7.407407407415022
Jython,tuple,sort,100,integer,0.000541036,0.000671319,0.00013028300000000003,24.080283012590666
Cython,tuple,sort,100,integer,2.0999999999993246e-05,2.1999999999994246e-05,1.000000000001e-06,4.7619047619110555
CPython,tuple,sort,100,object,5.1999999999996493e-05,5.4999999999999494e-05,3.0000000000030003e-06,5.769230769236928
PyPy,tuple,sort,100,object,9.199999999999486e-05,9.900000000000186e-05,7.000000000007001e-06,7.6086956521819475
Jython,tuple,sort,100,object,0.001580278,0.002006076,0.0004257979999999998,26.944499638671154
Cython,tuple,sort,100,object,4.799999999999943e-05,5.099999999999549e-05,2.9999999999960614e-06,6.249999999991869
CPython,tuple,sort,1000,integer,0.00027900000000000147,0.00028100000000000347,2.000000000002e-06,0.7168458781369138
PyPy,tuple,sort,1000,integer,0.00012199999999999711,0.0001250000000000001,3.0000000000030003e-06,2.4590163934451406
Jython,tuple,sort,1000,integer,0.006416116,0.006896754,0.0004806379999999994,7.491105210691318
Cython,tuple,sort,1000,integer,0.00026700000000000335,0.0002889999999999976,2.1999999999994246e-05,8.239700374529576
CPython,tuple,sort,1000,object,0.0005920000000000022,0.0006169999999999995,2.4999999999997247e-05,4.222972972972492
PyPy,tuple,sort,1000,object,0.000796000000000005,0.0008109999999999923,1.4999999999987246e-05,1.8844221105511496
Jython,tuple,sort,1000,object,0.010245132,0.013433099,0.003187967,31.116895321602488
Cython,tuple,sort,1000,object,0.0005269999999999997,0.0005399999999999988,1.2999999999999123e-05,2.46679316888029
CPython,tuple,sort,10000,integer,0.003712,0.0039929999999999966,0.00028099999999999653,7.570043103448182
PyPy,tuple,sort,10000,integer,0.0012969999999999926,0.0013060000000000016,9.000000000009e-06,0.6939090208179686
Jython,tuple,sort,10000,integer,0.022460267,0.026060332,0.0036000649999999995,16.02859396106021
Cython,tuple,sort,10000,integer,0.003823,0.004191,0.00036800000000000027,9.625948208213451
CPython,tuple,sort,10000,object,0.007538000000000003,0.007942000000000005,0.0004040000000000016,5.359511806845336
PyPy,tuple,sort,10000,object,0.010871999999999993,0.011065999999999993,0.00019399999999999973,1.7844002943340678
Jython,tuple,sort,10000,object,0.035806627,0.039349965,0.003543338,9.895760357433277
Cython,tuple,sort,10000,object,0.006719000000000003,0.007010000000000002,0.0002909999999999996,4.331001637148377
CPython,tuple,sort,100000,integer,0.047946000000000016,0.04975299999999999,0.0018069999999999753,3.768823259500218
PyPy,tuple,sort,100000,integer,0.01917200000000001,0.019374000000000002,0.00020199999999999385,1.0536198622991537
Jython,tuple,sort,100000,integer,0.11286603,0.143514801,0.03064877099999999,27.15500049040441
Cython,tuple,sort,100000,integer,0.04835600000000001,0.04890399999999999,0.0005479999999999791,1.1332616428157394
CPython,tuple,sort,100000,object,0.10705200000000001,0.10866299999999998,0.0016109999999999736,1.5048761349624233
PyPy,tuple,sort,100000,object,0.137451,0.139676,0.0022250000000000048,1.6187586849131728
Jython,tuple,sort,100000,object,0.219670532,0.284772054,0.065101522,29.635983218723204
Cython,tuple,sort,100000,object,0.09362100000000001,0.10588699999999998,0.012265999999999971,13.101761356960479
CPython,tuple,sort,1000000,integer,0.7250239999999999,0.730726,0.005702000000000096,0.7864567241912125
PyPy,tuple,sort,1000000,integer,0.23615700000000006,0.23695099999999997,0.0007939999999999059,0.33621700817672384
Jython,tuple,sort,1000000,integer,0.922415999,1.11037875,0.18796275099999993,20.377221470981873
Cython,tuple,sort,1000000,integer,0.7319399999999999,0.73597,0.004030000000000089,0.5505915785447016
CPython,tuple,sort,1000000,object,1.7793189999999997,1.7884799999999998,0.009161000000000197,0.5148598986466282
PyPy,tuple,sort,1000000,object,2.0885059999999998,2.09902,0.010514000000000134,0.5034220634271644
Jython,tuple,sort,1000000,object,1.730403839,1.773279063,0.04287522399999988,2.4777582569845347
Cython,tuple,sort,1000000,object,1.6418439999999999,1.6564649999999999,0.014620999999999995,0.8905230947641795
CPython,tuple,sort,5000000,integer,4.836616,4.8446050000000005,0.007989000000000246,0.1651774711906061
PyPy,tuple,sort,5000000,integer,1.1815309999999997,1.188331,0.006800000000000361,0.575524467830329
Jython,tuple,sort,5000000,integer,4.641098596,4.987022332,0.3459237359999996,7.453488195621165
Cython,tuple,sort,5000000,integer,4.861694000000001,4.870293,0.008598999999999357,0.1768725057562108
CPython,tuple,sort,5000000,object,11.741929,11.905785999999999,0.16385699999999837,1.3954862101448438
PyPy,tuple,sort,5000000,object,12.826087000000001,12.906466,0.08037899999999887,0.6266837266891988
Jython,tuple,sort,5000000,object,8.627458663,8.685981205,0.05852254199999862,0.6783288600498348
Cython,tuple,sort,5000000,object,10.869167999999998,10.901634000000001,0.03246600000000299,0.2986981156239649
