{"interpreter": "PyPy", "function": "generator", "action": "generate", "amount": 100, "time": 9.452999999998851e-05, "data_type": "integer"}
{"interpreter": "PyPy", "function": "generator", "action": "generate", "amount": 100, "time": 9.784499999998877e-05, "data_type": "object"}
{"interpreter": "PyPy", "function": "generator", "action": "generate", "amount": 100, "time": 9.036399999998862e-05, "data_type": "integer"}
{"interpreter": "PyPy", "function": "generator", "action": "generate", "amount": 100, "time": 9.369900000000611e-05, "data_type": "object"}
{"interpreter": "PyPy", "function": "generator", "action": "generate", "amount": 100, "time": 0.00010439699999999219, "data_type": "integer"}
{"interpreter": "PyPy", "function": "generator", "action": "generate", "amount": 100, "time": 0.00010074100000001876, "data_type": "object"}
{"interpreter": "PyPy", "function": "generator", "action": "generate", "amount": 100, "time": 9.300599999998924e-05, "data_type": "integer"}
{"interpreter": "PyPy", "function": "generator", "action": "generate", "amount": 100, "time": 0.00010060700000001643, "data_type": "object"}
{"interpreter": "PyPy", "function": "generator", "action": "generate", "amount": 100, "time": 9.480899999999085e-05, "data_type": "integer"}
{"interpreter": "PyPy", "function": "generator", "action": "generate", "amount": 100, "time": 0.000160160999999992, "data_type": "object"}
{"interpreter": "PyPy", "function": "generator", "action": "generate", "amount": 1000, "time": 0.001226218000000074, "data_type": "integer"}
{"interpreter": "PyPy", "function": "generator", "action": "generate", "amount": 1000, "time": 0.0009533139999998858, "data_type": "object"}
{"interpreter": "PyPy", "function": "generator", "action": "generate", "amount": 1000, "time": 0.000989938999999912, "data_type": "integer"}
{"interpreter": "PyPy", "function": "generator", "action": "generate", "amount": 1000, "time": 0.0008821780000000425, "data_type": "object"}
{"interpreter": "PyPy", "function": "generator", "action": "generate", "amount": 1000, "time": 0.0008843989999999767, "data_type": "integer"}
{"interpreter": "PyPy", "function": "generator", "action": "generate", "amount": 1000, "time": 0.0010176950000000684, "data_type": "object"}
{"interpreter": "PyPy", "function": "generator", "action": "generate", "amount": 1000, "time": 0.0009071229999998466, "data_type": "integer"}
{"interpreter": "PyPy", "function": "generator", "action": "generate", "amount": 1000, "time": 0.0009160750000000821, "data_type": "object"}
{"interpreter": "PyPy", "function": "generator", "action": "generate", "amount": 1000, "time": 0.0012018269999999644, "data_type": "integer"}
{"interpreter": "PyPy", "function": "generator", "action": "generate", "amount": 1000, "time": 0.0011772210000000026, "data_type": "object"}
{"interpreter": "PyPy", "function": "generator", "action": "generate", "amount": 10000, "time": 0.003376591000000151, "data_type": "integer"}
{"interpreter": "PyPy", "function": "generator", "action": "generate", "amount": 10000, "time": 0.0037633909999995885, "data_type": "object"}
{"interpreter": "PyPy", "function": "generator", "action": "generate", "amount": 10000, "time": 0.0036144310000007576, "data_type": "integer"}
{"interpreter": "PyPy", "function": "generator", "action": "generate", "amount": 10000, "time": 0.0036554620000009523, "data_type": "object"}
{"interpreter": "PyPy", "function": "generator", "action": "generate", "amount": 10000, "time": 0.0035303730000000415, "data_type": "integer"}
{"interpreter": "PyPy", "function": "generator", "action": "generate", "amount": 10000, "time": 0.0036709149999995874, "data_type": "object"}
{"interpreter": "PyPy", "function": "generator", "action": "generate", "amount": 10000, "time": 0.0033811279999994143, "data_type": "integer"}
{"interpreter": "PyPy", "function": "generator", "action": "generate", "amount": 10000, "time": 0.0036462250000010264, "data_type": "object"}
{"interpreter": "PyPy", "function": "generator", "action": "generate", "amount": 10000, "time": 0.0034794110000006435, "data_type": "integer"}
{"interpreter": "PyPy", "function": "generator", "action": "generate", "amount": 10000, "time": 0.003660969000000267, "data_type": "object"}
{"interpreter": "PyPy", "function": "generator", "action": "generate", "amount": 100000, "time": 0.02443982099998622, "data_type": "integer"}
{"interpreter": "PyPy", "function": "generator", "action": "generate", "amount": 100000, "time": 0.024258058999993073, "data_type": "object"}
{"interpreter": "PyPy", "function": "generator", "action": "generate", "amount": 100000, "time": 0.025179159999997907, "data_type": "integer"}
{"interpreter": "PyPy", "function": "generator", "action": "generate", "amount": 100000, "time": 0.02440002100000483, "data_type": "object"}
{"interpreter": "PyPy", "function": "generator", "action": "generate", "amount": 100000, "time": 0.025584857999999832, "data_type": "integer"}
{"interpreter": "PyPy", "function": "generator", "action": "generate", "amount": 100000, "time": 0.025312205999994147, "data_type": "object"}
{"interpreter": "PyPy", "function": "generator", "action": "generate", "amount": 100000, "time": 0.02445773800000536, "data_type": "integer"}
{"interpreter": "PyPy", "function": "generator", "action": "generate", "amount": 100000, "time": 0.024864810999997586, "data_type": "object"}
{"interpreter": "PyPy", "function": "generator", "action": "generate", "amount": 100000, "time": 0.02476994499999578, "data_type": "integer"}
{"interpreter": "PyPy", "function": "generator", "action": "generate", "amount": 100000, "time": 0.024401763000008243, "data_type": "object"}
{"interpreter": "PyPy", "function": "generator", "action": "generate", "amount": 1000000, "time": 0.24160754400011974, "data_type": "integer"}
{"interpreter": "PyPy", "function": "generator", "action": "generate", "amount": 1000000, "time": 0.24048063500021397, "data_type": "object"}
{"interpreter": "PyPy", "function": "generator", "action": "generate", "amount": 1000000, "time": 0.23220961899989795, "data_type": "integer"}
{"interpreter": "PyPy", "function": "generator", "action": "generate", "amount": 1000000, "time": 0.2394529589998815, "data_type": "object"}
{"interpreter": "PyPy", "function": "generator", "action": "generate", "amount": 1000000, "time": 0.23904163300004905, "data_type": "integer"}
{"interpreter": "PyPy", "function": "generator", "action": "generate", "amount": 1000000, "time": 0.2436136659999597, "data_type": "object"}
{"interpreter": "PyPy", "function": "generator", "action": "generate", "amount": 1000000, "time": 0.24045455700024615, "data_type": "integer"}
{"interpreter": "PyPy", "function": "generator", "action": "generate", "amount": 1000000, "time": 0.24021309799994878, "data_type": "object"}
{"interpreter": "PyPy", "function": "generator", "action": "generate", "amount": 1000000, "time": 0.22854747000005016, "data_type": "integer"}
{"interpreter": "PyPy", "function": "generator", "action": "generate", "amount": 1000000, "time": 0.2374161570000676, "data_type": "object"}
{"interpreter": "PyPy", "function": "generator", "action": "generate", "amount": 5000000, "time": 1.1677964860006367, "data_type": "integer"}
{"interpreter": "PyPy", "function": "generator", "action": "generate", "amount": 5000000, "time": 1.1692427139986392, "data_type": "object"}
{"interpreter": "PyPy", "function": "generator", "action": "generate", "amount": 5000000, "time": 1.2058910500006927, "data_type": "integer"}
{"interpreter": "PyPy", "function": "generator", "action": "generate", "amount": 5000000, "time": 1.2090395560016824, "data_type": "object"}
{"interpreter": "PyPy", "function": "generator", "action": "generate", "amount": 5000000, "time": 1.1388523560011838, "data_type": "integer"}
{"interpreter": "PyPy", "function": "generator", "action": "generate", "amount": 5000000, "time": 1.2308329029984924, "data_type": "object"}
{"interpreter": "PyPy", "function": "generator", "action": "generate", "amount": 5000000, "time": 1.1568785810014428, "data_type": "integer"}
{"interpreter": "PyPy", "function": "generator", "action": "generate", "amount": 5000000, "time": 1.1832150760005666, "data_type": "object"}
{"interpreter": "PyPy", "function": "generator", "action": "generate", "amount": 5000000, "time": 1.1337362059995117, "data_type": "integer"}
{"interpreter": "PyPy", "function": "generator", "action": "generate", "amount": 5000000, "time": 1.1500891679999088, "data_type": "object"}
{"function": "generator", "data_type": "integer", "amount": 100, "time": 5.5999999999986616e-05, "action": "generate", "interpreter": "CPython"}
{"function": "generator", "data_type": "object", "amount": 100, "time": 5.1999999999996493e-05, "action": "generate", "interpreter": "CPython"}
{"function": "generator", "data_type": "integer", "amount": 100, "time": 5.699999999999976e-05, "action": "generate", "interpreter": "CPython"}
{"function": "generator", "data_type": "object", "amount": 100, "time": 5.3999999999998494e-05, "action": "generate", "interpreter": "CPython"}
{"function": "generator", "data_type": "integer", "amount": 100, "time": 5.6999999999994555e-05, "action": "generate", "interpreter": "CPython"}
{"function": "generator", "data_type": "object", "amount": 100, "time": 0.0002649999999999979, "action": "generate", "interpreter": "CPython"}
{"function": "generator", "data_type": "integer", "amount": 100, "time": 4.899999999999349e-05, "action": "generate", "interpreter": "CPython"}
{"function": "generator", "data_type": "object", "amount": 100, "time": 5.1999999999996493e-05, "action": "generate", "interpreter": "CPython"}
{"function": "generator", "data_type": "integer", "amount": 100, "time": 4.8999999999986554e-05, "action": "generate", "interpreter": "CPython"}
{"function": "generator", "data_type": "object", "amount": 100, "time": 5.0999999999985085e-05, "action": "generate", "interpreter": "CPython"}
{"function": "generator", "data_type": "integer", "amount": 1000, "time": 0.0008599999999999546, "action": "generate", "interpreter": "CPython"}
{"function": "generator", "data_type": "object", "amount": 1000, "time": 0.0009280000000000625, "action": "generate", "interpreter": "CPython"}
{"function": "generator", "data_type": "integer", "amount": 1000, "time": 0.0008129999999999648, "action": "generate", "interpreter": "CPython"}
{"function": "generator", "data_type": "object", "amount": 1000, "time": 0.0005449999999999726, "action": "generate", "interpreter": "CPython"}
{"function": "generator", "data_type": "integer", "amount": 1000, "time": 0.0005110000000000565, "action": "generate", "interpreter": "CPython"}
{"function": "generator", "data_type": "object", "amount": 1000, "time": 0.0007419999999999823, "action": "generate", "interpreter": "CPython"}
{"function": "generator", "data_type": "integer", "amount": 1000, "time": 0.000864999999999937, "action": "generate", "interpreter": "CPython"}
{"function": "generator", "data_type": "object", "amount": 1000, "time": 0.0009009999999999452, "action": "generate", "interpreter": "CPython"}
{"function": "generator", "data_type": "integer", "amount": 1000, "time": 0.0008669999999999546, "action": "generate", "interpreter": "CPython"}
{"function": "generator", "data_type": "object", "amount": 1000, "time": 0.0005399999999999849, "action": "generate", "interpreter": "CPython"}
{"function": "generator", "data_type": "integer", "amount": 10000, "time": 0.005156999999999488, "action": "generate", "interpreter": "CPython"}
{"function": "generator", "data_type": "object", "amount": 10000, "time": 0.006375000000000339, "action": "generate", "interpreter": "CPython"}
{"function": "generator", "data_type": "integer", "amount": 10000, "time": 0.005475000000000082, "action": "generate", "interpreter": "CPython"}
{"function": "generator", "data_type": "object", "amount": 10000, "time": 0.0061600000000000404, "action": "generate", "interpreter": "CPython"}
{"function": "generator", "data_type": "integer", "amount": 10000, "time": 0.0058409999999997336, "action": "generate", "interpreter": "CPython"}
{"function": "generator", "data_type": "object", "amount": 10000, "time": 0.005782000000000068, "action": "generate", "interpreter": "CPython"}
{"function": "generator", "data_type": "integer", "amount": 10000, "time": 0.005528000000000213, "action": "generate", "interpreter": "CPython"}
{"function": "generator", "data_type": "object", "amount": 10000, "time": 0.006135000000000116, "action": "generate", "interpreter": "CPython"}
{"function": "generator", "data_type": "integer", "amount": 10000, "time": 0.0053919999999996904, "action": "generate", "interpreter": "CPython"}
{"function": "generator", "data_type": "object", "amount": 10000, "time": 0.005965000000000168, "action": "generate", "interpreter": "CPython"}
{"function": "generator", "data_type": "integer", "amount": 100000, "time": 0.05442599999999807, "action": "generate", "interpreter": "CPython"}
{"function": "generator", "data_type": "object", "amount": 100000, "time": 0.05978999999999972, "action": "generate", "interpreter": "CPython"}
{"function": "generator", "data_type": "integer", "amount": 100000, "time": 0.056794000000001565, "action": "generate", "interpreter": "CPython"}
{"function": "generator", "data_type": "object", "amount": 100000, "time": 0.05828300000001711, "action": "generate", "interpreter": "CPython"}
{"function": "generator", "data_type": "integer", "amount": 100000, "time": 0.05062200000000995, "action": "generate", "interpreter": "CPython"}
{"function": "generator", "data_type": "object", "amount": 100000, "time": 0.05866800000000037, "action": "generate", "interpreter": "CPython"}
{"function": "generator", "data_type": "integer", "amount": 100000, "time": 0.06366799999999512, "action": "generate", "interpreter": "CPython"}
{"function": "generator", "data_type": "object", "amount": 100000, "time": 0.059359999999999205, "action": "generate", "interpreter": "CPython"}
{"function": "generator", "data_type": "integer", "amount": 100000, "time": 0.0530950000000038, "action": "generate", "interpreter": "CPython"}
{"function": "generator", "data_type": "object", "amount": 100000, "time": 0.06127400000002288, "action": "generate", "interpreter": "CPython"}
{"function": "generator", "data_type": "integer", "amount": 1000000, "time": 0.5358730000000145, "action": "generate", "interpreter": "CPython"}
{"function": "generator", "data_type": "object", "amount": 1000000, "time": 0.5993739999993062, "action": "generate", "interpreter": "CPython"}
{"function": "generator", "data_type": "integer", "amount": 1000000, "time": 0.5381030000002152, "action": "generate", "interpreter": "CPython"}
{"function": "generator", "data_type": "object", "amount": 1000000, "time": 0.5674630000007197, "action": "generate", "interpreter": "CPython"}
{"function": "generator", "data_type": "integer", "amount": 1000000, "time": 0.5700359999996221, "action": "generate", "interpreter": "CPython"}
{"function": "generator", "data_type": "object", "amount": 1000000, "time": 0.5841150000005388, "action": "generate", "interpreter": "CPython"}
{"function": "generator", "data_type": "integer", "amount": 1000000, "time": 0.513180000000836, "action": "generate", "interpreter": "CPython"}
{"function": "generator", "data_type": "object", "amount": 1000000, "time": 0.5684780000001628, "action": "generate", "interpreter": "CPython"}
{"function": "generator", "data_type": "integer", "amount": 1000000, "time": 0.662759999999962, "action": "generate", "interpreter": "CPython"}
{"function": "generator", "data_type": "object", "amount": 1000000, "time": 0.595173000000385, "action": "generate", "interpreter": "CPython"}
{"function": "generator", "data_type": "integer", "amount": 5000000, "time": 2.542375000000711, "action": "generate", "interpreter": "CPython"}
{"function": "generator", "data_type": "object", "amount": 5000000, "time": 2.84489599999634, "action": "generate", "interpreter": "CPython"}
{"function": "generator", "data_type": "integer", "amount": 5000000, "time": 2.5909550000022374, "action": "generate", "interpreter": "CPython"}
{"function": "generator", "data_type": "object", "amount": 5000000, "time": 2.8816830000028375, "action": "generate", "interpreter": "CPython"}
{"function": "generator", "data_type": "integer", "amount": 5000000, "time": 2.9056890000005056, "action": "generate", "interpreter": "CPython"}
{"function": "generator", "data_type": "object", "amount": 5000000, "time": 2.877525000001195, "action": "generate", "interpreter": "CPython"}
{"function": "generator", "data_type": "integer", "amount": 5000000, "time": 2.599775000002743, "action": "generate", "interpreter": "CPython"}
{"function": "generator", "data_type": "object", "amount": 5000000, "time": 2.7771559999993087, "action": "generate", "interpreter": "CPython"}
{"function": "generator", "data_type": "integer", "amount": 5000000, "time": 2.5814770000011364, "action": "generate", "interpreter": "CPython"}
{"function": "generator", "data_type": "object", "amount": 5000000, "time": 2.8301760000088754, "action": "generate", "interpreter": "CPython"}
{"function": "generator", "data_type": "integer", "amount": 100, "time": 5.1999999999996493e-05, "action": "generate", "interpreter": "Cython"}
{"function": "generator", "data_type": "object", "amount": 100, "time": 6.699999999999762e-05, "action": "generate", "interpreter": "Cython"}
{"function": "generator", "data_type": "integer", "amount": 100, "time": 5.5999999999997024e-05, "action": "generate", "interpreter": "Cython"}
{"function": "generator", "data_type": "object", "amount": 100, "time": 6.499999999998521e-05, "action": "generate", "interpreter": "Cython"}
{"function": "generator", "data_type": "integer", "amount": 100, "time": 6.60000000000105e-05, "action": "generate", "interpreter": "Cython"}
{"function": "generator", "data_type": "object", "amount": 100, "time": 4.899999999999696e-05, "action": "generate", "interpreter": "Cython"}
{"function": "generator", "data_type": "integer", "amount": 100, "time": 5.400000000000196e-05, "action": "generate", "interpreter": "Cython"}
{"function": "generator", "data_type": "object", "amount": 100, "time": 8.59999999999906e-05, "action": "generate", "interpreter": "Cython"}
{"function": "generator", "data_type": "integer", "amount": 100, "time": 5.1999999999996493e-05, "action": "generate", "interpreter": "Cython"}
{"function": "generator", "data_type": "object", "amount": 100, "time": 5.8999999999996555e-05, "action": "generate", "interpreter": "Cython"}
{"function": "generator", "data_type": "integer", "amount": 1000, "time": 0.0006959999999999779, "action": "generate", "interpreter": "Cython"}
{"function": "generator", "data_type": "object", "amount": 1000, "time": 0.00071799999999996, "action": "generate", "interpreter": "Cython"}
{"function": "generator", "data_type": "integer", "amount": 1000, "time": 0.0007420000000000499, "action": "generate", "interpreter": "Cython"}
{"function": "generator", "data_type": "object", "amount": 1000, "time": 0.0007340000000000367, "action": "generate", "interpreter": "Cython"}
{"function": "generator", "data_type": "integer", "amount": 1000, "time": 0.0007410000000000316, "action": "generate", "interpreter": "Cython"}
{"function": "generator", "data_type": "object", "amount": 1000, "time": 0.0007480000000000507, "action": "generate", "interpreter": "Cython"}
{"function": "generator", "data_type": "integer", "amount": 1000, "time": 0.0006859999999999818, "action": "generate", "interpreter": "Cython"}
{"function": "generator", "data_type": "object", "amount": 1000, "time": 0.0007610000000000013, "action": "generate", "interpreter": "Cython"}
{"function": "generator", "data_type": "integer", "amount": 1000, "time": 0.0006840000000000093, "action": "generate", "interpreter": "Cython"}
{"function": "generator", "data_type": "object", "amount": 1000, "time": 0.0007920000000000323, "action": "generate", "interpreter": "Cython"}
{"function": "generator", "data_type": "integer", "amount": 10000, "time": 0.005751999999999901, "action": "generate", "interpreter": "Cython"}
{"function": "generator", "data_type": "object", "amount": 10000, "time": 0.006282000000000065, "action": "generate", "interpreter": "Cython"}
{"function": "generator", "data_type": "integer", "amount": 10000, "time": 0.00566899999999998, "action": "generate", "interpreter": "Cython"}
{"function": "generator", "data_type": "object", "amount": 10000, "time": 0.005946000000000097, "action": "generate", "interpreter": "Cython"}
{"function": "generator", "data_type": "integer", "amount": 10000, "time": 0.005960999999999925, "action": "generate", "interpreter": "Cython"}
{"function": "generator", "data_type": "object", "amount": 10000, "time": 0.006259000000000063, "action": "generate", "interpreter": "Cython"}
{"function": "generator", "data_type": "integer", "amount": 10000, "time": 0.005632000000000163, "action": "generate", "interpreter": "Cython"}
{"function": "generator", "data_type": "object", "amount": 10000, "time": 0.0061279999999999495, "action": "generate", "interpreter": "Cython"}
{"function": "generator", "data_type": "integer", "amount": 10000, "time": 0.00581899999999992, "action": "generate", "interpreter": "Cython"}
{"function": "generator", "data_type": "object", "amount": 10000, "time": 0.005745000000000666, "action": "generate", "interpreter": "Cython"}
{"function": "generator", "data_type": "integer", "amount": 100000, "time": 0.054967999999999496, "action": "generate", "interpreter": "Cython"}
{"function": "generator", "data_type": "object", "amount": 100000, "time": 0.05593299999999264, "action": "generate", "interpreter": "Cython"}
{"function": "generator", "data_type": "integer", "amount": 100000, "time": 0.05585400000000539, "action": "generate", "interpreter": "Cython"}
{"function": "generator", "data_type": "object", "amount": 100000, "time": 0.05621399999999144, "action": "generate", "interpreter": "Cython"}
{"function": "generator", "data_type": "integer", "amount": 100000, "time": 0.05436400000001375, "action": "generate", "interpreter": "Cython"}
{"function": "generator", "data_type": "object", "amount": 100000, "time": 0.05734900000002151, "action": "generate", "interpreter": "Cython"}
{"function": "generator", "data_type": "integer", "amount": 100000, "time": 0.055557000000008336, "action": "generate", "interpreter": "Cython"}
{"function": "generator", "data_type": "object", "amount": 100000, "time": 0.061895000000011094, "action": "generate", "interpreter": "Cython"}
{"function": "generator", "data_type": "integer", "amount": 100000, "time": 0.053617999999992456, "action": "generate", "interpreter": "Cython"}
{"function": "generator", "data_type": "object", "amount": 100000, "time": 0.05942799999999726, "action": "generate", "interpreter": "Cython"}
{"function": "generator", "data_type": "integer", "amount": 1000000, "time": 0.62167199999972, "action": "generate", "interpreter": "Cython"}
{"function": "generator", "data_type": "object", "amount": 1000000, "time": 0.5717029999997643, "action": "generate", "interpreter": "Cython"}
{"function": "generator", "data_type": "integer", "amount": 1000000, "time": 0.5617009999999664, "action": "generate", "interpreter": "Cython"}
{"function": "generator", "data_type": "object", "amount": 1000000, "time": 0.5928159999996234, "action": "generate", "interpreter": "Cython"}
{"function": "generator", "data_type": "integer", "amount": 1000000, "time": 0.5720200000001574, "action": "generate", "interpreter": "Cython"}
{"function": "generator", "data_type": "object", "amount": 1000000, "time": 0.6012360000000505, "action": "generate", "interpreter": "Cython"}
{"function": "generator", "data_type": "integer", "amount": 1000000, "time": 0.5714150000004492, "action": "generate", "interpreter": "Cython"}
{"function": "generator", "data_type": "object", "amount": 1000000, "time": 0.609595000000527, "action": "generate", "interpreter": "Cython"}
{"function": "generator", "data_type": "integer", "amount": 1000000, "time": 0.5535729999998433, "action": "generate", "interpreter": "Cython"}
{"function": "generator", "data_type": "object", "amount": 1000000, "time": 0.5773090000003778, "action": "generate", "interpreter": "Cython"}
{"function": "generator", "data_type": "integer", "amount": 5000000, "time": 2.7312719999947705, "action": "generate", "interpreter": "Cython"}
{"function": "generator", "data_type": "object", "amount": 5000000, "time": 2.97758299999896, "action": "generate", "interpreter": "Cython"}
{"function": "generator", "data_type": "integer", "amount": 5000000, "time": 2.764463000003793, "action": "generate", "interpreter": "Cython"}
{"function": "generator", "data_type": "object", "amount": 5000000, "time": 2.930732999989882, "action": "generate", "interpreter": "Cython"}
{"function": "generator", "data_type": "integer", "amount": 5000000, "time": 2.825929000006206, "action": "generate", "interpreter": "Cython"}
{"function": "generator", "data_type": "object", "amount": 5000000, "time": 2.7076140000010724, "action": "generate", "interpreter": "Cython"}
{"function": "generator", "data_type": "integer", "amount": 5000000, "time": 2.8533930000032863, "action": "generate", "interpreter": "Cython"}
{"function": "generator", "data_type": "object", "amount": 5000000, "time": 2.7908500000039744, "action": "generate", "interpreter": "Cython"}
{"function": "generator", "data_type": "integer", "amount": 5000000, "time": 2.7514689999993185, "action": "generate", "interpreter": "Cython"}
{"function": "generator", "data_type": "object", "amount": 5000000, "time": 2.931108999997388, "action": "generate", "interpreter": "Cython"}
{"amount": 100, "interpreter": "Jython", "function": "generator", "data_type": "integer", "action": "generate", "time": 0.0009742340000000196}
{"amount": 100, "interpreter": "Jython", "function": "generator", "data_type": "object", "action": "generate", "time": 0.0007790050000000094}
{"amount": 100, "interpreter": "Jython", "function": "generator", "data_type": "integer", "action": "generate", "time": 0.000689969000000009}
{"amount": 100, "interpreter": "Jython", "function": "generator", "data_type": "object", "action": "generate", "time": 0.0011524140000000087}
{"amount": 100, "interpreter": "Jython", "function": "generator", "data_type": "integer", "action": "generate", "time": 0.0011683819999999906}
{"amount": 100, "interpreter": "Jython", "function": "generator", "data_type": "object", "action": "generate", "time": 0.0011167210000000032}
{"amount": 100, "interpreter": "Jython", "function": "generator", "data_type": "integer", "action": "generate", "time": 0.001582372000000007}
{"amount": 100, "interpreter": "Jython", "function": "generator", "data_type": "object", "action": "generate", "time": 0.0009211880000000053}
{"amount": 100, "interpreter": "Jython", "function": "generator", "data_type": "integer", "action": "generate", "time": 0.0011014509999999864}
{"amount": 100, "interpreter": "Jython", "function": "generator", "data_type": "object", "action": "generate", "time": 0.0011674359999999957}
{"amount": 1000, "interpreter": "Jython", "function": "generator", "data_type": "integer", "action": "generate", "time": 0.006235168999999721}
{"amount": 1000, "interpreter": "Jython", "function": "generator", "data_type": "object", "action": "generate", "time": 0.006118841000000001}
{"amount": 1000, "interpreter": "Jython", "function": "generator", "data_type": "integer", "action": "generate", "time": 0.007563278000000288}
{"amount": 1000, "interpreter": "Jython", "function": "generator", "data_type": "object", "action": "generate", "time": 0.007344800000000231}
{"amount": 1000, "interpreter": "Jython", "function": "generator", "data_type": "integer", "action": "generate", "time": 0.007178974999999903}
{"amount": 1000, "interpreter": "Jython", "function": "generator", "data_type": "object", "action": "generate", "time": 0.0073306650000002005}
{"amount": 1000, "interpreter": "Jython", "function": "generator", "data_type": "integer", "action": "generate", "time": 0.0076795890000001575}
{"amount": 1000, "interpreter": "Jython", "function": "generator", "data_type": "object", "action": "generate", "time": 0.005807524000000048}
{"amount": 1000, "interpreter": "Jython", "function": "generator", "data_type": "integer", "action": "generate", "time": 0.0056315269999998585}
{"amount": 1000, "interpreter": "Jython", "function": "generator", "data_type": "object", "action": "generate", "time": 0.0065681769999996805}
{"amount": 10000, "interpreter": "Jython", "function": "generator", "data_type": "integer", "action": "generate", "time": 0.019619881000000648}
{"amount": 10000, "interpreter": "Jython", "function": "generator", "data_type": "object", "action": "generate", "time": 0.023577656000000932}
{"amount": 10000, "interpreter": "Jython", "function": "generator", "data_type": "integer", "action": "generate", "time": 0.021079051999998454}
{"amount": 10000, "interpreter": "Jython", "function": "generator", "data_type": "object", "action": "generate", "time": 0.018889877000000208}
{"amount": 10000, "interpreter": "Jython", "function": "generator", "data_type": "integer", "action": "generate", "time": 0.023445099000000275}
{"amount": 10000, "interpreter": "Jython", "function": "generator", "data_type": "object", "action": "generate", "time": 0.020948832000001718}
{"amount": 10000, "interpreter": "Jython", "function": "generator", "data_type": "integer", "action": "generate", "time": 0.02365670100000191}
{"amount": 10000, "interpreter": "Jython", "function": "generator", "data_type": "object", "action": "generate", "time": 0.022998013999998835}
{"amount": 10000, "interpreter": "Jython", "function": "generator", "data_type": "integer", "action": "generate", "time": 0.01670190499999695}
{"amount": 10000, "interpreter": "Jython", "function": "generator", "data_type": "object", "action": "generate", "time": 0.022960084000001896}
{"amount": 100000, "interpreter": "Jython", "function": "generator", "data_type": "integer", "action": "generate", "time": 0.07381547599997382}
{"amount": 100000, "interpreter": "Jython", "function": "generator", "data_type": "object", "action": "generate", "time": 0.08709620600008075}
{"amount": 100000, "interpreter": "Jython", "function": "generator", "data_type": "integer", "action": "generate", "time": 0.08383605400004618}
{"amount": 100000, "interpreter": "Jython", "function": "generator", "data_type": "object", "action": "generate", "time": 0.08681404300005435}
{"amount": 100000, "interpreter": "Jython", "function": "generator", "data_type": "integer", "action": "generate", "time": 0.07274287599997076}
{"amount": 100000, "interpreter": "Jython", "function": "generator", "data_type": "object", "action": "generate", "time": 0.08117961700002514}
{"amount": 100000, "interpreter": "Jython", "function": "generator", "data_type": "integer", "action": "generate", "time": 0.0756229899999617}
{"amount": 100000, "interpreter": "Jython", "function": "generator", "data_type": "object", "action": "generate", "time": 0.08687406800000524}
{"amount": 100000, "interpreter": "Jython", "function": "generator", "data_type": "integer", "action": "generate", "time": 0.07296724400005962}
{"amount": 100000, "interpreter": "Jython", "function": "generator", "data_type": "object", "action": "generate", "time": 0.09020933099993744}
{"amount": 1000000, "interpreter": "Jython", "function": "generator", "data_type": "integer", "action": "generate", "time": 0.4031753160002892}
{"amount": 1000000, "interpreter": "Jython", "function": "generator", "data_type": "object", "action": "generate", "time": 0.4206493289996544}
{"amount": 1000000, "interpreter": "Jython", "function": "generator", "data_type": "integer", "action": "generate", "time": 0.38729591799983465}
{"amount": 1000000, "interpreter": "Jython", "function": "generator", "data_type": "object", "action": "generate", "time": 0.4542354600010008}
{"amount": 1000000, "interpreter": "Jython", "function": "generator", "data_type": "integer", "action": "generate", "time": 0.48953495900077365}
{"amount": 1000000, "interpreter": "Jython", "function": "generator", "data_type": "object", "action": "generate", "time": 0.4050600429994859}
{"amount": 1000000, "interpreter": "Jython", "function": "generator", "data_type": "integer", "action": "generate", "time": 0.4596229839992068}
{"amount": 1000000, "interpreter": "Jython", "function": "generator", "data_type": "object", "action": "generate", "time": 0.44528073900012444}
{"amount": 1000000, "interpreter": "Jython", "function": "generator", "data_type": "integer", "action": "generate", "time": 0.3894941060008948}
{"amount": 1000000, "interpreter": "Jython", "function": "generator", "data_type": "object", "action": "generate", "time": 0.42827419500095615}
{"amount": 5000000, "interpreter": "Jython", "function": "generator", "data_type": "integer", "action": "generate", "time": 1.7863764029960498}
{"amount": 5000000, "interpreter": "Jython", "function": "generator", "data_type": "object", "action": "generate", "time": 900}
{"amount": 5000000, "interpreter": "Jython", "function": "generator", "data_type": "integer", "action": "generate", "time": 2.998710500000321}
{"amount": 5000000, "interpreter": "Jython", "function": "generator", "data_type": "object", "action": "generate", "time": 900}
{"amount": 5000000, "interpreter": "Jython", "function": "generator", "data_type": "integer", "action": "generate", "time": 1.9148297549908515}
{"amount": 5000000, "interpreter": "Jython", "function": "generator", "data_type": "object", "action": "generate", "time": 900}
{"amount": 5000000, "interpreter": "Jython", "function": "generator", "data_type": "integer", "action": "generate", "time": 3.062374883015615}
{"amount": 5000000, "interpreter": "Jython", "function": "generator", "data_type": "object", "action": "generate", "time": 900}
{"amount": 5000000, "interpreter": "Jython", "function": "generator", "data_type": "integer", "action": "generate", "time": 2.170374932017896}
{"amount": 5000000, "interpreter": "Jython", "function": "generator", "data_type": "object", "action": "generate", "time": 900}
