{"interpreter": "PyPy", "function": "tuple", "action": "append", "amount": 100, "time": 7.839599999997712e-05, "data_type": "integer"}
{"interpreter": "PyPy", "function": "tuple", "action": "append", "amount": 100, "time": 4.67390000000005e-05, "data_type": "object"}
{"interpreter": "PyPy", "function": "tuple", "action": "append", "amount": 100, "time": 4.700700000003291e-05, "data_type": "integer"}
{"interpreter": "PyPy", "function": "tuple", "action": "append", "amount": 100, "time": 4.489300000000071e-05, "data_type": "object"}
{"interpreter": "PyPy", "function": "tuple", "action": "append", "amount": 100, "time": 4.373499999999614e-05, "data_type": "integer"}
{"interpreter": "PyPy", "function": "tuple", "action": "append", "amount": 100, "time": 4.707900000000195e-05, "data_type": "object"}
{"interpreter": "PyPy", "function": "tuple", "action": "append", "amount": 100, "time": 4.605599999999571e-05, "data_type": "integer"}
{"interpreter": "PyPy", "function": "tuple", "action": "append", "amount": 100, "time": 4.657399999998674e-05, "data_type": "object"}
{"interpreter": "PyPy", "function": "tuple", "action": "append", "amount": 100, "time": 4.8882999999999566e-05, "data_type": "integer"}
{"interpreter": "PyPy", "function": "tuple", "action": "append", "amount": 100, "time": 4.60220000000032e-05, "data_type": "object"}
{"interpreter": "PyPy", "function": "tuple", "action": "sort", "amount": 100, "time": 5.307000000000228e-05, "data_type": "integer"}
{"interpreter": "PyPy", "function": "tuple", "action": "sort", "amount": 100, "time": 0.0002741369999999972, "data_type": "object"}
{"interpreter": "PyPy", "function": "tuple", "action": "sort", "amount": 100, "time": 1.3368999999999187e-05, "data_type": "integer"}
{"interpreter": "PyPy", "function": "tuple", "action": "sort", "amount": 100, "time": 9.340500000000126e-05, "data_type": "object"}
{"interpreter": "PyPy", "function": "tuple", "action": "sort", "amount": 100, "time": 1.4375999999999972e-05, "data_type": "integer"}
{"interpreter": "PyPy", "function": "tuple", "action": "sort", "amount": 100, "time": 8.977699999999922e-05, "data_type": "object"}
{"interpreter": "PyPy", "function": "tuple", "action": "sort", "amount": 100, "time": 1.4247999999997957e-05, "data_type": "integer"}
{"interpreter": "PyPy", "function": "tuple", "action": "sort", "amount": 100, "time": 9.695399999999979e-05, "data_type": "object"}
{"interpreter": "PyPy", "function": "tuple", "action": "sort", "amount": 100, "time": 1.5577999999998732e-05, "data_type": "integer"}
{"interpreter": "PyPy", "function": "tuple", "action": "sort", "amount": 100, "time": 9.050099999999978e-05, "data_type": "object"}
{"interpreter": "PyPy", "function": "tuple", "action": "append", "amount": 1000, "time": 0.001187771000000011, "data_type": "integer"}
{"interpreter": "PyPy", "function": "tuple", "action": "append", "amount": 1000, "time": 0.0012326139999999756, "data_type": "object"}
{"interpreter": "PyPy", "function": "tuple", "action": "append", "amount": 1000, "time": 0.0011748869999999405, "data_type": "integer"}
{"interpreter": "PyPy", "function": "tuple", "action": "append", "amount": 1000, "time": 0.0011406829999999653, "data_type": "object"}
{"interpreter": "PyPy", "function": "tuple", "action": "append", "amount": 1000, "time": 0.0011345699999999875, "data_type": "integer"}
{"interpreter": "PyPy", "function": "tuple", "action": "append", "amount": 1000, "time": 0.0011854389999999514, "data_type": "object"}
{"interpreter": "PyPy", "function": "tuple", "action": "append", "amount": 1000, "time": 0.0011745289999999416, "data_type": "integer"}
{"interpreter": "PyPy", "function": "tuple", "action": "append", "amount": 1000, "time": 0.0012058619999999569, "data_type": "object"}
{"interpreter": "PyPy", "function": "tuple", "action": "append", "amount": 1000, "time": 0.00113663599999992, "data_type": "integer"}
{"interpreter": "PyPy", "function": "tuple", "action": "append", "amount": 1000, "time": 0.0011771479999999508, "data_type": "object"}
{"interpreter": "PyPy", "function": "tuple", "action": "sort", "amount": 1000, "time": 9.692999999999855e-05, "data_type": "integer"}
{"interpreter": "PyPy", "function": "tuple", "action": "sort", "amount": 1000, "time": 0.0007175000000000029, "data_type": "object"}
{"interpreter": "PyPy", "function": "tuple", "action": "sort", "amount": 1000, "time": 9.377199999999891e-05, "data_type": "integer"}
{"interpreter": "PyPy", "function": "tuple", "action": "sort", "amount": 1000, "time": 0.0006754570000000008, "data_type": "object"}
{"interpreter": "PyPy", "function": "tuple", "action": "sort", "amount": 1000, "time": 9.229900000000055e-05, "data_type": "integer"}
{"interpreter": "PyPy", "function": "tuple", "action": "sort", "amount": 1000, "time": 0.0023695669999999995, "data_type": "object"}
{"interpreter": "PyPy", "function": "tuple", "action": "sort", "amount": 1000, "time": 0.00016649199999999725, "data_type": "integer"}
{"interpreter": "PyPy", "function": "tuple", "action": "sort", "amount": 1000, "time": 0.0025835339999999984, "data_type": "object"}
{"interpreter": "PyPy", "function": "tuple", "action": "sort", "amount": 1000, "time": 0.00016552200000000128, "data_type": "integer"}
{"interpreter": "PyPy", "function": "tuple", "action": "sort", "amount": 1000, "time": 0.0013562850000000022, "data_type": "object"}
{"interpreter": "PyPy", "function": "tuple", "action": "append", "amount": 10000, "time": 0.054299530000000526, "data_type": "integer"}
{"interpreter": "PyPy", "function": "tuple", "action": "append", "amount": 10000, "time": 0.05313846199999947, "data_type": "object"}
{"interpreter": "PyPy", "function": "tuple", "action": "append", "amount": 10000, "time": 0.05585511000000027, "data_type": "integer"}
{"interpreter": "PyPy", "function": "tuple", "action": "append", "amount": 10000, "time": 0.052179210000000135, "data_type": "object"}
{"interpreter": "PyPy", "function": "tuple", "action": "append", "amount": 10000, "time": 0.05614013200000008, "data_type": "integer"}
{"interpreter": "PyPy", "function": "tuple", "action": "append", "amount": 10000, "time": 0.053235621000000254, "data_type": "object"}
{"interpreter": "PyPy", "function": "tuple", "action": "append", "amount": 10000, "time": 0.05889467800000025, "data_type": "integer"}
{"interpreter": "PyPy", "function": "tuple", "action": "append", "amount": 10000, "time": 0.05294308300000036, "data_type": "object"}
{"interpreter": "PyPy", "function": "tuple", "action": "append", "amount": 10000, "time": 0.05473338700000064, "data_type": "integer"}
{"interpreter": "PyPy", "function": "tuple", "action": "append", "amount": 10000, "time": 0.0530011170000003, "data_type": "object"}
{"interpreter": "PyPy", "function": "tuple", "action": "sort", "amount": 10000, "time": 0.0010630359999999998, "data_type": "integer"}
{"interpreter": "PyPy", "function": "tuple", "action": "sort", "amount": 10000, "time": 0.004250592999999997, "data_type": "object"}
{"interpreter": "PyPy", "function": "tuple", "action": "sort", "amount": 10000, "time": 0.0009984549999999953, "data_type": "integer"}
{"interpreter": "PyPy", "function": "tuple", "action": "sort", "amount": 10000, "time": 0.002225610000000003, "data_type": "object"}
{"interpreter": "PyPy", "function": "tuple", "action": "sort", "amount": 10000, "time": 0.0010060650000000004, "data_type": "integer"}
{"interpreter": "PyPy", "function": "tuple", "action": "sort", "amount": 10000, "time": 0.002265679999999999, "data_type": "object"}
{"interpreter": "PyPy", "function": "tuple", "action": "sort", "amount": 10000, "time": 0.0010350210000000006, "data_type": "integer"}
{"interpreter": "PyPy", "function": "tuple", "action": "sort", "amount": 10000, "time": 0.009155178, "data_type": "object"}
{"interpreter": "PyPy", "function": "tuple", "action": "sort", "amount": 10000, "time": 0.0009983719999999974, "data_type": "integer"}
{"interpreter": "PyPy", "function": "tuple", "action": "sort", "amount": 10000, "time": 0.0022319309999999995, "data_type": "object"}
{"interpreter": "PyPy", "function": "tuple", "action": "append", "amount": 100000, "time": 7.377452409999986, "data_type": "integer"}
{"interpreter": "PyPy", "function": "tuple", "action": "append", "amount": 100000, "time": 7.411059965000126, "data_type": "object"}
{"interpreter": "PyPy", "function": "tuple", "action": "append", "amount": 100000, "time": 7.382755059999922, "data_type": "integer"}
{"interpreter": "PyPy", "function": "tuple", "action": "append", "amount": 100000, "time": 7.420172100999905, "data_type": "object"}
{"interpreter": "PyPy", "function": "tuple", "action": "append", "amount": 100000, "time": 7.379353311999928, "data_type": "integer"}
{"interpreter": "PyPy", "function": "tuple", "action": "append", "amount": 100000, "time": 7.437882048000022, "data_type": "object"}
{"interpreter": "PyPy", "function": "tuple", "action": "append", "amount": 100000, "time": 7.38131174300003, "data_type": "integer"}
{"interpreter": "PyPy", "function": "tuple", "action": "append", "amount": 100000, "time": 7.424836136999896, "data_type": "object"}
{"interpreter": "PyPy", "function": "tuple", "action": "append", "amount": 100000, "time": 7.3820303049999305, "data_type": "integer"}
{"interpreter": "PyPy", "function": "tuple", "action": "append", "amount": 100000, "time": 7.425622907999858, "data_type": "object"}
{"interpreter": "PyPy", "function": "tuple", "action": "sort", "amount": 100000, "time": 0.014319402000000002, "data_type": "integer"}
{"interpreter": "PyPy", "function": "tuple", "action": "sort", "amount": 100000, "time": 0.022489438, "data_type": "object"}
{"interpreter": "PyPy", "function": "tuple", "action": "sort", "amount": 100000, "time": 0.014325953999999995, "data_type": "integer"}
{"interpreter": "PyPy", "function": "tuple", "action": "sort", "amount": 100000, "time": 0.022403119, "data_type": "object"}
{"interpreter": "PyPy", "function": "tuple", "action": "sort", "amount": 100000, "time": 0.014456377000000006, "data_type": "integer"}
{"interpreter": "PyPy", "function": "tuple", "action": "sort", "amount": 100000, "time": 0.022436544000000003, "data_type": "object"}
{"interpreter": "PyPy", "function": "tuple", "action": "sort", "amount": 100000, "time": 0.014366161999999995, "data_type": "integer"}
{"interpreter": "PyPy", "function": "tuple", "action": "sort", "amount": 100000, "time": 0.02243497, "data_type": "object"}
{"interpreter": "PyPy", "function": "tuple", "action": "sort", "amount": 100000, "time": 0.015899942999999993, "data_type": "integer"}
{"interpreter": "PyPy", "function": "tuple", "action": "sort", "amount": 100000, "time": 0.022632120999999998, "data_type": "object"}
{"interpreter": "PyPy", "function": "tuple", "action": "append", "amount": 1000000, "time": 900, "data_type": "integer"}
{"interpreter": "PyPy", "function": "tuple", "action": "append", "amount": 1000000, "time": 900, "data_type": "object"}
{"interpreter": "PyPy", "function": "tuple", "action": "append", "amount": 1000000, "time": 900, "data_type": "integer"}
{"interpreter": "PyPy", "function": "tuple", "action": "append", "amount": 1000000, "time": 900, "data_type": "object"}
{"interpreter": "PyPy", "function": "tuple", "action": "append", "amount": 1000000, "time": 900, "data_type": "integer"}
{"interpreter": "PyPy", "function": "tuple", "action": "append", "amount": 1000000, "time": 900, "data_type": "object"}
{"interpreter": "PyPy", "function": "tuple", "action": "append", "amount": 1000000, "time": 900, "data_type": "integer"}
{"interpreter": "PyPy", "function": "tuple", "action": "append", "amount": 1000000, "time": 900, "data_type": "object"}
{"interpreter": "PyPy", "function": "tuple", "action": "append", "amount": 1000000, "time": 900, "data_type": "integer"}
{"interpreter": "PyPy", "function": "tuple", "action": "append", "amount": 1000000, "time": 900, "data_type": "object"}
{"interpreter": "PyPy", "function": "tuple", "action": "sort", "amount": 1000000, "time": 0.156041883, "data_type": "integer"}
{"interpreter": "PyPy", "function": "tuple", "action": "sort", "amount": 1000000, "time": 0.213334702, "data_type": "object"}
{"interpreter": "PyPy", "function": "tuple", "action": "sort", "amount": 1000000, "time": 0.162429013, "data_type": "integer"}
{"interpreter": "PyPy", "function": "tuple", "action": "sort", "amount": 1000000, "time": 0.219003014, "data_type": "object"}
{"interpreter": "PyPy", "function": "tuple", "action": "sort", "amount": 1000000, "time": 0.15579439000000003, "data_type": "integer"}
{"interpreter": "PyPy", "function": "tuple", "action": "sort", "amount": 1000000, "time": 0.21400675000000002, "data_type": "object"}
{"interpreter": "PyPy", "function": "tuple", "action": "sort", "amount": 1000000, "time": 0.15568134400000003, "data_type": "integer"}
{"interpreter": "PyPy", "function": "tuple", "action": "sort", "amount": 1000000, "time": 0.21860858100000002, "data_type": "object"}
{"interpreter": "PyPy", "function": "tuple", "action": "sort", "amount": 1000000, "time": 0.15579147799999998, "data_type": "integer"}
{"interpreter": "PyPy", "function": "tuple", "action": "sort", "amount": 1000000, "time": 0.21382343600000003, "data_type": "object"}
{"interpreter": "PyPy", "function": "tuple", "action": "sort", "amount": 5000000, "time": 0.8277318220000001, "data_type": "integer"}
{"interpreter": "PyPy", "function": "tuple", "action": "sort", "amount": 5000000, "time": 0.8484391850000002, "data_type": "object"}
{"interpreter": "PyPy", "function": "tuple", "action": "sort", "amount": 5000000, "time": 0.82615472, "data_type": "integer"}
{"interpreter": "PyPy", "function": "tuple", "action": "sort", "amount": 5000000, "time": 0.8593932339999997, "data_type": "object"}
{"interpreter": "PyPy", "function": "tuple", "action": "sort", "amount": 5000000, "time": 0.8297753159999999, "data_type": "integer"}
{"interpreter": "PyPy", "function": "tuple", "action": "sort", "amount": 5000000, "time": 0.8493987790000002, "data_type": "object"}
{"interpreter": "PyPy", "function": "tuple", "action": "sort", "amount": 5000000, "time": 0.8307514709999999, "data_type": "integer"}
{"interpreter": "PyPy", "function": "tuple", "action": "sort", "amount": 5000000, "time": 0.8635333059999999, "data_type": "object"}
{"interpreter": "PyPy", "function": "tuple", "action": "sort", "amount": 5000000, "time": 0.82798955, "data_type": "integer"}
{"interpreter": "PyPy", "function": "tuple", "action": "sort", "amount": 5000000, "time": 0.842235047, "data_type": "object"}
{"function": "tuple", "data_type": "integer", "amount": 100, "time": 0.00010899999999999799, "action": "append", "interpreter": "CPython"}
{"function": "tuple", "data_type": "object", "amount": 100, "time": 0.00011200000000000099, "action": "append", "interpreter": "CPython"}
{"function": "tuple", "data_type": "integer", "amount": 100, "time": 5.60000000000057e-05, "action": "append", "interpreter": "CPython"}
{"function": "tuple", "data_type": "object", "amount": 100, "time": 5.7999999999992086e-05, "action": "append", "interpreter": "CPython"}
{"function": "tuple", "data_type": "integer", "amount": 100, "time": 5.199999999999823e-05, "action": "append", "interpreter": "CPython"}
{"function": "tuple", "data_type": "object", "amount": 100, "time": 5.6999999999994555e-05, "action": "append", "interpreter": "CPython"}
{"function": "tuple", "data_type": "integer", "amount": 100, "time": 4.999999999999623e-05, "action": "append", "interpreter": "CPython"}
{"function": "tuple", "data_type": "object", "amount": 100, "time": 5.300000000000096e-05, "action": "append", "interpreter": "CPython"}
{"function": "tuple", "data_type": "integer", "amount": 100, "time": 0.00012799999999999964, "action": "append", "interpreter": "CPython"}
{"function": "tuple", "data_type": "object", "amount": 100, "time": 5.600000000000917e-05, "action": "append", "interpreter": "CPython"}
{"function": "tuple", "data_type": "integer", "amount": 100, "time": 1.3000000000002593e-05, "action": "sort", "interpreter": "CPython"}
{"function": "tuple", "data_type": "object", "amount": 100, "time": 4.999999999999796e-06, "action": "sort", "interpreter": "CPython"}
{"function": "tuple", "data_type": "integer", "amount": 100, "time": 1.2000000000001593e-05, "action": "sort", "interpreter": "CPython"}
{"function": "tuple", "data_type": "object", "amount": 100, "time": 4.999999999999796e-06, "action": "sort", "interpreter": "CPython"}
{"function": "tuple", "data_type": "integer", "amount": 100, "time": 1.1999999999998123e-05, "action": "sort", "interpreter": "CPython"}
{"function": "tuple", "data_type": "object", "amount": 100, "time": 7.999999999999327e-06, "action": "sort", "interpreter": "CPython"}
{"function": "tuple", "data_type": "integer", "amount": 100, "time": 1.3000000000002593e-05, "action": "sort", "interpreter": "CPython"}
{"function": "tuple", "data_type": "object", "amount": 100, "time": 1.899999999999992e-05, "action": "sort", "interpreter": "CPython"}
{"function": "tuple", "data_type": "integer", "amount": 100, "time": 1.1999999999999858e-05, "action": "sort", "interpreter": "CPython"}
{"function": "tuple", "data_type": "object", "amount": 100, "time": 5.999999999999062e-06, "action": "sort", "interpreter": "CPython"}
{"function": "tuple", "data_type": "integer", "amount": 1000, "time": 0.0016039999999999666, "action": "append", "interpreter": "CPython"}
{"function": "tuple", "data_type": "object", "amount": 1000, "time": 0.002042999999999927, "action": "append", "interpreter": "CPython"}
{"function": "tuple", "data_type": "integer", "amount": 1000, "time": 0.0013599999999999828, "action": "append", "interpreter": "CPython"}
{"function": "tuple", "data_type": "object", "amount": 1000, "time": 0.0022799999999999956, "action": "append", "interpreter": "CPython"}
{"function": "tuple", "data_type": "integer", "amount": 1000, "time": 0.0013949999999999518, "action": "append", "interpreter": "CPython"}
{"function": "tuple", "data_type": "object", "amount": 1000, "time": 0.0020650000000000286, "action": "append", "interpreter": "CPython"}
{"function": "tuple", "data_type": "integer", "amount": 1000, "time": 0.0016800000000000096, "action": "append", "interpreter": "CPython"}
{"function": "tuple", "data_type": "object", "amount": 1000, "time": 0.0020219999999999873, "action": "append", "interpreter": "CPython"}
{"function": "tuple", "data_type": "integer", "amount": 1000, "time": 0.001384999999999987, "action": "append", "interpreter": "CPython"}
{"function": "tuple", "data_type": "object", "amount": 1000, "time": 0.0025020000000000233, "action": "append", "interpreter": "CPython"}
{"function": "tuple", "data_type": "integer", "amount": 1000, "time": 0.00013299999999999944, "action": "sort", "interpreter": "CPython"}
{"function": "tuple", "data_type": "object", "amount": 1000, "time": 2.5000000000000716e-05, "action": "sort", "interpreter": "CPython"}
{"function": "tuple", "data_type": "integer", "amount": 1000, "time": 0.00013299999999999944, "action": "sort", "interpreter": "CPython"}
{"function": "tuple", "data_type": "object", "amount": 1000, "time": 2.5000000000000716e-05, "action": "sort", "interpreter": "CPython"}
{"function": "tuple", "data_type": "integer", "amount": 1000, "time": 0.00014699999999999956, "action": "sort", "interpreter": "CPython"}
{"function": "tuple", "data_type": "object", "amount": 1000, "time": 2.499999999999898e-05, "action": "sort", "interpreter": "CPython"}
{"function": "tuple", "data_type": "integer", "amount": 1000, "time": 0.0001549999999999989, "action": "sort", "interpreter": "CPython"}
{"function": "tuple", "data_type": "object", "amount": 1000, "time": 2.499999999999898e-05, "action": "sort", "interpreter": "CPython"}
{"function": "tuple", "data_type": "integer", "amount": 1000, "time": 0.00013300000000000117, "action": "sort", "interpreter": "CPython"}
{"function": "tuple", "data_type": "object", "amount": 1000, "time": 4.200000000000037e-05, "action": "sort", "interpreter": "CPython"}
{"function": "tuple", "data_type": "integer", "amount": 10000, "time": 0.15819800000000056, "action": "append", "interpreter": "CPython"}
{"function": "tuple", "data_type": "object", "amount": 10000, "time": 0.2963580000000011, "action": "append", "interpreter": "CPython"}
{"function": "tuple", "data_type": "integer", "amount": 10000, "time": 0.15742200000000028, "action": "append", "interpreter": "CPython"}
{"function": "tuple", "data_type": "object", "amount": 10000, "time": 0.30181299999999944, "action": "append", "interpreter": "CPython"}
{"function": "tuple", "data_type": "integer", "amount": 10000, "time": 0.1599099999999992, "action": "append", "interpreter": "CPython"}
{"function": "tuple", "data_type": "object", "amount": 10000, "time": 0.2917679999999993, "action": "append", "interpreter": "CPython"}
{"function": "tuple", "data_type": "integer", "amount": 10000, "time": 0.16084999999999997, "action": "append", "interpreter": "CPython"}
{"function": "tuple", "data_type": "object", "amount": 10000, "time": 0.2933600000000012, "action": "append", "interpreter": "CPython"}
{"function": "tuple", "data_type": "integer", "amount": 10000, "time": 0.16151200000000007, "action": "append", "interpreter": "CPython"}
{"function": "tuple", "data_type": "object", "amount": 10000, "time": 0.2921200000000003, "action": "append", "interpreter": "CPython"}
{"function": "tuple", "data_type": "integer", "amount": 10000, "time": 0.0018309999999999993, "action": "sort", "interpreter": "CPython"}
{"function": "tuple", "data_type": "object", "amount": 10000, "time": 0.00022799999999999904, "action": "sort", "interpreter": "CPython"}
{"function": "tuple", "data_type": "integer", "amount": 10000, "time": 0.002123, "action": "sort", "interpreter": "CPython"}
{"function": "tuple", "data_type": "object", "amount": 10000, "time": 0.0002920000000000006, "action": "sort", "interpreter": "CPython"}
{"function": "tuple", "data_type": "integer", "amount": 10000, "time": 0.0017670000000000012, "action": "sort", "interpreter": "CPython"}
{"function": "tuple", "data_type": "object", "amount": 10000, "time": 0.00023200000000000304, "action": "sort", "interpreter": "CPython"}
{"function": "tuple", "data_type": "integer", "amount": 10000, "time": 0.0016889999999999995, "action": "sort", "interpreter": "CPython"}
{"function": "tuple", "data_type": "object", "amount": 10000, "time": 0.00022900000000000004, "action": "sort", "interpreter": "CPython"}
{"function": "tuple", "data_type": "integer", "amount": 10000, "time": 0.0020370000000000006, "action": "sort", "interpreter": "CPython"}
{"function": "tuple", "data_type": "object", "amount": 10000, "time": 0.0006859999999999991, "action": "sort", "interpreter": "CPython"}
{"function": "tuple", "data_type": "integer", "amount": 100000, "time": 21.201350999999864, "action": "append", "interpreter": "CPython"}
{"function": "tuple", "data_type": "object", "amount": 100000, "time": 67.82581799999983, "action": "append", "interpreter": "CPython"}
{"function": "tuple", "data_type": "integer", "amount": 100000, "time": 21.695573000000294, "action": "append", "interpreter": "CPython"}
{"function": "tuple", "data_type": "object", "amount": 100000, "time": 69.2144059999995, "action": "append", "interpreter": "CPython"}
{"function": "tuple", "data_type": "integer", "amount": 100000, "time": 21.591444000000063, "action": "append", "interpreter": "CPython"}
{"function": "tuple", "data_type": "object", "amount": 100000, "time": 68.7563580000004, "action": "append", "interpreter": "CPython"}
{"function": "tuple", "data_type": "integer", "amount": 100000, "time": 22.052630999999632, "action": "append", "interpreter": "CPython"}
{"function": "tuple", "data_type": "object", "amount": 100000, "time": 67.3024719999993, "action": "append", "interpreter": "CPython"}
{"function": "tuple", "data_type": "integer", "amount": 100000, "time": 21.796302999999735, "action": "append", "interpreter": "CPython"}
{"function": "tuple", "data_type": "object", "amount": 100000, "time": 68.69996799999991, "action": "append", "interpreter": "CPython"}
{"function": "tuple", "data_type": "integer", "amount": 100000, "time": 0.023502000000000002, "action": "sort", "interpreter": "CPython"}
{"function": "tuple", "data_type": "object", "amount": 100000, "time": 0.003393000000000007, "action": "sort", "interpreter": "CPython"}
{"function": "tuple", "data_type": "integer", "amount": 100000, "time": 0.023535, "action": "sort", "interpreter": "CPython"}
{"function": "tuple", "data_type": "object", "amount": 100000, "time": 0.0034299999999999886, "action": "sort", "interpreter": "CPython"}
{"function": "tuple", "data_type": "integer", "amount": 100000, "time": 0.023444, "action": "sort", "interpreter": "CPython"}
{"function": "tuple", "data_type": "object", "amount": 100000, "time": 0.003373000000000001, "action": "sort", "interpreter": "CPython"}
{"function": "tuple", "data_type": "integer", "amount": 100000, "time": 0.023447000000000003, "action": "sort", "interpreter": "CPython"}
{"function": "tuple", "data_type": "object", "amount": 100000, "time": 0.0034370000000000095, "action": "sort", "interpreter": "CPython"}
{"function": "tuple", "data_type": "integer", "amount": 100000, "time": 0.023378999999999997, "action": "sort", "interpreter": "CPython"}
{"function": "tuple", "data_type": "object", "amount": 100000, "time": 0.0033520000000000078, "action": "sort", "interpreter": "CPython"}
{"function": "tuple", "data_type": "integer", "amount": 1000000, "time": 900, "action": "append", "interpreter": "CPython"}
{"function": "tuple", "data_type": "object", "amount": 1000000, "time": 900, "action": "append", "interpreter": "CPython"}
{"function": "tuple", "data_type": "integer", "amount": 1000000, "time": 900, "action": "append", "interpreter": "CPython"}
{"function": "tuple", "data_type": "object", "amount": 1000000, "time": 900, "action": "append", "interpreter": "CPython"}
{"function": "tuple", "data_type": "integer", "amount": 1000000, "time": 900, "action": "append", "interpreter": "CPython"}
{"function": "tuple", "data_type": "object", "amount": 1000000, "time": 900, "action": "append", "interpreter": "CPython"}
{"function": "tuple", "data_type": "integer", "amount": 1000000, "time": 900, "action": "append", "interpreter": "CPython"}
{"function": "tuple", "data_type": "object", "amount": 1000000, "time": 900, "action": "append", "interpreter": "CPython"}
{"function": "tuple", "data_type": "integer", "amount": 1000000, "time": 900, "action": "append", "interpreter": "CPython"}
{"function": "tuple", "data_type": "object", "amount": 1000000, "time": 900, "action": "append", "interpreter": "CPython"}
{"function": "tuple", "data_type": "integer", "amount": 1000000, "time": 0.40804999999999997, "action": "sort", "interpreter": "CPython"}
{"function": "tuple", "data_type": "object", "amount": 1000000, "time": 0.04238199999999992, "action": "sort", "interpreter": "CPython"}
{"function": "tuple", "data_type": "integer", "amount": 1000000, "time": 0.412934, "action": "sort", "interpreter": "CPython"}
{"function": "tuple", "data_type": "object", "amount": 1000000, "time": 0.04250200000000004, "action": "sort", "interpreter": "CPython"}
{"function": "tuple", "data_type": "integer", "amount": 1000000, "time": 0.3996, "action": "sort", "interpreter": "CPython"}
{"function": "tuple", "data_type": "object", "amount": 1000000, "time": 0.042213000000000056, "action": "sort", "interpreter": "CPython"}
{"function": "tuple", "data_type": "integer", "amount": 1000000, "time": 0.402995, "action": "sort", "interpreter": "CPython"}
{"function": "tuple", "data_type": "object", "amount": 1000000, "time": 0.042027999999999954, "action": "sort", "interpreter": "CPython"}
{"function": "tuple", "data_type": "integer", "amount": 1000000, "time": 0.400954, "action": "sort", "interpreter": "CPython"}
{"function": "tuple", "data_type": "object", "amount": 1000000, "time": 0.04180099999999998, "action": "sort", "interpreter": "CPython"}
{"function": "tuple", "data_type": "integer", "amount": 5000000, "time": 3.2018010000000006, "action": "sort", "interpreter": "CPython"}
{"function": "tuple", "data_type": "object", "amount": 5000000, "time": 0.2429590000000008, "action": "sort", "interpreter": "CPython"}
{"function": "tuple", "data_type": "integer", "amount": 5000000, "time": 3.196667, "action": "sort", "interpreter": "CPython"}
{"function": "tuple", "data_type": "object", "amount": 5000000, "time": 0.24497800000000058, "action": "sort", "interpreter": "CPython"}
{"function": "tuple", "data_type": "integer", "amount": 5000000, "time": 3.188383, "action": "sort", "interpreter": "CPython"}
{"function": "tuple", "data_type": "object", "amount": 5000000, "time": 0.24483500000000014, "action": "sort", "interpreter": "CPython"}
{"function": "tuple", "data_type": "integer", "amount": 5000000, "time": 3.1999589999999998, "action": "sort", "interpreter": "CPython"}
{"function": "tuple", "data_type": "object", "amount": 5000000, "time": 0.24297400000000025, "action": "sort", "interpreter": "CPython"}
{"function": "tuple", "data_type": "integer", "amount": 5000000, "time": 3.203279, "action": "sort", "interpreter": "CPython"}
{"function": "tuple", "data_type": "object", "amount": 5000000, "time": 0.24364899999999956, "action": "sort", "interpreter": "CPython"}
{"function": "tuple", "data_type": "integer", "amount": 100, "time": 4.799999999999596e-05, "action": "append", "interpreter": "Cython"}
{"function": "tuple", "data_type": "object", "amount": 100, "time": 5.099999999999896e-05, "action": "append", "interpreter": "Cython"}
{"function": "tuple", "data_type": "integer", "amount": 100, "time": 4.800000000000637e-05, "action": "append", "interpreter": "Cython"}
{"function": "tuple", "data_type": "object", "amount": 100, "time": 5.4999999999996024e-05, "action": "append", "interpreter": "Cython"}
{"function": "tuple", "data_type": "integer", "amount": 100, "time": 4.800000000000984e-05, "action": "append", "interpreter": "Cython"}
{"function": "tuple", "data_type": "object", "amount": 100, "time": 8.400000000001462e-05, "action": "append", "interpreter": "Cython"}
{"function": "tuple", "data_type": "integer", "amount": 100, "time": 4.499999999999643e-05, "action": "append", "interpreter": "Cython"}
{"function": "tuple", "data_type": "object", "amount": 100, "time": 4.6999999999974146e-05, "action": "append", "interpreter": "Cython"}
{"function": "tuple", "data_type": "integer", "amount": 100, "time": 5.0999999999992024e-05, "action": "append", "interpreter": "Cython"}
{"function": "tuple", "data_type": "object", "amount": 100, "time": 4.8999999999983085e-05, "action": "append", "interpreter": "Cython"}
{"function": "tuple", "data_type": "integer", "amount": 100, "time": 1.2000000000001593e-05, "action": "sort", "interpreter": "Cython"}
{"function": "tuple", "data_type": "object", "amount": 100, "time": 5.000000000001531e-06, "action": "sort", "interpreter": "Cython"}
{"function": "tuple", "data_type": "integer", "amount": 100, "time": 1.0999999999997123e-05, "action": "sort", "interpreter": "Cython"}
{"function": "tuple", "data_type": "object", "amount": 100, "time": 5.999999999999062e-06, "action": "sort", "interpreter": "Cython"}
{"function": "tuple", "data_type": "integer", "amount": 100, "time": 1.5999999999998654e-05, "action": "sort", "interpreter": "Cython"}
{"function": "tuple", "data_type": "object", "amount": 100, "time": 7.000000000000062e-06, "action": "sort", "interpreter": "Cython"}
{"function": "tuple", "data_type": "integer", "amount": 100, "time": 1.1000000000000593e-05, "action": "sort", "interpreter": "Cython"}
{"function": "tuple", "data_type": "object", "amount": 100, "time": 5.000000000001531e-06, "action": "sort", "interpreter": "Cython"}
{"function": "tuple", "data_type": "integer", "amount": 100, "time": 1.1000000000000593e-05, "action": "sort", "interpreter": "Cython"}
{"function": "tuple", "data_type": "object", "amount": 100, "time": 5.000000000001531e-06, "action": "sort", "interpreter": "Cython"}
{"function": "tuple", "data_type": "integer", "amount": 1000, "time": 0.0016089999999999993, "action": "append", "interpreter": "Cython"}
{"function": "tuple", "data_type": "object", "amount": 1000, "time": 0.002135000000000045, "action": "append", "interpreter": "Cython"}
{"function": "tuple", "data_type": "integer", "amount": 1000, "time": 0.0013390000000000207, "action": "append", "interpreter": "Cython"}
{"function": "tuple", "data_type": "object", "amount": 1000, "time": 0.0020270000000000565, "action": "append", "interpreter": "Cython"}
{"function": "tuple", "data_type": "integer", "amount": 1000, "time": 0.001547999999999947, "action": "append", "interpreter": "Cython"}
{"function": "tuple", "data_type": "object", "amount": 1000, "time": 0.001999000000000013, "action": "append", "interpreter": "Cython"}
{"function": "tuple", "data_type": "integer", "amount": 1000, "time": 0.001346999999999987, "action": "append", "interpreter": "Cython"}
{"function": "tuple", "data_type": "object", "amount": 1000, "time": 0.001959999999999889, "action": "append", "interpreter": "Cython"}
{"function": "tuple", "data_type": "integer", "amount": 1000, "time": 0.0013939999999999751, "action": "append", "interpreter": "Cython"}
{"function": "tuple", "data_type": "object", "amount": 1000, "time": 0.001993000000000047, "action": "append", "interpreter": "Cython"}
{"function": "tuple", "data_type": "integer", "amount": 1000, "time": 0.00013099999999999917, "action": "sort", "interpreter": "Cython"}
{"function": "tuple", "data_type": "object", "amount": 1000, "time": 4.70000000000019e-05, "action": "sort", "interpreter": "Cython"}
{"function": "tuple", "data_type": "integer", "amount": 1000, "time": 0.00013200000000000017, "action": "sort", "interpreter": "Cython"}
{"function": "tuple", "data_type": "object", "amount": 1000, "time": 2.5999999999998247e-05, "action": "sort", "interpreter": "Cython"}
{"function": "tuple", "data_type": "integer", "amount": 1000, "time": 0.0001360000000000007, "action": "sort", "interpreter": "Cython"}
{"function": "tuple", "data_type": "object", "amount": 1000, "time": 2.5999999999998247e-05, "action": "sort", "interpreter": "Cython"}
{"function": "tuple", "data_type": "integer", "amount": 1000, "time": 0.00013300000000000117, "action": "sort", "interpreter": "Cython"}
{"function": "tuple", "data_type": "object", "amount": 1000, "time": 2.8000000000000247e-05, "action": "sort", "interpreter": "Cython"}
{"function": "tuple", "data_type": "integer", "amount": 1000, "time": 0.00013200000000000017, "action": "sort", "interpreter": "Cython"}
{"function": "tuple", "data_type": "object", "amount": 1000, "time": 2.6999999999999247e-05, "action": "sort", "interpreter": "Cython"}
{"function": "tuple", "data_type": "integer", "amount": 10000, "time": 0.15834899999999996, "action": "append", "interpreter": "Cython"}
{"function": "tuple", "data_type": "object", "amount": 10000, "time": 0.2896499999999999, "action": "append", "interpreter": "Cython"}
{"function": "tuple", "data_type": "integer", "amount": 10000, "time": 0.159568, "action": "append", "interpreter": "Cython"}
{"function": "tuple", "data_type": "object", "amount": 10000, "time": 0.2915100000000005, "action": "append", "interpreter": "Cython"}
{"function": "tuple", "data_type": "integer", "amount": 10000, "time": 0.16017900000000035, "action": "append", "interpreter": "Cython"}
{"function": "tuple", "data_type": "object", "amount": 10000, "time": 0.2964380000000005, "action": "append", "interpreter": "Cython"}
{"function": "tuple", "data_type": "integer", "amount": 10000, "time": 0.1565280000000003, "action": "append", "interpreter": "Cython"}
{"function": "tuple", "data_type": "object", "amount": 10000, "time": 0.29230399999999995, "action": "append", "interpreter": "Cython"}
{"function": "tuple", "data_type": "integer", "amount": 10000, "time": 0.15539000000000008, "action": "append", "interpreter": "Cython"}
{"function": "tuple", "data_type": "object", "amount": 10000, "time": 0.29619500000000076, "action": "append", "interpreter": "Cython"}
{"function": "tuple", "data_type": "integer", "amount": 10000, "time": 0.0021599999999999987, "action": "sort", "interpreter": "Cython"}
{"function": "tuple", "data_type": "object", "amount": 10000, "time": 0.00022999999999999757, "action": "sort", "interpreter": "Cython"}
{"function": "tuple", "data_type": "integer", "amount": 10000, "time": 0.0017099999999999997, "action": "sort", "interpreter": "Cython"}
{"function": "tuple", "data_type": "object", "amount": 10000, "time": 0.0002380000000000021, "action": "sort", "interpreter": "Cython"}
{"function": "tuple", "data_type": "integer", "amount": 10000, "time": 0.002229000000000002, "action": "sort", "interpreter": "Cython"}
{"function": "tuple", "data_type": "object", "amount": 10000, "time": 0.0006300000000000021, "action": "sort", "interpreter": "Cython"}
{"function": "tuple", "data_type": "integer", "amount": 10000, "time": 0.0020939999999999986, "action": "sort", "interpreter": "Cython"}
{"function": "tuple", "data_type": "object", "amount": 10000, "time": 0.0004850000000000028, "action": "sort", "interpreter": "Cython"}
{"function": "tuple", "data_type": "integer", "amount": 10000, "time": 0.0017500000000000016, "action": "sort", "interpreter": "Cython"}
{"function": "tuple", "data_type": "object", "amount": 10000, "time": 0.00022999999999999757, "action": "sort", "interpreter": "Cython"}
{"function": "tuple", "data_type": "integer", "amount": 100000, "time": 21.48728499999999, "action": "append", "interpreter": "Cython"}
{"function": "tuple", "data_type": "object", "amount": 100000, "time": 67.23344600000058, "action": "append", "interpreter": "Cython"}
{"function": "tuple", "data_type": "integer", "amount": 100000, "time": 21.920851999999982, "action": "append", "interpreter": "Cython"}
{"function": "tuple", "data_type": "object", "amount": 100000, "time": 67.61035599999957, "action": "append", "interpreter": "Cython"}
{"function": "tuple", "data_type": "integer", "amount": 100000, "time": 21.661297000000207, "action": "append", "interpreter": "Cython"}
{"function": "tuple", "data_type": "object", "amount": 100000, "time": 67.82902100000017, "action": "append", "interpreter": "Cython"}
{"function": "tuple", "data_type": "integer", "amount": 100000, "time": 21.774435000000082, "action": "append", "interpreter": "Cython"}
{"function": "tuple", "data_type": "object", "amount": 100000, "time": 67.32286400000018, "action": "append", "interpreter": "Cython"}
{"function": "tuple", "data_type": "integer", "amount": 100000, "time": 22.0420000000002, "action": "append", "interpreter": "Cython"}
{"function": "tuple", "data_type": "object", "amount": 100000, "time": 68.943158, "action": "append", "interpreter": "Cython"}
{"function": "tuple", "data_type": "integer", "amount": 100000, "time": 0.023489999999999997, "action": "sort", "interpreter": "Cython"}
{"function": "tuple", "data_type": "object", "amount": 100000, "time": 0.003387000000000001, "action": "sort", "interpreter": "Cython"}
{"function": "tuple", "data_type": "integer", "amount": 100000, "time": 0.023458, "action": "sort", "interpreter": "Cython"}
{"function": "tuple", "data_type": "object", "amount": 100000, "time": 0.0033929999999999932, "action": "sort", "interpreter": "Cython"}
{"function": "tuple", "data_type": "integer", "amount": 100000, "time": 0.023519000000000005, "action": "sort", "interpreter": "Cython"}
{"function": "tuple", "data_type": "object", "amount": 100000, "time": 0.003363999999999992, "action": "sort", "interpreter": "Cython"}
{"function": "tuple", "data_type": "integer", "amount": 100000, "time": 0.023500999999999994, "action": "sort", "interpreter": "Cython"}
{"function": "tuple", "data_type": "object", "amount": 100000, "time": 0.003373000000000001, "action": "sort", "interpreter": "Cython"}
{"function": "tuple", "data_type": "integer", "amount": 100000, "time": 0.023493999999999994, "action": "sort", "interpreter": "Cython"}
{"function": "tuple", "data_type": "object", "amount": 100000, "time": 0.003370999999999999, "action": "sort", "interpreter": "Cython"}
{"function": "tuple", "data_type": "integer", "amount": 1000000, "time": 900, "action": "append", "interpreter": "Cython"}
{"function": "tuple", "data_type": "object", "amount": 1000000, "time": 900, "action": "append", "interpreter": "Cython"}
{"function": "tuple", "data_type": "integer", "amount": 1000000, "time": 900, "action": "append", "interpreter": "Cython"}
{"function": "tuple", "data_type": "object", "amount": 1000000, "time": 900, "action": "append", "interpreter": "Cython"}
{"function": "tuple", "data_type": "integer", "amount": 1000000, "time": 900, "action": "append", "interpreter": "Cython"}
{"function": "tuple", "data_type": "object", "amount": 1000000, "time": 900, "action": "append", "interpreter": "Cython"}
{"function": "tuple", "data_type": "integer", "amount": 1000000, "time": 900, "action": "append", "interpreter": "Cython"}
{"function": "tuple", "data_type": "object", "amount": 1000000, "time": 900, "action": "append", "interpreter": "Cython"}
{"function": "tuple", "data_type": "integer", "amount": 1000000, "time": 900, "action": "append", "interpreter": "Cython"}
{"function": "tuple", "data_type": "object", "amount": 1000000, "time": 900, "action": "append", "interpreter": "Cython"}
{"function": "tuple", "data_type": "integer", "amount": 1000000, "time": 0.411451, "action": "sort", "interpreter": "Cython"}
{"function": "tuple", "data_type": "object", "amount": 1000000, "time": 0.04183400000000015, "action": "sort", "interpreter": "Cython"}
{"function": "tuple", "data_type": "integer", "amount": 1000000, "time": 0.403158, "action": "sort", "interpreter": "Cython"}
{"function": "tuple", "data_type": "object", "amount": 1000000, "time": 0.04224399999999995, "action": "sort", "interpreter": "Cython"}
{"function": "tuple", "data_type": "integer", "amount": 1000000, "time": 0.405017, "action": "sort", "interpreter": "Cython"}
{"function": "tuple", "data_type": "object", "amount": 1000000, "time": 0.041949000000000014, "action": "sort", "interpreter": "Cython"}
{"function": "tuple", "data_type": "integer", "amount": 1000000, "time": 0.402555, "action": "sort", "interpreter": "Cython"}
{"function": "tuple", "data_type": "object", "amount": 1000000, "time": 0.041920999999999875, "action": "sort", "interpreter": "Cython"}
{"function": "tuple", "data_type": "integer", "amount": 1000000, "time": 0.411548, "action": "sort", "interpreter": "Cython"}
{"function": "tuple", "data_type": "object", "amount": 1000000, "time": 0.04215600000000008, "action": "sort", "interpreter": "Cython"}
{"function": "tuple", "data_type": "integer", "amount": 5000000, "time": 3.2020279999999994, "action": "sort", "interpreter": "Cython"}
{"function": "tuple", "data_type": "object", "amount": 5000000, "time": 0.2440459999999991, "action": "sort", "interpreter": "Cython"}
{"function": "tuple", "data_type": "integer", "amount": 5000000, "time": 3.190894, "action": "sort", "interpreter": "Cython"}
{"function": "tuple", "data_type": "object", "amount": 5000000, "time": 0.24371899999999957, "action": "sort", "interpreter": "Cython"}
{"function": "tuple", "data_type": "integer", "amount": 5000000, "time": 3.190671, "action": "sort", "interpreter": "Cython"}
{"function": "tuple", "data_type": "object", "amount": 5000000, "time": 0.24388700000000085, "action": "sort", "interpreter": "Cython"}
{"function": "tuple", "data_type": "integer", "amount": 5000000, "time": 3.2001150000000003, "action": "sort", "interpreter": "Cython"}
{"function": "tuple", "data_type": "object", "amount": 5000000, "time": 0.2435109999999998, "action": "sort", "interpreter": "Cython"}
{"function": "tuple", "data_type": "integer", "amount": 5000000, "time": 3.2790510000000004, "action": "sort", "interpreter": "Cython"}
{"function": "tuple", "data_type": "object", "amount": 5000000, "time": 0.24514799999999948, "action": "sort", "interpreter": "Cython"}
{"amount": 100, "interpreter": "Jython", "function": "tuple", "data_type": "integer", "action": "append", "time": 0.0005121020000000004}
{"amount": 100, "interpreter": "Jython", "function": "tuple", "data_type": "object", "action": "append", "time": 0.0005318339999999984}
{"amount": 100, "interpreter": "Jython", "function": "tuple", "data_type": "integer", "action": "append", "time": 0.00031247699999999954}
{"amount": 100, "interpreter": "Jython", "function": "tuple", "data_type": "object", "action": "append", "time": 0.0005159969999999985}
{"amount": 100, "interpreter": "Jython", "function": "tuple", "data_type": "integer", "action": "append", "time": 0.0004861949999999985}
{"amount": 100, "interpreter": "Jython", "function": "tuple", "data_type": "object", "action": "append", "time": 0.0005014530000000004}
{"amount": 100, "interpreter": "Jython", "function": "tuple", "data_type": "integer", "action": "append", "time": 0.0005006589999999988}
{"amount": 100, "interpreter": "Jython", "function": "tuple", "data_type": "object", "action": "append", "time": 0.0005015439999999983}
{"amount": 100, "interpreter": "Jython", "function": "tuple", "data_type": "integer", "action": "append", "time": 0.0005454579999999986}
{"amount": 100, "interpreter": "Jython", "function": "tuple", "data_type": "object", "action": "append", "time": 0.0005469310000000009}
{"amount": 100, "interpreter": "Jython", "function": "tuple", "data_type": "integer", "action": "sort", "time": 0.000507868}
{"amount": 100, "interpreter": "Jython", "function": "tuple", "data_type": "object", "action": "sort", "time": 0.002271317}
{"amount": 100, "interpreter": "Jython", "function": "tuple", "data_type": "integer", "action": "sort", "time": 0.000318882}
{"amount": 100, "interpreter": "Jython", "function": "tuple", "data_type": "object", "action": "sort", "time": 0.003403881}
{"amount": 100, "interpreter": "Jython", "function": "tuple", "data_type": "integer", "action": "sort", "time": 0.000451475}
{"amount": 100, "interpreter": "Jython", "function": "tuple", "data_type": "object", "action": "sort", "time": 0.003137144}
{"amount": 100, "interpreter": "Jython", "function": "tuple", "data_type": "integer", "action": "sort", "time": 0.000471395}
{"amount": 100, "interpreter": "Jython", "function": "tuple", "data_type": "object", "action": "sort", "time": 0.002404764}
{"amount": 100, "interpreter": "Jython", "function": "tuple", "data_type": "integer", "action": "sort", "time": 0.000569702}
{"amount": 100, "interpreter": "Jython", "function": "tuple", "data_type": "object", "action": "sort", "time": 0.002457132}
{"amount": 1000, "interpreter": "Jython", "function": "tuple", "data_type": "integer", "action": "append", "time": 0.003976460999999997}
{"amount": 1000, "interpreter": "Jython", "function": "tuple", "data_type": "object", "action": "append", "time": 0.0028749269999999998}
{"amount": 1000, "interpreter": "Jython", "function": "tuple", "data_type": "integer", "action": "append", "time": 0.0041755600000000035}
{"amount": 1000, "interpreter": "Jython", "function": "tuple", "data_type": "object", "action": "append", "time": 0.004478233999999991}
{"amount": 1000, "interpreter": "Jython", "function": "tuple", "data_type": "integer", "action": "append", "time": 0.004544376000000004}
{"amount": 1000, "interpreter": "Jython", "function": "tuple", "data_type": "object", "action": "append", "time": 0.004381049999999983}
{"amount": 1000, "interpreter": "Jython", "function": "tuple", "data_type": "integer", "action": "append", "time": 0.004054072000000009}
{"amount": 1000, "interpreter": "Jython", "function": "tuple", "data_type": "object", "action": "append", "time": 0.004816188000000071}
{"amount": 1000, "interpreter": "Jython", "function": "tuple", "data_type": "integer", "action": "append", "time": 0.004320268000000018}
{"amount": 1000, "interpreter": "Jython", "function": "tuple", "data_type": "object", "action": "append", "time": 0.0043083990000000565}
{"amount": 1000, "interpreter": "Jython", "function": "tuple", "data_type": "integer", "action": "sort", "time": 0.006333573}
{"amount": 1000, "interpreter": "Jython", "function": "tuple", "data_type": "object", "action": "sort", "time": 0.020571024}
{"amount": 1000, "interpreter": "Jython", "function": "tuple", "data_type": "integer", "action": "sort", "time": 0.006013293}
{"amount": 1000, "interpreter": "Jython", "function": "tuple", "data_type": "object", "action": "sort", "time": 0.014659493}
{"amount": 1000, "interpreter": "Jython", "function": "tuple", "data_type": "integer", "action": "sort", "time": 0.005985482}
{"amount": 1000, "interpreter": "Jython", "function": "tuple", "data_type": "object", "action": "sort", "time": 0.01799701}
{"amount": 1000, "interpreter": "Jython", "function": "tuple", "data_type": "integer", "action": "sort", "time": 0.004724763}
{"amount": 1000, "interpreter": "Jython", "function": "tuple", "data_type": "object", "action": "sort", "time": 0.023156458}
{"amount": 1000, "interpreter": "Jython", "function": "tuple", "data_type": "integer", "action": "sort", "time": 0.006384395}
{"amount": 1000, "interpreter": "Jython", "function": "tuple", "data_type": "object", "action": "sort", "time": 0.015899221}
{"amount": 10000, "interpreter": "Jython", "function": "tuple", "data_type": "integer", "action": "append", "time": 0.07423929100000058}
{"amount": 10000, "interpreter": "Jython", "function": "tuple", "data_type": "object", "action": "append", "time": 0.07026460100000066}
{"amount": 10000, "interpreter": "Jython", "function": "tuple", "data_type": "integer", "action": "append", "time": 0.06535282000000014}
{"amount": 10000, "interpreter": "Jython", "function": "tuple", "data_type": "object", "action": "append", "time": 0.08189287300000031}
{"amount": 10000, "interpreter": "Jython", "function": "tuple", "data_type": "integer", "action": "append", "time": 0.07774193799999939}
{"amount": 10000, "interpreter": "Jython", "function": "tuple", "data_type": "object", "action": "append", "time": 0.06960071700000081}
{"amount": 10000, "interpreter": "Jython", "function": "tuple", "data_type": "integer", "action": "append", "time": 0.07433812199999845}
{"amount": 10000, "interpreter": "Jython", "function": "tuple", "data_type": "object", "action": "append", "time": 0.0775649110000001}
{"amount": 10000, "interpreter": "Jython", "function": "tuple", "data_type": "integer", "action": "append", "time": 0.07651975499999944}
{"amount": 10000, "interpreter": "Jython", "function": "tuple", "data_type": "object", "action": "append", "time": 0.0867832310000006}
{"amount": 10000, "interpreter": "Jython", "function": "tuple", "data_type": "integer", "action": "sort", "time": 0.035734534}
{"amount": 10000, "interpreter": "Jython", "function": "tuple", "data_type": "object", "action": "sort", "time": 0.06091041}
{"amount": 10000, "interpreter": "Jython", "function": "tuple", "data_type": "integer", "action": "sort", "time": 0.025091291}
{"amount": 10000, "interpreter": "Jython", "function": "tuple", "data_type": "object", "action": "sort", "time": 0.041025957}
{"amount": 10000, "interpreter": "Jython", "function": "tuple", "data_type": "integer", "action": "sort", "time": 0.026560967}
{"amount": 10000, "interpreter": "Jython", "function": "tuple", "data_type": "object", "action": "sort", "time": 0.06579186}
{"amount": 10000, "interpreter": "Jython", "function": "tuple", "data_type": "integer", "action": "sort", "time": 0.026928035}
{"amount": 10000, "interpreter": "Jython", "function": "tuple", "data_type": "object", "action": "sort", "time": 0.105201139}
{"amount": 10000, "interpreter": "Jython", "function": "tuple", "data_type": "integer", "action": "sort", "time": 0.044767772}
{"amount": 10000, "interpreter": "Jython", "function": "tuple", "data_type": "object", "action": "sort", "time": 0.062864175}
{"amount": 100000, "interpreter": "Jython", "function": "tuple", "data_type": "integer", "action": "append", "time": 3.8542460150000295}
{"amount": 100000, "interpreter": "Jython", "function": "tuple", "data_type": "object", "action": "append", "time": 3.956757138999951}
{"amount": 100000, "interpreter": "Jython", "function": "tuple", "data_type": "integer", "action": "append", "time": 3.8745430639999454}
{"amount": 100000, "interpreter": "Jython", "function": "tuple", "data_type": "object", "action": "append", "time": 3.8594388890000144}
{"amount": 100000, "interpreter": "Jython", "function": "tuple", "data_type": "integer", "action": "append", "time": 3.927801497999984}
{"amount": 100000, "interpreter": "Jython", "function": "tuple", "data_type": "object", "action": "append", "time": 3.8735301619999167}
{"amount": 100000, "interpreter": "Jython", "function": "tuple", "data_type": "integer", "action": "append", "time": 3.8798950190000396}
{"amount": 100000, "interpreter": "Jython", "function": "tuple", "data_type": "object", "action": "append", "time": 3.947019594000005}
{"amount": 100000, "interpreter": "Jython", "function": "tuple", "data_type": "integer", "action": "append", "time": 3.8762870679999613}
{"amount": 100000, "interpreter": "Jython", "function": "tuple", "data_type": "object", "action": "append", "time": 3.928281094000018}
{"amount": 100000, "interpreter": "Jython", "function": "tuple", "data_type": "integer", "action": "sort", "time": 0.100830164}
{"amount": 100000, "interpreter": "Jython", "function": "tuple", "data_type": "object", "action": "sort", "time": 0.197144321}
{"amount": 100000, "interpreter": "Jython", "function": "tuple", "data_type": "integer", "action": "sort", "time": 0.125757351}
{"amount": 100000, "interpreter": "Jython", "function": "tuple", "data_type": "object", "action": "sort", "time": 0.199747611}
{"amount": 100000, "interpreter": "Jython", "function": "tuple", "data_type": "integer", "action": "sort", "time": 0.135327948}
{"amount": 100000, "interpreter": "Jython", "function": "tuple", "data_type": "object", "action": "sort", "time": 0.218771473}
{"amount": 100000, "interpreter": "Jython", "function": "tuple", "data_type": "integer", "action": "sort", "time": 0.14224834}
{"amount": 100000, "interpreter": "Jython", "function": "tuple", "data_type": "object", "action": "sort", "time": 0.238906889}
{"amount": 100000, "interpreter": "Jython", "function": "tuple", "data_type": "integer", "action": "sort", "time": 0.157520245}
{"amount": 100000, "interpreter": "Jython", "function": "tuple", "data_type": "object", "action": "sort", "time": 0.219854399}
{"amount": 1000000, "interpreter": "Jython", "function": "tuple", "data_type": "integer", "action": "append", "time": 658.3047838600147}
{"amount": 1000000, "interpreter": "Jython", "function": "tuple", "data_type": "object", "action": "append", "time": 659.5352675129893}
{"amount": 1000000, "interpreter": "Jython", "function": "tuple", "data_type": "integer", "action": "append", "time": 661.4584796200161}
{"amount": 1000000, "interpreter": "Jython", "function": "tuple", "data_type": "object", "action": "append", "time": 662.1109974840291}
{"amount": 1000000, "interpreter": "Jython", "function": "tuple", "data_type": "integer", "action": "append", "time": 656.1210524350137}
{"amount": 1000000, "interpreter": "Jython", "function": "tuple", "data_type": "object", "action": "append", "time": 660.9295878699866}
{"amount": 1000000, "interpreter": "Jython", "function": "tuple", "data_type": "integer", "action": "append", "time": 656.1446711780007}
{"amount": 1000000, "interpreter": "Jython", "function": "tuple", "data_type": "object", "action": "append", "time": 661.1970027369962}
{"amount": 1000000, "interpreter": "Jython", "function": "tuple", "data_type": "integer", "action": "append", "time": 656.5517781990225}
{"amount": 1000000, "interpreter": "Jython", "function": "tuple", "data_type": "object", "action": "append", "time": 660.6634997420246}
{"amount": 1000000, "interpreter": "Jython", "function": "tuple", "data_type": "integer", "action": "sort", "time": 0.604942169}
{"amount": 1000000, "interpreter": "Jython", "function": "tuple", "data_type": "object", "action": "sort", "time": 1.39133226}
{"amount": 1000000, "interpreter": "Jython", "function": "tuple", "data_type": "integer", "action": "sort", "time": 0.598238786}
{"amount": 1000000, "interpreter": "Jython", "function": "tuple", "data_type": "object", "action": "sort", "time": 1.398680577}
{"amount": 1000000, "interpreter": "Jython", "function": "tuple", "data_type": "integer", "action": "sort", "time": 0.635970293}
{"amount": 1000000, "interpreter": "Jython", "function": "tuple", "data_type": "object", "action": "sort", "time": 1.319611945}
{"amount": 1000000, "interpreter": "Jython", "function": "tuple", "data_type": "integer", "action": "sort", "time": 0.64148193}
{"amount": 1000000, "interpreter": "Jython", "function": "tuple", "data_type": "object", "action": "sort", "time": 1.34536695}
{"amount": 1000000, "interpreter": "Jython", "function": "tuple", "data_type": "integer", "action": "sort", "time": 0.616534853}
{"amount": 1000000, "interpreter": "Jython", "function": "tuple", "data_type": "object", "action": "sort", "time": 1.418950359}
{"amount": 5000000, "interpreter": "Jython", "function": "tuple", "data_type": "integer", "action": "sort", "time": 3.104147064}
{"amount": 5000000, "interpreter": "Jython", "function": "tuple", "data_type": "integer", "action": "sort", "time": 3.132498838}
{"amount": 5000000, "interpreter": "Jython", "function": "tuple", "data_type": "integer", "action": "sort", "time": 4.750322982}
{"amount": 5000000, "interpreter": "Jython", "function": "tuple", "data_type": "integer", "action": "sort", "time": 4.638967445}
{"amount": 5000000, "interpreter": "Jython", "function": "tuple", "data_type": "integer", "action": "sort", "time": 3.14388319}
