{"amount": 100, "interpreter": "Jython", "function": "dict", "data_type": "integer", "action": "insert", "time": 0.0020308729999999994}
{"amount": 100, "interpreter": "Jython", "function": "dict", "data_type": "object", "action": "insert", "time": 0.0014233730000000008}
{"amount": 100, "interpreter": "Jython", "function": "dict", "data_type": "integer", "action": "insert", "time": 0.0017763310000000004}
{"amount": 100, "interpreter": "Jython", "function": "dict", "data_type": "object", "action": "insert", "time": 0.002142849999999999}
{"amount": 100, "interpreter": "Jython", "function": "dict", "data_type": "integer", "action": "insert", "time": 0.002250806999999997}
{"amount": 100, "interpreter": "Jython", "function": "dict", "data_type": "object", "action": "insert", "time": 0.0022024709999999984}
{"amount": 100, "interpreter": "Jython", "function": "dict", "data_type": "integer", "action": "insert", "time": 0.0017061279999999966}
{"amount": 100, "interpreter": "Jython", "function": "dict", "data_type": "object", "action": "insert", "time": 0.002306750000000004}
{"amount": 100, "interpreter": "Jython", "function": "dict", "data_type": "integer", "action": "insert", "time": 0.001996305999999997}
{"amount": 100, "interpreter": "Jython", "function": "dict", "data_type": "object", "action": "insert", "time": 0.002380128000000004}
{"amount": 100, "interpreter": "Jython", "function": "dict", "data_type": "integer", "action": "overwrite", "time": 0.002719180999999995}
{"amount": 100, "interpreter": "Jython", "function": "dict", "data_type": "object", "action": "overwrite", "time": 0.0020626579999999946}
{"amount": 100, "interpreter": "Jython", "function": "dict", "data_type": "integer", "action": "overwrite", "time": 0.002159266000000001}
{"amount": 100, "interpreter": "Jython", "function": "dict", "data_type": "object", "action": "overwrite", "time": 0.0012525659999999986}
{"amount": 100, "interpreter": "Jython", "function": "dict", "data_type": "integer", "action": "overwrite", "time": 0.0022633250000000014}
{"amount": 100, "interpreter": "Jython", "function": "dict", "data_type": "object", "action": "overwrite", "time": 0.002176406999999997}
{"amount": 100, "interpreter": "Jython", "function": "dict", "data_type": "integer", "action": "overwrite", "time": 0.002102598000000004}
{"amount": 100, "interpreter": "Jython", "function": "dict", "data_type": "object", "action": "overwrite", "time": 0.002183243999999998}
{"amount": 100, "interpreter": "Jython", "function": "dict", "data_type": "integer", "action": "overwrite", "time": 0.0013627700000000032}
{"amount": 100, "interpreter": "Jython", "function": "dict", "data_type": "object", "action": "overwrite", "time": 0.002053214999999998}
{"amount": 100, "interpreter": "Jython", "function": "dict", "data_type": "integer", "action": "read", "time": 0.0009774350000000046}
{"amount": 100, "interpreter": "Jython", "function": "dict", "data_type": "object", "action": "read", "time": 0.001481114999999998}
{"amount": 100, "interpreter": "Jython", "function": "dict", "data_type": "integer", "action": "read", "time": 0.0010010940000000153}
{"amount": 100, "interpreter": "Jython", "function": "dict", "data_type": "object", "action": "read", "time": 0.000817326999999999}
{"amount": 100, "interpreter": "Jython", "function": "dict", "data_type": "integer", "action": "read", "time": 0.0014013110000000038}
{"amount": 100, "interpreter": "Jython", "function": "dict", "data_type": "object", "action": "read", "time": 0.0014812210000000078}
{"amount": 100, "interpreter": "Jython", "function": "dict", "data_type": "integer", "action": "read", "time": 0.0014189619999999872}
{"amount": 100, "interpreter": "Jython", "function": "dict", "data_type": "object", "action": "read", "time": 0.0013294309999999968}
{"amount": 100, "interpreter": "Jython", "function": "dict", "data_type": "integer", "action": "read", "time": 0.002210663000000012}
{"amount": 100, "interpreter": "Jython", "function": "dict", "data_type": "object", "action": "read", "time": 0.0009196789999999881}
{"amount": 100, "interpreter": "Jython", "function": "dict", "data_type": "integer", "action": "merge_all_match", "time": 0.000150146}
{"amount": 100, "interpreter": "Jython", "function": "dict", "data_type": "object", "action": "merge_all_match", "time": 0.000115397}
{"amount": 100, "interpreter": "Jython", "function": "dict", "data_type": "integer", "action": "merge_all_match", "time": 0.000169454}
{"amount": 100, "interpreter": "Jython", "function": "dict", "data_type": "object", "action": "merge_all_match", "time": 0.000100386}
{"amount": 100, "interpreter": "Jython", "function": "dict", "data_type": "integer", "action": "merge_all_match", "time": 0.000138503}
{"amount": 100, "interpreter": "Jython", "function": "dict", "data_type": "object", "action": "merge_all_match", "time": 0.000108747}
{"amount": 100, "interpreter": "Jython", "function": "dict", "data_type": "integer", "action": "merge_all_match", "time": 8.086e-05}
{"amount": 100, "interpreter": "Jython", "function": "dict", "data_type": "object", "action": "merge_all_match", "time": 0.000102268}
{"amount": 100, "interpreter": "Jython", "function": "dict", "data_type": "integer", "action": "merge_all_match", "time": 0.000140536}
{"amount": 100, "interpreter": "Jython", "function": "dict", "data_type": "object", "action": "merge_all_match", "time": 0.000104705}
{"amount": 100, "interpreter": "Jython", "function": "dict", "data_type": "integer", "action": "merge_half_match", "time": 0.000150626}
{"amount": 100, "interpreter": "Jython", "function": "dict", "data_type": "object", "action": "merge_half_match", "time": 0.000102699}
{"amount": 100, "interpreter": "Jython", "function": "dict", "data_type": "integer", "action": "merge_half_match", "time": 0.00011344}
{"amount": 100, "interpreter": "Jython", "function": "dict", "data_type": "object", "action": "merge_half_match", "time": 0.000107879}
{"amount": 100, "interpreter": "Jython", "function": "dict", "data_type": "integer", "action": "merge_half_match", "time": 0.000143095}
{"amount": 100, "interpreter": "Jython", "function": "dict", "data_type": "object", "action": "merge_half_match", "time": 0.000125694}
{"amount": 100, "interpreter": "Jython", "function": "dict", "data_type": "integer", "action": "merge_half_match", "time": 0.000133763}
{"amount": 100, "interpreter": "Jython", "function": "dict", "data_type": "object", "action": "merge_half_match", "time": 0.000122852}
{"amount": 100, "interpreter": "Jython", "function": "dict", "data_type": "integer", "action": "merge_half_match", "time": 0.00012468}
{"amount": 100, "interpreter": "Jython", "function": "dict", "data_type": "object", "action": "merge_half_match", "time": 0.000136037}
{"amount": 100, "interpreter": "Jython", "function": "dict", "data_type": "integer", "action": "merge_none_match", "time": 0.000118627}
{"amount": 100, "interpreter": "Jython", "function": "dict", "data_type": "object", "action": "merge_none_match", "time": 8.7219e-05}
{"amount": 100, "interpreter": "Jython", "function": "dict", "data_type": "integer", "action": "merge_none_match", "time": 6.457e-05}
{"amount": 100, "interpreter": "Jython", "function": "dict", "data_type": "object", "action": "merge_none_match", "time": 9.6537e-05}
{"amount": 100, "interpreter": "Jython", "function": "dict", "data_type": "integer", "action": "merge_none_match", "time": 9.8419e-05}
{"amount": 100, "interpreter": "Jython", "function": "dict", "data_type": "object", "action": "merge_none_match", "time": 0.000110455}
{"amount": 100, "interpreter": "Jython", "function": "dict", "data_type": "integer", "action": "merge_none_match", "time": 0.000117274}
{"amount": 100, "interpreter": "Jython", "function": "dict", "data_type": "object", "action": "merge_none_match", "time": 0.000133665}
{"amount": 100, "interpreter": "Jython", "function": "dict", "data_type": "integer", "action": "merge_none_match", "time": 8.3564e-05}
{"amount": 100, "interpreter": "Jython", "function": "dict", "data_type": "object", "action": "merge_none_match", "time": 7.2454e-05}
{"amount": 100, "interpreter": "Jython", "function": "list", "data_type": "integer", "action": "list_comprehension", "time": 0.000143664}
{"amount": 100, "interpreter": "Jython", "function": "list", "data_type": "object", "action": "list_comprehension", "time": 0.000604773}
{"amount": 100, "interpreter": "Jython", "function": "list", "data_type": "integer", "action": "list_comprehension", "time": 0.000232328}
{"amount": 100, "interpreter": "Jython", "function": "list", "data_type": "object", "action": "list_comprehension", "time": 0.000893918}
{"amount": 100, "interpreter": "Jython", "function": "list", "data_type": "integer", "action": "list_comprehension", "time": 0.000155053}
{"amount": 100, "interpreter": "Jython", "function": "list", "data_type": "object", "action": "list_comprehension", "time": 0.001081802}
{"amount": 100, "interpreter": "Jython", "function": "list", "data_type": "integer", "action": "list_comprehension", "time": 0.000225126}
{"amount": 100, "interpreter": "Jython", "function": "list", "data_type": "object", "action": "list_comprehension", "time": 0.000992462}
{"amount": 100, "interpreter": "Jython", "function": "list", "data_type": "integer", "action": "list_comprehension", "time": 0.000250598}
{"amount": 100, "interpreter": "Jython", "function": "list", "data_type": "object", "action": "list_comprehension", "time": 0.000723245}
{"amount": 100, "interpreter": "Jython", "function": "list", "data_type": "integer", "action": "append", "time": 0.002047130999999999}
{"amount": 100, "interpreter": "Jython", "function": "list", "data_type": "object", "action": "append", "time": 0.0033103490000000024}
{"amount": 100, "interpreter": "Jython", "function": "list", "data_type": "integer", "action": "append", "time": 0.002505116000000001}
{"amount": 100, "interpreter": "Jython", "function": "list", "data_type": "object", "action": "append", "time": 0.0024175280000000017}
{"amount": 100, "interpreter": "Jython", "function": "list", "data_type": "integer", "action": "append", "time": 0.002320283000000002}
{"amount": 100, "interpreter": "Jython", "function": "list", "data_type": "object", "action": "append", "time": 0.0017315359999999997}
{"amount": 100, "interpreter": "Jython", "function": "list", "data_type": "integer", "action": "append", "time": 0.0019804160000000005}
{"amount": 100, "interpreter": "Jython", "function": "list", "data_type": "object", "action": "append", "time": 0.0018771209999999998}
{"amount": 100, "interpreter": "Jython", "function": "list", "data_type": "integer", "action": "append", "time": 0.0020582939999999952}
{"amount": 100, "interpreter": "Jython", "function": "list", "data_type": "object", "action": "append", "time": 0.002236305999999998}
{"amount": 100, "interpreter": "Jython", "function": "list", "data_type": "integer", "action": "sort", "time": 0.000755746}
{"amount": 100, "interpreter": "Jython", "function": "list", "data_type": "object", "action": "sort", "time": 0.003134268}
{"amount": 100, "interpreter": "Jython", "function": "list", "data_type": "integer", "action": "sort", "time": 0.00087635}
{"amount": 100, "interpreter": "Jython", "function": "list", "data_type": "object", "action": "sort", "time": 0.001903814}
{"amount": 100, "interpreter": "Jython", "function": "list", "data_type": "integer", "action": "sort", "time": 0.001175852}
{"amount": 100, "interpreter": "Jython", "function": "list", "data_type": "object", "action": "sort", "time": 0.00203467}
{"amount": 100, "interpreter": "Jython", "function": "list", "data_type": "integer", "action": "sort", "time": 0.000771506}
{"amount": 100, "interpreter": "Jython", "function": "list", "data_type": "object", "action": "sort", "time": 0.002079538}
{"amount": 100, "interpreter": "Jython", "function": "list", "data_type": "integer", "action": "sort", "time": 0.000973736}
{"amount": 100, "interpreter": "Jython", "function": "list", "data_type": "object", "action": "sort", "time": 0.002047089}
{"amount": 100, "interpreter": "Jython", "function": "generator", "data_type": "integer", "action": "generate", "time": 0.0009278689999999902}
{"amount": 100, "interpreter": "Jython", "function": "generator", "data_type": "object", "action": "generate", "time": 0.0012756569999999865}
{"amount": 100, "interpreter": "Jython", "function": "generator", "data_type": "integer", "action": "generate", "time": 0.0007126829999999974}
{"amount": 100, "interpreter": "Jython", "function": "generator", "data_type": "object", "action": "generate", "time": 0.001168177999999992}
{"amount": 100, "interpreter": "Jython", "function": "generator", "data_type": "integer", "action": "generate", "time": 0.000719481999999997}
{"amount": 100, "interpreter": "Jython", "function": "generator", "data_type": "object", "action": "generate", "time": 0.0012552780000000565}
{"amount": 100, "interpreter": "Jython", "function": "generator", "data_type": "integer", "action": "generate", "time": 0.0025310449999999957}
{"amount": 100, "interpreter": "Jython", "function": "generator", "data_type": "object", "action": "generate", "time": 0.0014908770000000087}
{"amount": 100, "interpreter": "Jython", "function": "generator", "data_type": "integer", "action": "generate", "time": 0.0007795080000000034}
{"amount": 100, "interpreter": "Jython", "function": "generator", "data_type": "object", "action": "generate", "time": 0.00102445300000001}
{"amount": 100, "interpreter": "Jython", "function": "objects", "data_type": "object", "action": "generate", "time": 0.0016861649999999973}
{"amount": 100, "interpreter": "Jython", "function": "objects", "data_type": "object", "action": "generate", "time": 0.001594309}
{"amount": 100, "interpreter": "Jython", "function": "objects", "data_type": "object", "action": "generate", "time": 0.0018193109999999975}
{"amount": 100, "interpreter": "Jython", "function": "objects", "data_type": "object", "action": "generate", "time": 0.0016712099999999976}
{"amount": 100, "interpreter": "Jython", "function": "objects", "data_type": "object", "action": "generate", "time": 0.0017224529999999958}
{"amount": 100, "interpreter": "Jython", "function": "objects", "data_type": "object", "action": "add", "time": 0.002440041000000003}
{"amount": 100, "interpreter": "Jython", "function": "objects", "data_type": "object", "action": "add", "time": 0.0030417779999999993}
{"amount": 100, "interpreter": "Jython", "function": "objects", "data_type": "object", "action": "add", "time": 0.003027530000000004}
{"amount": 100, "interpreter": "Jython", "function": "objects", "data_type": "object", "action": "add", "time": 0.001787345000000001}
{"amount": 100, "interpreter": "Jython", "function": "objects", "data_type": "object", "action": "add", "time": 0.0041971970000000015}
{"amount": 100, "interpreter": "Jython", "function": "tuple", "data_type": "integer", "action": "append", "time": 0.0002848209999999992}
{"amount": 100, "interpreter": "Jython", "function": "tuple", "data_type": "object", "action": "append", "time": 0.0004780050000000017}
{"amount": 100, "interpreter": "Jython", "function": "tuple", "data_type": "integer", "action": "append", "time": 0.00047973799999999903}
{"amount": 100, "interpreter": "Jython", "function": "tuple", "data_type": "object", "action": "append", "time": 0.0005628530000000012}
{"amount": 100, "interpreter": "Jython", "function": "tuple", "data_type": "integer", "action": "append", "time": 0.00040854799999999995}
{"amount": 100, "interpreter": "Jython", "function": "tuple", "data_type": "object", "action": "append", "time": 0.0004668410000000001}
{"amount": 100, "interpreter": "Jython", "function": "tuple", "data_type": "integer", "action": "append", "time": 0.0009814019999999975}
{"amount": 100, "interpreter": "Jython", "function": "tuple", "data_type": "object", "action": "append", "time": 0.0008721800000000004}
{"amount": 100, "interpreter": "Jython", "function": "tuple", "data_type": "integer", "action": "append", "time": 0.0005237900000000005}
{"amount": 100, "interpreter": "Jython", "function": "tuple", "data_type": "object", "action": "append", "time": 0.0005161020000000014}
{"amount": 100, "interpreter": "Jython", "function": "tuple", "data_type": "integer", "action": "sort", "time": 0.000471023}
{"amount": 100, "interpreter": "Jython", "function": "tuple", "data_type": "object", "action": "sort", "time": 0.002441821}
{"amount": 100, "interpreter": "Jython", "function": "tuple", "data_type": "integer", "action": "sort", "time": 0.00033227}
{"amount": 100, "interpreter": "Jython", "function": "tuple", "data_type": "object", "action": "sort", "time": 0.003356291}
{"amount": 100, "interpreter": "Jython", "function": "tuple", "data_type": "integer", "action": "sort", "time": 0.000584303}
{"amount": 100, "interpreter": "Jython", "function": "tuple", "data_type": "object", "action": "sort", "time": 0.00241474}
{"amount": 100, "interpreter": "Jython", "function": "tuple", "data_type": "integer", "action": "sort", "time": 0.000434782}
{"amount": 100, "interpreter": "Jython", "function": "tuple", "data_type": "object", "action": "sort", "time": 0.002846477}
{"amount": 100, "interpreter": "Jython", "function": "tuple", "data_type": "integer", "action": "sort", "time": 0.000520206}
{"amount": 100, "interpreter": "Jython", "function": "tuple", "data_type": "object", "action": "sort", "time": 0.002801978}
{"amount": 1000, "interpreter": "Jython", "function": "dict", "data_type": "integer", "action": "insert", "time": 0.013342825000000015}
{"amount": 1000, "interpreter": "Jython", "function": "dict", "data_type": "object", "action": "insert", "time": 0.012031987999999987}
{"amount": 1000, "interpreter": "Jython", "function": "dict", "data_type": "integer", "action": "insert", "time": 0.012706070999999954}
{"amount": 1000, "interpreter": "Jython", "function": "dict", "data_type": "object", "action": "insert", "time": 0.011833506}
{"amount": 1000, "interpreter": "Jython", "function": "dict", "data_type": "integer", "action": "insert", "time": 0.009877755000000061}
{"amount": 1000, "interpreter": "Jython", "function": "dict", "data_type": "object", "action": "insert", "time": 0.012129679000000016}
{"amount": 1000, "interpreter": "Jython", "function": "dict", "data_type": "integer", "action": "insert", "time": 0.013573382999999929}
{"amount": 1000, "interpreter": "Jython", "function": "dict", "data_type": "object", "action": "insert", "time": 0.00913141800000004}
{"amount": 1000, "interpreter": "Jython", "function": "dict", "data_type": "integer", "action": "insert", "time": 0.012794230000000063}
{"amount": 1000, "interpreter": "Jython", "function": "dict", "data_type": "object", "action": "insert", "time": 0.009229303000000055}
{"amount": 1000, "interpreter": "Jython", "function": "dict", "data_type": "integer", "action": "overwrite", "time": 0.013533647999999999}
{"amount": 1000, "interpreter": "Jython", "function": "dict", "data_type": "object", "action": "overwrite", "time": 0.008836612}
{"amount": 1000, "interpreter": "Jython", "function": "dict", "data_type": "integer", "action": "overwrite", "time": 0.013156366000000088}
{"amount": 1000, "interpreter": "Jython", "function": "dict", "data_type": "object", "action": "overwrite", "time": 0.0069572200000000365}
{"amount": 1000, "interpreter": "Jython", "function": "dict", "data_type": "integer", "action": "overwrite", "time": 0.012972310000000048}
{"amount": 1000, "interpreter": "Jython", "function": "dict", "data_type": "object", "action": "overwrite", "time": 0.0108952659999999}
{"amount": 1000, "interpreter": "Jython", "function": "dict", "data_type": "integer", "action": "overwrite", "time": 0.02109392200000003}
{"amount": 1000, "interpreter": "Jython", "function": "dict", "data_type": "object", "action": "overwrite", "time": 0.016961984999999832}
{"amount": 1000, "interpreter": "Jython", "function": "dict", "data_type": "integer", "action": "overwrite", "time": 0.00902270299999998}
{"amount": 1000, "interpreter": "Jython", "function": "dict", "data_type": "object", "action": "overwrite", "time": 0.010660927999999927}
{"amount": 1000, "interpreter": "Jython", "function": "dict", "data_type": "integer", "action": "read", "time": 0.008534784999999948}
{"amount": 1000, "interpreter": "Jython", "function": "dict", "data_type": "object", "action": "read", "time": 0.007730491000000132}
{"amount": 1000, "interpreter": "Jython", "function": "dict", "data_type": "integer", "action": "read", "time": 0.008706369000000137}
{"amount": 1000, "interpreter": "Jython", "function": "dict", "data_type": "object", "action": "read", "time": 0.006418304000000251}
{"amount": 1000, "interpreter": "Jython", "function": "dict", "data_type": "integer", "action": "read", "time": 0.007091335000000246}
{"amount": 1000, "interpreter": "Jython", "function": "dict", "data_type": "object", "action": "read", "time": 0.008857020999999786}
{"amount": 1000, "interpreter": "Jython", "function": "dict", "data_type": "integer", "action": "read", "time": 0.009172451999999918}
{"amount": 1000, "interpreter": "Jython", "function": "dict", "data_type": "object", "action": "read", "time": 0.006192219000000101}
{"amount": 1000, "interpreter": "Jython", "function": "dict", "data_type": "integer", "action": "read", "time": 0.010045999999999965}
{"amount": 1000, "interpreter": "Jython", "function": "dict", "data_type": "object", "action": "read", "time": 0.007505420000000523}
{"amount": 1000, "interpreter": "Jython", "function": "dict", "data_type": "integer", "action": "merge_all_match", "time": 0.000679302}
{"amount": 1000, "interpreter": "Jython", "function": "dict", "data_type": "object", "action": "merge_all_match", "time": 0.001329436}
{"amount": 1000, "interpreter": "Jython", "function": "dict", "data_type": "integer", "action": "merge_all_match", "time": 0.000889105}
{"amount": 1000, "interpreter": "Jython", "function": "dict", "data_type": "object", "action": "merge_all_match", "time": 0.000714429}
{"amount": 1000, "interpreter": "Jython", "function": "dict", "data_type": "integer", "action": "merge_all_match", "time": 0.000632297}
{"amount": 1000, "interpreter": "Jython", "function": "dict", "data_type": "object", "action": "merge_all_match", "time": 0.00069557}
{"amount": 1000, "interpreter": "Jython", "function": "dict", "data_type": "integer", "action": "merge_all_match", "time": 0.001001977}
{"amount": 1000, "interpreter": "Jython", "function": "dict", "data_type": "object", "action": "merge_all_match", "time": 0.000593327}
{"amount": 1000, "interpreter": "Jython", "function": "dict", "data_type": "integer", "action": "merge_all_match", "time": 0.000915687}
{"amount": 1000, "interpreter": "Jython", "function": "dict", "data_type": "object", "action": "merge_all_match", "time": 0.000849742}
{"amount": 1000, "interpreter": "Jython", "function": "dict", "data_type": "integer", "action": "merge_half_match", "time": 0.000454363}
{"amount": 1000, "interpreter": "Jython", "function": "dict", "data_type": "object", "action": "merge_half_match", "time": 0.000401673}
{"amount": 1000, "interpreter": "Jython", "function": "dict", "data_type": "integer", "action": "merge_half_match", "time": 0.000659239}
{"amount": 1000, "interpreter": "Jython", "function": "dict", "data_type": "object", "action": "merge_half_match", "time": 0.000448851}
{"amount": 1000, "interpreter": "Jython", "function": "dict", "data_type": "integer", "action": "merge_half_match", "time": 0.000581346}
{"amount": 1000, "interpreter": "Jython", "function": "dict", "data_type": "object", "action": "merge_half_match", "time": 0.00079214}
{"amount": 1000, "interpreter": "Jython", "function": "dict", "data_type": "integer", "action": "merge_half_match", "time": 0.000556493}
{"amount": 1000, "interpreter": "Jython", "function": "dict", "data_type": "object", "action": "merge_half_match", "time": 0.000601}
{"amount": 1000, "interpreter": "Jython", "function": "dict", "data_type": "integer", "action": "merge_half_match", "time": 0.000440372}
{"amount": 1000, "interpreter": "Jython", "function": "dict", "data_type": "object", "action": "merge_half_match", "time": 0.00047853}
{"amount": 1000, "interpreter": "Jython", "function": "dict", "data_type": "integer", "action": "merge_none_match", "time": 0.000347765}
{"amount": 1000, "interpreter": "Jython", "function": "dict", "data_type": "object", "action": "merge_none_match", "time": 0.000357187}
{"amount": 1000, "interpreter": "Jython", "function": "dict", "data_type": "integer", "action": "merge_none_match", "time": 0.000263463}
{"amount": 1000, "interpreter": "Jython", "function": "dict", "data_type": "object", "action": "merge_none_match", "time": 0.000376555}
{"amount": 1000, "interpreter": "Jython", "function": "dict", "data_type": "integer", "action": "merge_none_match", "time": 0.000259993}
{"amount": 1000, "interpreter": "Jython", "function": "dict", "data_type": "object", "action": "merge_none_match", "time": 0.000352618}
{"amount": 1000, "interpreter": "Jython", "function": "dict", "data_type": "integer", "action": "merge_none_match", "time": 0.000305367}
{"amount": 1000, "interpreter": "Jython", "function": "dict", "data_type": "object", "action": "merge_none_match", "time": 0.0002435}
{"amount": 1000, "interpreter": "Jython", "function": "dict", "data_type": "integer", "action": "merge_none_match", "time": 0.00033961}
{"amount": 1000, "interpreter": "Jython", "function": "dict", "data_type": "object", "action": "merge_none_match", "time": 0.000336431}
{"amount": 1000, "interpreter": "Jython", "function": "list", "data_type": "integer", "action": "list_comprehension", "time": 0.000616163}
{"amount": 1000, "interpreter": "Jython", "function": "list", "data_type": "object", "action": "list_comprehension", "time": 0.007797488}
{"amount": 1000, "interpreter": "Jython", "function": "list", "data_type": "integer", "action": "list_comprehension", "time": 0.000438002}
{"amount": 1000, "interpreter": "Jython", "function": "list", "data_type": "object", "action": "list_comprehension", "time": 0.009699925}
{"amount": 1000, "interpreter": "Jython", "function": "list", "data_type": "integer", "action": "list_comprehension", "time": 0.000556561}
{"amount": 1000, "interpreter": "Jython", "function": "list", "data_type": "object", "action": "list_comprehension", "time": 0.008764348}
{"amount": 1000, "interpreter": "Jython", "function": "list", "data_type": "integer", "action": "list_comprehension", "time": 0.000303326}
{"amount": 1000, "interpreter": "Jython", "function": "list", "data_type": "object", "action": "list_comprehension", "time": 0.006930569}
{"amount": 1000, "interpreter": "Jython", "function": "list", "data_type": "integer", "action": "list_comprehension", "time": 0.000379608}
{"amount": 1000, "interpreter": "Jython", "function": "list", "data_type": "object", "action": "list_comprehension", "time": 0.008872707}
{"amount": 1000, "interpreter": "Jython", "function": "list", "data_type": "integer", "action": "append", "time": 0.011605461999999869}
{"amount": 1000, "interpreter": "Jython", "function": "list", "data_type": "object", "action": "append", "time": 0.011371415000000006}
{"amount": 1000, "interpreter": "Jython", "function": "list", "data_type": "integer", "action": "append", "time": 0.012088418000000073}
{"amount": 1000, "interpreter": "Jython", "function": "list", "data_type": "object", "action": "append", "time": 0.011714230000000016}
{"amount": 1000, "interpreter": "Jython", "function": "list", "data_type": "integer", "action": "append", "time": 0.012315041000000007}
{"amount": 1000, "interpreter": "Jython", "function": "list", "data_type": "object", "action": "append", "time": 0.008163941999999988}
{"amount": 1000, "interpreter": "Jython", "function": "list", "data_type": "integer", "action": "append", "time": 0.018832182000000086}
{"amount": 1000, "interpreter": "Jython", "function": "list", "data_type": "object", "action": "append", "time": 0.017771798999999956}
{"amount": 1000, "interpreter": "Jython", "function": "list", "data_type": "integer", "action": "append", "time": 0.009066139000000025}
{"amount": 1000, "interpreter": "Jython", "function": "list", "data_type": "object", "action": "append", "time": 0.012017211000000028}
{"amount": 1000, "interpreter": "Jython", "function": "list", "data_type": "integer", "action": "sort", "time": 0.005370903}
{"amount": 1000, "interpreter": "Jython", "function": "list", "data_type": "object", "action": "sort", "time": 0.012584017}
{"amount": 1000, "interpreter": "Jython", "function": "list", "data_type": "integer", "action": "sort", "time": 0.006719316}
{"amount": 1000, "interpreter": "Jython", "function": "list", "data_type": "object", "action": "sort", "time": 0.010907033}
{"amount": 1000, "interpreter": "Jython", "function": "list", "data_type": "integer", "action": "sort", "time": 0.00726077}
{"amount": 1000, "interpreter": "Jython", "function": "list", "data_type": "object", "action": "sort", "time": 0.009277581}
{"amount": 1000, "interpreter": "Jython", "function": "list", "data_type": "integer", "action": "sort", "time": 0.006950641}
{"amount": 1000, "interpreter": "Jython", "function": "list", "data_type": "object", "action": "sort", "time": 0.011764363}
{"amount": 1000, "interpreter": "Jython", "function": "list", "data_type": "integer", "action": "sort", "time": 0.007120828}
{"amount": 1000, "interpreter": "Jython", "function": "list", "data_type": "object", "action": "sort", "time": 0.012551109}
{"amount": 1000, "interpreter": "Jython", "function": "generator", "data_type": "integer", "action": "generate", "time": 0.0075962920000000825}
{"amount": 1000, "interpreter": "Jython", "function": "generator", "data_type": "object", "action": "generate", "time": 0.007168968000000083}
{"amount": 1000, "interpreter": "Jython", "function": "generator", "data_type": "integer", "action": "generate", "time": 0.012792769999999929}
{"amount": 1000, "interpreter": "Jython", "function": "generator", "data_type": "object", "action": "generate", "time": 0.008426224999999708}
{"amount": 1000, "interpreter": "Jython", "function": "generator", "data_type": "integer", "action": "generate", "time": 0.005882981999999775}
{"amount": 1000, "interpreter": "Jython", "function": "generator", "data_type": "object", "action": "generate", "time": 0.007611139999999598}
{"amount": 1000, "interpreter": "Jython", "function": "generator", "data_type": "integer", "action": "generate", "time": 0.008261454000000041}
{"amount": 1000, "interpreter": "Jython", "function": "generator", "data_type": "object", "action": "generate", "time": 0.00723922399999965}
{"amount": 1000, "interpreter": "Jython", "function": "generator", "data_type": "integer", "action": "generate", "time": 0.007240666999999796}
{"amount": 1000, "interpreter": "Jython", "function": "generator", "data_type": "object", "action": "generate", "time": 0.007800915000000066}
{"amount": 1000, "interpreter": "Jython", "function": "objects", "data_type": "object", "action": "generate", "time": 0.013673235000000013}
{"amount": 1000, "interpreter": "Jython", "function": "objects", "data_type": "object", "action": "generate", "time": 0.009142943999999986}
{"amount": 1000, "interpreter": "Jython", "function": "objects", "data_type": "object", "action": "generate", "time": 0.01634955900000004}
{"amount": 1000, "interpreter": "Jython", "function": "objects", "data_type": "object", "action": "generate", "time": 0.010954310000000002}
{"amount": 1000, "interpreter": "Jython", "function": "objects", "data_type": "object", "action": "generate", "time": 0.009712149999999977}
{"amount": 1000, "interpreter": "Jython", "function": "objects", "data_type": "object", "action": "add", "time": 0.011061283999999956}
{"amount": 1000, "interpreter": "Jython", "function": "objects", "data_type": "object", "action": "add", "time": 0.011614093999999886}
{"amount": 1000, "interpreter": "Jython", "function": "objects", "data_type": "object", "action": "add", "time": 0.014100996999999978}
{"amount": 1000, "interpreter": "Jython", "function": "objects", "data_type": "object", "action": "add", "time": 0.007679211999999984}
{"amount": 1000, "interpreter": "Jython", "function": "objects", "data_type": "object", "action": "add", "time": 0.011292216000000018}
{"amount": 1000, "interpreter": "Jython", "function": "tuple", "data_type": "integer", "action": "append", "time": 0.004635003999999925}
{"amount": 1000, "interpreter": "Jython", "function": "tuple", "data_type": "object", "action": "append", "time": 0.0038762509999999938}
{"amount": 1000, "interpreter": "Jython", "function": "tuple", "data_type": "integer", "action": "append", "time": 0.002795009}
{"amount": 1000, "interpreter": "Jython", "function": "tuple", "data_type": "object", "action": "append", "time": 0.004344014999999952}
{"amount": 1000, "interpreter": "Jython", "function": "tuple", "data_type": "integer", "action": "append", "time": 0.004596724000000032}
{"amount": 1000, "interpreter": "Jython", "function": "tuple", "data_type": "object", "action": "append", "time": 0.0032668560000000063}
{"amount": 1000, "interpreter": "Jython", "function": "tuple", "data_type": "integer", "action": "append", "time": 0.004304122000000022}
{"amount": 1000, "interpreter": "Jython", "function": "tuple", "data_type": "object", "action": "append", "time": 0.004148250999999957}
{"amount": 1000, "interpreter": "Jython", "function": "tuple", "data_type": "integer", "action": "append", "time": 0.0039688690000000216}
{"amount": 1000, "interpreter": "Jython", "function": "tuple", "data_type": "object", "action": "append", "time": 0.0035017120000000153}
{"amount": 1000, "interpreter": "Jython", "function": "tuple", "data_type": "integer", "action": "sort", "time": 0.004714816}
{"amount": 1000, "interpreter": "Jython", "function": "tuple", "data_type": "object", "action": "sort", "time": 0.016125754}
{"amount": 1000, "interpreter": "Jython", "function": "tuple", "data_type": "integer", "action": "sort", "time": 0.006623466}
{"amount": 1000, "interpreter": "Jython", "function": "tuple", "data_type": "object", "action": "sort", "time": 0.018845337}
{"amount": 1000, "interpreter": "Jython", "function": "tuple", "data_type": "integer", "action": "sort", "time": 0.006060333}
{"amount": 1000, "interpreter": "Jython", "function": "tuple", "data_type": "object", "action": "sort", "time": 0.02152065}
{"amount": 1000, "interpreter": "Jython", "function": "tuple", "data_type": "integer", "action": "sort", "time": 0.006316521}
{"amount": 1000, "interpreter": "Jython", "function": "tuple", "data_type": "object", "action": "sort", "time": 0.03456212}
{"amount": 1000, "interpreter": "Jython", "function": "tuple", "data_type": "integer", "action": "sort", "time": 0.01086433}
{"amount": 1000, "interpreter": "Jython", "function": "tuple", "data_type": "object", "action": "sort", "time": 0.019205059}
{"amount": 10000, "interpreter": "Jython", "function": "dict", "data_type": "integer", "action": "insert", "time": 0.046573230000000326}
{"amount": 10000, "interpreter": "Jython", "function": "dict", "data_type": "object", "action": "insert", "time": 0.04171153500000081}
{"amount": 10000, "interpreter": "Jython", "function": "dict", "data_type": "integer", "action": "insert", "time": 0.04385594199999956}
{"amount": 10000, "interpreter": "Jython", "function": "dict", "data_type": "object", "action": "insert", "time": 0.033749511999999704}
{"amount": 10000, "interpreter": "Jython", "function": "dict", "data_type": "integer", "action": "insert", "time": 0.04148840699999977}
{"amount": 10000, "interpreter": "Jython", "function": "dict", "data_type": "object", "action": "insert", "time": 0.03804715300000078}
{"amount": 10000, "interpreter": "Jython", "function": "dict", "data_type": "integer", "action": "insert", "time": 0.049637644999999536}
{"amount": 10000, "interpreter": "Jython", "function": "dict", "data_type": "object", "action": "insert", "time": 0.03513996800000077}
{"amount": 10000, "interpreter": "Jython", "function": "dict", "data_type": "integer", "action": "insert", "time": 0.037235298999999694}
{"amount": 10000, "interpreter": "Jython", "function": "dict", "data_type": "object", "action": "insert", "time": 0.03971697899999968}
{"amount": 10000, "interpreter": "Jython", "function": "dict", "data_type": "integer", "action": "overwrite", "time": 0.06408523600000145}
{"amount": 10000, "interpreter": "Jython", "function": "dict", "data_type": "object", "action": "overwrite", "time": 0.03341559399999884}
{"amount": 10000, "interpreter": "Jython", "function": "dict", "data_type": "integer", "action": "overwrite", "time": 0.03636842500000001}
{"amount": 10000, "interpreter": "Jython", "function": "dict", "data_type": "object", "action": "overwrite", "time": 0.03177169100000021}
{"amount": 10000, "interpreter": "Jython", "function": "dict", "data_type": "integer", "action": "overwrite", "time": 0.03404229900000097}
{"amount": 10000, "interpreter": "Jython", "function": "dict", "data_type": "object", "action": "overwrite", "time": 0.02630136300000057}
{"amount": 10000, "interpreter": "Jython", "function": "dict", "data_type": "integer", "action": "overwrite", "time": 0.03922615399999987}
{"amount": 10000, "interpreter": "Jython", "function": "dict", "data_type": "object", "action": "overwrite", "time": 0.0385475170000012}
{"amount": 10000, "interpreter": "Jython", "function": "dict", "data_type": "integer", "action": "overwrite", "time": 0.03184372699999981}
{"amount": 10000, "interpreter": "Jython", "function": "dict", "data_type": "object", "action": "overwrite", "time": 0.027048630999999886}
{"amount": 10000, "interpreter": "Jython", "function": "dict", "data_type": "integer", "action": "read", "time": 0.03578495500000384}
{"amount": 10000, "interpreter": "Jython", "function": "dict", "data_type": "object", "action": "read", "time": 0.03156784699999432}
{"amount": 10000, "interpreter": "Jython", "function": "dict", "data_type": "integer", "action": "read", "time": 0.033633778999997976}
{"amount": 10000, "interpreter": "Jython", "function": "dict", "data_type": "object", "action": "read", "time": 0.04415380599999565}
{"amount": 10000, "interpreter": "Jython", "function": "dict", "data_type": "integer", "action": "read", "time": 0.029205272000004993}
{"amount": 10000, "interpreter": "Jython", "function": "dict", "data_type": "object", "action": "read", "time": 0.024925266000000793}
{"amount": 10000, "interpreter": "Jython", "function": "dict", "data_type": "integer", "action": "read", "time": 0.03420593699999647}
{"amount": 10000, "interpreter": "Jython", "function": "dict", "data_type": "object", "action": "read", "time": 0.02402863800000058}
{"amount": 10000, "interpreter": "Jython", "function": "dict", "data_type": "integer", "action": "read", "time": 0.036311013999998636}
{"amount": 10000, "interpreter": "Jython", "function": "dict", "data_type": "object", "action": "read", "time": 0.025358298000003894}
{"amount": 10000, "interpreter": "Jython", "function": "dict", "data_type": "integer", "action": "merge_all_match", "time": 0.007545926}
{"amount": 10000, "interpreter": "Jython", "function": "dict", "data_type": "object", "action": "merge_all_match", "time": 0.008618219}
{"amount": 10000, "interpreter": "Jython", "function": "dict", "data_type": "integer", "action": "merge_all_match", "time": 0.00849465}
{"amount": 10000, "interpreter": "Jython", "function": "dict", "data_type": "object", "action": "merge_all_match", "time": 0.00964424}
{"amount": 10000, "interpreter": "Jython", "function": "dict", "data_type": "integer", "action": "merge_all_match", "time": 0.004934533}
{"amount": 10000, "interpreter": "Jython", "function": "dict", "data_type": "object", "action": "merge_all_match", "time": 0.006033087}
{"amount": 10000, "interpreter": "Jython", "function": "dict", "data_type": "integer", "action": "merge_all_match", "time": 0.005643509}
{"amount": 10000, "interpreter": "Jython", "function": "dict", "data_type": "object", "action": "merge_all_match", "time": 0.007971864}
{"amount": 10000, "interpreter": "Jython", "function": "dict", "data_type": "integer", "action": "merge_all_match", "time": 0.004871453}
{"amount": 10000, "interpreter": "Jython", "function": "dict", "data_type": "object", "action": "merge_all_match", "time": 0.005695935}
{"amount": 10000, "interpreter": "Jython", "function": "dict", "data_type": "integer", "action": "merge_half_match", "time": 0.003692545}
{"amount": 10000, "interpreter": "Jython", "function": "dict", "data_type": "object", "action": "merge_half_match", "time": 0.005481968}
{"amount": 10000, "interpreter": "Jython", "function": "dict", "data_type": "integer", "action": "merge_half_match", "time": 0.005771762}
{"amount": 10000, "interpreter": "Jython", "function": "dict", "data_type": "object", "action": "merge_half_match", "time": 0.004202566}
{"amount": 10000, "interpreter": "Jython", "function": "dict", "data_type": "integer", "action": "merge_half_match", "time": 0.004949158}
{"amount": 10000, "interpreter": "Jython", "function": "dict", "data_type": "object", "action": "merge_half_match", "time": 0.006123177}
{"amount": 10000, "interpreter": "Jython", "function": "dict", "data_type": "integer", "action": "merge_half_match", "time": 0.006415038}
{"amount": 10000, "interpreter": "Jython", "function": "dict", "data_type": "object", "action": "merge_half_match", "time": 0.004156556}
{"amount": 10000, "interpreter": "Jython", "function": "dict", "data_type": "integer", "action": "merge_half_match", "time": 0.005752897}
{"amount": 10000, "interpreter": "Jython", "function": "dict", "data_type": "object", "action": "merge_half_match", "time": 0.00511412}
{"amount": 10000, "interpreter": "Jython", "function": "dict", "data_type": "integer", "action": "merge_none_match", "time": 0.001731542}
{"amount": 10000, "interpreter": "Jython", "function": "dict", "data_type": "object", "action": "merge_none_match", "time": 0.002639138}
{"amount": 10000, "interpreter": "Jython", "function": "dict", "data_type": "integer", "action": "merge_none_match", "time": 0.001820308}
{"amount": 10000, "interpreter": "Jython", "function": "dict", "data_type": "object", "action": "merge_none_match", "time": 0.001919473}
{"amount": 10000, "interpreter": "Jython", "function": "dict", "data_type": "integer", "action": "merge_none_match", "time": 0.001773252}
{"amount": 10000, "interpreter": "Jython", "function": "dict", "data_type": "object", "action": "merge_none_match", "time": 0.003032114}
{"amount": 10000, "interpreter": "Jython", "function": "dict", "data_type": "integer", "action": "merge_none_match", "time": 0.003589237}
{"amount": 10000, "interpreter": "Jython", "function": "dict", "data_type": "object", "action": "merge_none_match", "time": 0.002321627}
{"amount": 10000, "interpreter": "Jython", "function": "dict", "data_type": "integer", "action": "merge_none_match", "time": 0.001878601}
{"amount": 10000, "interpreter": "Jython", "function": "dict", "data_type": "object", "action": "merge_none_match", "time": 0.002370261}
{"amount": 10000, "interpreter": "Jython", "function": "list", "data_type": "integer", "action": "list_comprehension", "time": 0.003644786}
{"amount": 10000, "interpreter": "Jython", "function": "list", "data_type": "object", "action": "list_comprehension", "time": 0.033329465}
{"amount": 10000, "interpreter": "Jython", "function": "list", "data_type": "integer", "action": "list_comprehension", "time": 0.004698207}
{"amount": 10000, "interpreter": "Jython", "function": "list", "data_type": "object", "action": "list_comprehension", "time": 0.036006832}
{"amount": 10000, "interpreter": "Jython", "function": "list", "data_type": "integer", "action": "list_comprehension", "time": 0.003578783}
{"amount": 10000, "interpreter": "Jython", "function": "list", "data_type": "object", "action": "list_comprehension", "time": 0.045930198}
{"amount": 10000, "interpreter": "Jython", "function": "list", "data_type": "integer", "action": "list_comprehension", "time": 0.002712041}
{"amount": 10000, "interpreter": "Jython", "function": "list", "data_type": "object", "action": "list_comprehension", "time": 0.029135082}
{"amount": 10000, "interpreter": "Jython", "function": "list", "data_type": "integer", "action": "list_comprehension", "time": 0.005574608}
{"amount": 10000, "interpreter": "Jython", "function": "list", "data_type": "object", "action": "list_comprehension", "time": 0.028229189}
{"amount": 10000, "interpreter": "Jython", "function": "list", "data_type": "integer", "action": "append", "time": 0.0502780969999993}
{"amount": 10000, "interpreter": "Jython", "function": "list", "data_type": "object", "action": "append", "time": 0.029611736999999673}
{"amount": 10000, "interpreter": "Jython", "function": "list", "data_type": "integer", "action": "append", "time": 0.03601192199999995}
{"amount": 10000, "interpreter": "Jython", "function": "list", "data_type": "object", "action": "append", "time": 0.0360347169999998}
{"amount": 10000, "interpreter": "Jython", "function": "list", "data_type": "integer", "action": "append", "time": 0.03291437099999958}
{"amount": 10000, "interpreter": "Jython", "function": "list", "data_type": "object", "action": "append", "time": 0.028458048000000433}
{"amount": 10000, "interpreter": "Jython", "function": "list", "data_type": "integer", "action": "append", "time": 0.04054237899999927}
{"amount": 10000, "interpreter": "Jython", "function": "list", "data_type": "object", "action": "append", "time": 0.03770875100000063}
{"amount": 10000, "interpreter": "Jython", "function": "list", "data_type": "integer", "action": "append", "time": 0.026387727000000628}
{"amount": 10000, "interpreter": "Jython", "function": "list", "data_type": "object", "action": "append", "time": 0.03346780599999997}
{"amount": 10000, "interpreter": "Jython", "function": "list", "data_type": "integer", "action": "sort", "time": 0.029136716}
{"amount": 10000, "interpreter": "Jython", "function": "list", "data_type": "object", "action": "sort", "time": 0.041312008}
{"amount": 10000, "interpreter": "Jython", "function": "list", "data_type": "integer", "action": "sort", "time": 0.027495831}
{"amount": 10000, "interpreter": "Jython", "function": "list", "data_type": "object", "action": "sort", "time": 0.04041048}
{"amount": 10000, "interpreter": "Jython", "function": "list", "data_type": "integer", "action": "sort", "time": 0.028020237}
{"amount": 10000, "interpreter": "Jython", "function": "list", "data_type": "object", "action": "sort", "time": 0.037337041}
{"amount": 10000, "interpreter": "Jython", "function": "list", "data_type": "integer", "action": "sort", "time": 0.028149156}
{"amount": 10000, "interpreter": "Jython", "function": "list", "data_type": "object", "action": "sort", "time": 0.07866956}
{"amount": 10000, "interpreter": "Jython", "function": "list", "data_type": "integer", "action": "sort", "time": 0.046781309}
{"amount": 10000, "interpreter": "Jython", "function": "list", "data_type": "object", "action": "sort", "time": 0.04420832}
{"amount": 10000, "interpreter": "Jython", "function": "generator", "data_type": "integer", "action": "generate", "time": 0.017001393000000767}
{"amount": 10000, "interpreter": "Jython", "function": "generator", "data_type": "object", "action": "generate", "time": 0.017230741000001326}
{"amount": 10000, "interpreter": "Jython", "function": "generator", "data_type": "integer", "action": "generate", "time": 0.02128469700000242}
{"amount": 10000, "interpreter": "Jython", "function": "generator", "data_type": "object", "action": "generate", "time": 0.0175512609999983}
{"amount": 10000, "interpreter": "Jython", "function": "generator", "data_type": "integer", "action": "generate", "time": 0.018166131999998586}
{"amount": 10000, "interpreter": "Jython", "function": "generator", "data_type": "object", "action": "generate", "time": 0.023206400999994728}
{"amount": 10000, "interpreter": "Jython", "function": "generator", "data_type": "integer", "action": "generate", "time": 0.01735283400000566}
{"amount": 10000, "interpreter": "Jython", "function": "generator", "data_type": "object", "action": "generate", "time": 0.01929704499999811}
{"amount": 10000, "interpreter": "Jython", "function": "generator", "data_type": "integer", "action": "generate", "time": 0.02404962900000132}
{"amount": 10000, "interpreter": "Jython", "function": "generator", "data_type": "object", "action": "generate", "time": 0.024485538000002405}
{"amount": 10000, "interpreter": "Jython", "function": "objects", "data_type": "object", "action": "generate", "time": 0.038389128999999966}
{"amount": 10000, "interpreter": "Jython", "function": "objects", "data_type": "object", "action": "generate", "time": 0.03368290200000053}
{"amount": 10000, "interpreter": "Jython", "function": "objects", "data_type": "object", "action": "generate", "time": 0.04806974499999899}
{"amount": 10000, "interpreter": "Jython", "function": "objects", "data_type": "object", "action": "generate", "time": 0.028296961000000384}
{"amount": 10000, "interpreter": "Jython", "function": "objects", "data_type": "object", "action": "generate", "time": 0.03474544500000083}
{"amount": 10000, "interpreter": "Jython", "function": "objects", "data_type": "object", "action": "add", "time": 0.04048956800000147}
{"amount": 10000, "interpreter": "Jython", "function": "objects", "data_type": "object", "action": "add", "time": 0.057071739000001176}
{"amount": 10000, "interpreter": "Jython", "function": "objects", "data_type": "object", "action": "add", "time": 0.03032162099999989}
{"amount": 10000, "interpreter": "Jython", "function": "objects", "data_type": "object", "action": "add", "time": 0.0523250419999998}
{"amount": 10000, "interpreter": "Jython", "function": "objects", "data_type": "object", "action": "add", "time": 0.039740365999999736}
{"amount": 10000, "interpreter": "Jython", "function": "tuple", "data_type": "integer", "action": "append", "time": 0.07728412600000054}
{"amount": 10000, "interpreter": "Jython", "function": "tuple", "data_type": "object", "action": "append", "time": 0.08120277999999985}
{"amount": 10000, "interpreter": "Jython", "function": "tuple", "data_type": "integer", "action": "append", "time": 0.05951509900000024}
{"amount": 10000, "interpreter": "Jython", "function": "tuple", "data_type": "object", "action": "append", "time": 0.05758352700000036}
{"amount": 10000, "interpreter": "Jython", "function": "tuple", "data_type": "integer", "action": "append", "time": 0.061165764999999775}
{"amount": 10000, "interpreter": "Jython", "function": "tuple", "data_type": "object", "action": "append", "time": 0.07335527999999947}
{"amount": 10000, "interpreter": "Jython", "function": "tuple", "data_type": "integer", "action": "append", "time": 0.07642945699999981}
{"amount": 10000, "interpreter": "Jython", "function": "tuple", "data_type": "object", "action": "append", "time": 0.05868959600000035}
{"amount": 10000, "interpreter": "Jython", "function": "tuple", "data_type": "integer", "action": "append", "time": 0.06019175799999969}
{"amount": 10000, "interpreter": "Jython", "function": "tuple", "data_type": "object", "action": "append", "time": 0.057212562999999196}
{"amount": 10000, "interpreter": "Jython", "function": "tuple", "data_type": "integer", "action": "sort", "time": 0.030494296}
{"amount": 10000, "interpreter": "Jython", "function": "tuple", "data_type": "object", "action": "sort", "time": 0.038051791}
{"amount": 10000, "interpreter": "Jython", "function": "tuple", "data_type": "integer", "action": "sort", "time": 0.023247023}
{"amount": 10000, "interpreter": "Jython", "function": "tuple", "data_type": "object", "action": "sort", "time": 0.070571807}
{"amount": 10000, "interpreter": "Jython", "function": "tuple", "data_type": "integer", "action": "sort", "time": 0.027397601}
{"amount": 10000, "interpreter": "Jython", "function": "tuple", "data_type": "object", "action": "sort", "time": 0.046939685}
{"amount": 10000, "interpreter": "Jython", "function": "tuple", "data_type": "integer", "action": "sort", "time": 0.024443436}
{"amount": 10000, "interpreter": "Jython", "function": "tuple", "data_type": "object", "action": "sort", "time": 0.050463121}
{"amount": 10000, "interpreter": "Jython", "function": "tuple", "data_type": "integer", "action": "sort", "time": 0.023443006}
{"amount": 10000, "interpreter": "Jython", "function": "tuple", "data_type": "object", "action": "sort", "time": 0.050481449}
{"amount": 100000, "interpreter": "Jython", "function": "dict", "data_type": "integer", "action": "insert", "time": 0.15321956200000797}
{"amount": 100000, "interpreter": "Jython", "function": "dict", "data_type": "object", "action": "insert", "time": 0.16053049100000696}
{"amount": 100000, "interpreter": "Jython", "function": "dict", "data_type": "integer", "action": "insert", "time": 0.16370931199999644}
{"amount": 100000, "interpreter": "Jython", "function": "dict", "data_type": "object", "action": "insert", "time": 0.16682383599999634}
{"amount": 100000, "interpreter": "Jython", "function": "dict", "data_type": "integer", "action": "insert", "time": 0.15945446699999538}
{"amount": 100000, "interpreter": "Jython", "function": "dict", "data_type": "object", "action": "insert", "time": 0.16792278800000077}
{"amount": 100000, "interpreter": "Jython", "function": "dict", "data_type": "integer", "action": "insert", "time": 0.2444999859999919}
{"amount": 100000, "interpreter": "Jython", "function": "dict", "data_type": "object", "action": "insert", "time": 0.15549050400000236}
{"amount": 100000, "interpreter": "Jython", "function": "dict", "data_type": "integer", "action": "insert", "time": 0.15871577300001297}
{"amount": 100000, "interpreter": "Jython", "function": "dict", "data_type": "object", "action": "insert", "time": 0.16114480899999217}
{"amount": 100000, "interpreter": "Jython", "function": "dict", "data_type": "integer", "action": "overwrite", "time": 0.11198395299998992}
{"amount": 100000, "interpreter": "Jython", "function": "dict", "data_type": "object", "action": "overwrite", "time": 0.10524323300000413}
{"amount": 100000, "interpreter": "Jython", "function": "dict", "data_type": "integer", "action": "overwrite", "time": 0.10355213100000263}
{"amount": 100000, "interpreter": "Jython", "function": "dict", "data_type": "object", "action": "overwrite", "time": 0.11113551000000227}
{"amount": 100000, "interpreter": "Jython", "function": "dict", "data_type": "integer", "action": "overwrite", "time": 0.11312355199999975}
{"amount": 100000, "interpreter": "Jython", "function": "dict", "data_type": "object", "action": "overwrite", "time": 0.10612949200000044}
{"amount": 100000, "interpreter": "Jython", "function": "dict", "data_type": "integer", "action": "overwrite", "time": 0.1156679610000074}
{"amount": 100000, "interpreter": "Jython", "function": "dict", "data_type": "object", "action": "overwrite", "time": 0.1016897959999985}
{"amount": 100000, "interpreter": "Jython", "function": "dict", "data_type": "integer", "action": "overwrite", "time": 0.18508038399998383}
{"amount": 100000, "interpreter": "Jython", "function": "dict", "data_type": "object", "action": "overwrite", "time": 0.10282163700000052}
{"amount": 100000, "interpreter": "Jython", "function": "dict", "data_type": "integer", "action": "read", "time": 0.13529739499998578}
{"amount": 100000, "interpreter": "Jython", "function": "dict", "data_type": "object", "action": "read", "time": 0.10616324400000351}
{"amount": 100000, "interpreter": "Jython", "function": "dict", "data_type": "integer", "action": "read", "time": 0.12037227800007005}
{"amount": 100000, "interpreter": "Jython", "function": "dict", "data_type": "object", "action": "read", "time": 0.10382708599995272}
{"amount": 100000, "interpreter": "Jython", "function": "dict", "data_type": "integer", "action": "read", "time": 0.13213372599994103}
{"amount": 100000, "interpreter": "Jython", "function": "dict", "data_type": "object", "action": "read", "time": 0.11016741399995686}
{"amount": 100000, "interpreter": "Jython", "function": "dict", "data_type": "integer", "action": "read", "time": 0.11747214499997737}
{"amount": 100000, "interpreter": "Jython", "function": "dict", "data_type": "object", "action": "read", "time": 0.10619575000001129}
{"amount": 100000, "interpreter": "Jython", "function": "dict", "data_type": "integer", "action": "read", "time": 0.1913923400000239}
{"amount": 100000, "interpreter": "Jython", "function": "dict", "data_type": "object", "action": "read", "time": 0.10445176499995246}
{"amount": 100000, "interpreter": "Jython", "function": "dict", "data_type": "integer", "action": "merge_all_match", "time": 0.051054102}
{"amount": 100000, "interpreter": "Jython", "function": "dict", "data_type": "object", "action": "merge_all_match", "time": 0.052529387}
{"amount": 100000, "interpreter": "Jython", "function": "dict", "data_type": "integer", "action": "merge_all_match", "time": 0.050914812}
{"amount": 100000, "interpreter": "Jython", "function": "dict", "data_type": "object", "action": "merge_all_match", "time": 0.05766233}
{"amount": 100000, "interpreter": "Jython", "function": "dict", "data_type": "integer", "action": "merge_all_match", "time": 0.050647867}
{"amount": 100000, "interpreter": "Jython", "function": "dict", "data_type": "object", "action": "merge_all_match", "time": 0.051527555}
{"amount": 100000, "interpreter": "Jython", "function": "dict", "data_type": "integer", "action": "merge_all_match", "time": 0.072548505}
{"amount": 100000, "interpreter": "Jython", "function": "dict", "data_type": "object", "action": "merge_all_match", "time": 0.049411277}
{"amount": 100000, "interpreter": "Jython", "function": "dict", "data_type": "integer", "action": "merge_all_match", "time": 0.051413278}
{"amount": 100000, "interpreter": "Jython", "function": "dict", "data_type": "object", "action": "merge_all_match", "time": 0.052925204}
{"amount": 100000, "interpreter": "Jython", "function": "dict", "data_type": "integer", "action": "merge_half_match", "time": 0.033218352}
{"amount": 100000, "interpreter": "Jython", "function": "dict", "data_type": "object", "action": "merge_half_match", "time": 0.026238397}
{"amount": 100000, "interpreter": "Jython", "function": "dict", "data_type": "integer", "action": "merge_half_match", "time": 0.032554157}
{"amount": 100000, "interpreter": "Jython", "function": "dict", "data_type": "object", "action": "merge_half_match", "time": 0.031772784}
{"amount": 100000, "interpreter": "Jython", "function": "dict", "data_type": "integer", "action": "merge_half_match", "time": 0.033381534}
{"amount": 100000, "interpreter": "Jython", "function": "dict", "data_type": "object", "action": "merge_half_match", "time": 0.026605625}
{"amount": 100000, "interpreter": "Jython", "function": "dict", "data_type": "integer", "action": "merge_half_match", "time": 0.032971342}
{"amount": 100000, "interpreter": "Jython", "function": "dict", "data_type": "object", "action": "merge_half_match", "time": 0.033019663}
{"amount": 100000, "interpreter": "Jython", "function": "dict", "data_type": "integer", "action": "merge_half_match", "time": 0.033295663}
{"amount": 100000, "interpreter": "Jython", "function": "dict", "data_type": "object", "action": "merge_half_match", "time": 0.033507116}
{"amount": 100000, "interpreter": "Jython", "function": "dict", "data_type": "integer", "action": "merge_none_match", "time": 0.014485341}
{"amount": 100000, "interpreter": "Jython", "function": "dict", "data_type": "object", "action": "merge_none_match", "time": 0.014257441}
{"amount": 100000, "interpreter": "Jython", "function": "dict", "data_type": "integer", "action": "merge_none_match", "time": 0.016269965}
{"amount": 100000, "interpreter": "Jython", "function": "dict", "data_type": "object", "action": "merge_none_match", "time": 0.013875592}
{"amount": 100000, "interpreter": "Jython", "function": "dict", "data_type": "integer", "action": "merge_none_match", "time": 0.014713444}
{"amount": 100000, "interpreter": "Jython", "function": "dict", "data_type": "object", "action": "merge_none_match", "time": 0.013227335}
{"amount": 100000, "interpreter": "Jython", "function": "dict", "data_type": "integer", "action": "merge_none_match", "time": 0.016138531}
{"amount": 100000, "interpreter": "Jython", "function": "dict", "data_type": "object", "action": "merge_none_match", "time": 0.014107468}
{"amount": 100000, "interpreter": "Jython", "function": "dict", "data_type": "integer", "action": "merge_none_match", "time": 0.014574158}
{"amount": 100000, "interpreter": "Jython", "function": "dict", "data_type": "object", "action": "merge_none_match", "time": 0.013237624}
{"amount": 100000, "interpreter": "Jython", "function": "list", "data_type": "integer", "action": "list_comprehension", "time": 0.023084454}
{"amount": 100000, "interpreter": "Jython", "function": "list", "data_type": "object", "action": "list_comprehension", "time": 0.109273312}
{"amount": 100000, "interpreter": "Jython", "function": "list", "data_type": "integer", "action": "list_comprehension", "time": 0.024193905}
{"amount": 100000, "interpreter": "Jython", "function": "list", "data_type": "object", "action": "list_comprehension", "time": 0.429052295}
{"amount": 100000, "interpreter": "Jython", "function": "list", "data_type": "integer", "action": "list_comprehension", "time": 0.041135628}
{"amount": 100000, "interpreter": "Jython", "function": "list", "data_type": "object", "action": "list_comprehension", "time": 0.143716851}
{"amount": 100000, "interpreter": "Jython", "function": "list", "data_type": "integer", "action": "list_comprehension", "time": 0.023949588}
{"amount": 100000, "interpreter": "Jython", "function": "list", "data_type": "object", "action": "list_comprehension", "time": 0.135982369}
{"amount": 100000, "interpreter": "Jython", "function": "list", "data_type": "integer", "action": "list_comprehension", "time": 0.029493893}
{"amount": 100000, "interpreter": "Jython", "function": "list", "data_type": "object", "action": "list_comprehension", "time": 0.113792003}
{"amount": 100000, "interpreter": "Jython", "function": "list", "data_type": "integer", "action": "append", "time": 0.126575977999997}
{"amount": 100000, "interpreter": "Jython", "function": "list", "data_type": "object", "action": "append", "time": 0.10497902699999541}
{"amount": 100000, "interpreter": "Jython", "function": "list", "data_type": "integer", "action": "append", "time": 0.11862995200000705}
{"amount": 100000, "interpreter": "Jython", "function": "list", "data_type": "object", "action": "append", "time": 0.13682206099999925}
{"amount": 100000, "interpreter": "Jython", "function": "list", "data_type": "integer", "action": "append", "time": 0.08967463799999686}
{"amount": 100000, "interpreter": "Jython", "function": "list", "data_type": "object", "action": "append", "time": 0.09657433299999194}
{"amount": 100000, "interpreter": "Jython", "function": "list", "data_type": "integer", "action": "append", "time": 0.132658457999989}
{"amount": 100000, "interpreter": "Jython", "function": "list", "data_type": "object", "action": "append", "time": 0.15631126299999076}
{"amount": 100000, "interpreter": "Jython", "function": "list", "data_type": "integer", "action": "append", "time": 0.10544815599999174}
{"amount": 100000, "interpreter": "Jython", "function": "list", "data_type": "object", "action": "append", "time": 0.11111279899999724}
{"amount": 100000, "interpreter": "Jython", "function": "list", "data_type": "integer", "action": "sort", "time": 0.163201144}
{"amount": 100000, "interpreter": "Jython", "function": "list", "data_type": "object", "action": "sort", "time": 0.176791013}
{"amount": 100000, "interpreter": "Jython", "function": "list", "data_type": "integer", "action": "sort", "time": 0.143126712}
{"amount": 100000, "interpreter": "Jython", "function": "list", "data_type": "object", "action": "sort", "time": 0.206592513}
{"amount": 100000, "interpreter": "Jython", "function": "list", "data_type": "integer", "action": "sort", "time": 0.108665917}
{"amount": 100000, "interpreter": "Jython", "function": "list", "data_type": "object", "action": "sort", "time": 0.176978506}
{"amount": 100000, "interpreter": "Jython", "function": "list", "data_type": "integer", "action": "sort", "time": 0.156803891}
{"amount": 100000, "interpreter": "Jython", "function": "list", "data_type": "object", "action": "sort", "time": 0.181964046}
{"amount": 100000, "interpreter": "Jython", "function": "list", "data_type": "integer", "action": "sort", "time": 0.173939904}
{"amount": 100000, "interpreter": "Jython", "function": "list", "data_type": "object", "action": "sort", "time": 0.178848762}
{"amount": 100000, "interpreter": "Jython", "function": "generator", "data_type": "integer", "action": "generate", "time": 0.07882136700006284}
{"amount": 100000, "interpreter": "Jython", "function": "generator", "data_type": "object", "action": "generate", "time": 0.08318139899999158}
{"amount": 100000, "interpreter": "Jython", "function": "generator", "data_type": "integer", "action": "generate", "time": 0.0803423419999736}
{"amount": 100000, "interpreter": "Jython", "function": "generator", "data_type": "object", "action": "generate", "time": 0.07489328700011333}
{"amount": 100000, "interpreter": "Jython", "function": "generator", "data_type": "integer", "action": "generate", "time": 0.07673360299993519}
{"amount": 100000, "interpreter": "Jython", "function": "generator", "data_type": "object", "action": "generate", "time": 0.07847062000003599}
{"amount": 100000, "interpreter": "Jython", "function": "generator", "data_type": "integer", "action": "generate", "time": 0.10786752799994395}
{"amount": 100000, "interpreter": "Jython", "function": "generator", "data_type": "object", "action": "generate", "time": 0.07213998299998685}
{"amount": 100000, "interpreter": "Jython", "function": "generator", "data_type": "integer", "action": "generate", "time": 0.07627294700000253}
{"amount": 100000, "interpreter": "Jython", "function": "generator", "data_type": "object", "action": "generate", "time": 0.0759216540000692}
{"amount": 100000, "interpreter": "Jython", "function": "objects", "data_type": "object", "action": "generate", "time": 0.12183285400001106}
{"amount": 100000, "interpreter": "Jython", "function": "objects", "data_type": "object", "action": "generate", "time": 0.11677017300000242}
{"amount": 100000, "interpreter": "Jython", "function": "objects", "data_type": "object", "action": "generate", "time": 0.1142825879999931}
{"amount": 100000, "interpreter": "Jython", "function": "objects", "data_type": "object", "action": "generate", "time": 0.11547552299999561}
{"amount": 100000, "interpreter": "Jython", "function": "objects", "data_type": "object", "action": "generate", "time": 0.1589454779999963}
{"amount": 100000, "interpreter": "Jython", "function": "objects", "data_type": "object", "action": "add", "time": 0.1409139639999911}
{"amount": 100000, "interpreter": "Jython", "function": "objects", "data_type": "object", "action": "add", "time": 0.19109077099999675}
{"amount": 100000, "interpreter": "Jython", "function": "objects", "data_type": "object", "action": "add", "time": 0.12890345499999126}
{"amount": 100000, "interpreter": "Jython", "function": "objects", "data_type": "object", "action": "add", "time": 0.12657844499999438}
{"amount": 100000, "interpreter": "Jython", "function": "objects", "data_type": "object", "action": "add", "time": 0.11752768199999426}
{"amount": 100000, "interpreter": "Jython", "function": "tuple", "data_type": "integer", "action": "append", "time": 3.699949930999981}
{"amount": 100000, "interpreter": "Jython", "function": "tuple", "data_type": "object", "action": "append", "time": 3.7180546360000015}
{"amount": 100000, "interpreter": "Jython", "function": "tuple", "data_type": "integer", "action": "append", "time": 3.686242427999977}
{"amount": 100000, "interpreter": "Jython", "function": "tuple", "data_type": "object", "action": "append", "time": 3.7552131679999707}
{"amount": 100000, "interpreter": "Jython", "function": "tuple", "data_type": "integer", "action": "append", "time": 3.593944070000027}
{"amount": 100000, "interpreter": "Jython", "function": "tuple", "data_type": "object", "action": "append", "time": 3.714613741000048}
{"amount": 100000, "interpreter": "Jython", "function": "tuple", "data_type": "integer", "action": "append", "time": 3.6260366600000395}
{"amount": 100000, "interpreter": "Jython", "function": "tuple", "data_type": "object", "action": "append", "time": 3.7291639650000494}
{"amount": 100000, "interpreter": "Jython", "function": "tuple", "data_type": "integer", "action": "append", "time": 3.6750944270000065}
{"amount": 100000, "interpreter": "Jython", "function": "tuple", "data_type": "object", "action": "append", "time": 3.724166022999973}
{"amount": 100000, "interpreter": "Jython", "function": "tuple", "data_type": "integer", "action": "sort", "time": 0.103527102}
{"amount": 100000, "interpreter": "Jython", "function": "tuple", "data_type": "object", "action": "sort", "time": 0.243473057}
{"amount": 100000, "interpreter": "Jython", "function": "tuple", "data_type": "integer", "action": "sort", "time": 0.104788274}
{"amount": 100000, "interpreter": "Jython", "function": "tuple", "data_type": "object", "action": "sort", "time": 0.201632364}
{"amount": 100000, "interpreter": "Jython", "function": "tuple", "data_type": "integer", "action": "sort", "time": 0.10838985}
{"amount": 100000, "interpreter": "Jython", "function": "tuple", "data_type": "object", "action": "sort", "time": 0.211638967}
{"amount": 100000, "interpreter": "Jython", "function": "tuple", "data_type": "integer", "action": "sort", "time": 0.138927453}
{"amount": 100000, "interpreter": "Jython", "function": "tuple", "data_type": "object", "action": "sort", "time": 0.226966745}
{"amount": 100000, "interpreter": "Jython", "function": "tuple", "data_type": "integer", "action": "sort", "time": 0.091946745}
{"amount": 100000, "interpreter": "Jython", "function": "tuple", "data_type": "object", "action": "sort", "time": 0.18164291}
{"amount": 1000000, "interpreter": "Jython", "function": "dict", "data_type": "integer", "action": "insert", "time": 1.0443441749999307}
{"amount": 1000000, "interpreter": "Jython", "function": "dict", "data_type": "object", "action": "insert", "time": 1.1311636520001198}
{"amount": 1000000, "interpreter": "Jython", "function": "dict", "data_type": "integer", "action": "insert", "time": 1.0283814559999727}
{"amount": 1000000, "interpreter": "Jython", "function": "dict", "data_type": "object", "action": "insert", "time": 1.126074605000066}
{"amount": 1000000, "interpreter": "Jython", "function": "dict", "data_type": "integer", "action": "insert", "time": 1.0599104639998886}
{"amount": 1000000, "interpreter": "Jython", "function": "dict", "data_type": "object", "action": "insert", "time": 1.1336922190001029}
{"amount": 1000000, "interpreter": "Jython", "function": "dict", "data_type": "integer", "action": "insert", "time": 1.0458061189999588}
{"amount": 1000000, "interpreter": "Jython", "function": "dict", "data_type": "object", "action": "insert", "time": 1.15464437300015}
{"amount": 1000000, "interpreter": "Jython", "function": "dict", "data_type": "integer", "action": "insert", "time": 1.0568850060001282}
{"amount": 1000000, "interpreter": "Jython", "function": "dict", "data_type": "object", "action": "insert", "time": 1.1462785439999137}
{"amount": 1000000, "interpreter": "Jython", "function": "dict", "data_type": "integer", "action": "overwrite", "time": 0.5706427700000228}
{"amount": 1000000, "interpreter": "Jython", "function": "dict", "data_type": "object", "action": "overwrite", "time": 0.5521125790000603}
{"amount": 1000000, "interpreter": "Jython", "function": "dict", "data_type": "integer", "action": "overwrite", "time": 0.5635835139999936}
{"amount": 1000000, "interpreter": "Jython", "function": "dict", "data_type": "object", "action": "overwrite", "time": 0.551693041999823}
{"amount": 1000000, "interpreter": "Jython", "function": "dict", "data_type": "integer", "action": "overwrite", "time": 0.5552077319998434}
{"amount": 1000000, "interpreter": "Jython", "function": "dict", "data_type": "object", "action": "overwrite", "time": 0.5556025130000617}
{"amount": 1000000, "interpreter": "Jython", "function": "dict", "data_type": "integer", "action": "overwrite", "time": 0.5891221140000417}
{"amount": 1000000, "interpreter": "Jython", "function": "dict", "data_type": "object", "action": "overwrite", "time": 0.5493145409998654}
{"amount": 1000000, "interpreter": "Jython", "function": "dict", "data_type": "integer", "action": "overwrite", "time": 0.5585704800001396}
{"amount": 1000000, "interpreter": "Jython", "function": "dict", "data_type": "object", "action": "overwrite", "time": 0.5481398799999215}
{"amount": 1000000, "interpreter": "Jython", "function": "dict", "data_type": "integer", "action": "read", "time": 0.7556393350002466}
{"amount": 1000000, "interpreter": "Jython", "function": "dict", "data_type": "object", "action": "read", "time": 0.5496170149993223}
{"amount": 1000000, "interpreter": "Jython", "function": "dict", "data_type": "integer", "action": "read", "time": 0.7570130010003799}
{"amount": 1000000, "interpreter": "Jython", "function": "dict", "data_type": "object", "action": "read", "time": 0.6020878680014217}
{"amount": 1000000, "interpreter": "Jython", "function": "dict", "data_type": "integer", "action": "read", "time": 0.7223669470016201}
{"amount": 1000000, "interpreter": "Jython", "function": "dict", "data_type": "object", "action": "read", "time": 0.5136960330011799}
{"amount": 1000000, "interpreter": "Jython", "function": "dict", "data_type": "integer", "action": "read", "time": 0.724040226000671}
{"amount": 1000000, "interpreter": "Jython", "function": "dict", "data_type": "object", "action": "read", "time": 0.5612960219989409}
{"amount": 1000000, "interpreter": "Jython", "function": "dict", "data_type": "integer", "action": "read", "time": 0.7148977719994589}
{"amount": 1000000, "interpreter": "Jython", "function": "dict", "data_type": "object", "action": "read", "time": 0.510389465998718}
{"amount": 1000000, "interpreter": "Jython", "function": "dict", "data_type": "integer", "action": "merge_all_match", "time": 0.509685575}
{"amount": 1000000, "interpreter": "Jython", "function": "dict", "data_type": "object", "action": "merge_all_match", "time": 0.485014484}
{"amount": 1000000, "interpreter": "Jython", "function": "dict", "data_type": "integer", "action": "merge_all_match", "time": 0.518351675}
{"amount": 1000000, "interpreter": "Jython", "function": "dict", "data_type": "object", "action": "merge_all_match", "time": 0.412485579}
{"amount": 1000000, "interpreter": "Jython", "function": "dict", "data_type": "integer", "action": "merge_all_match", "time": 0.514907062}
{"amount": 1000000, "interpreter": "Jython", "function": "dict", "data_type": "object", "action": "merge_all_match", "time": 0.515108152}
{"amount": 1000000, "interpreter": "Jython", "function": "dict", "data_type": "integer", "action": "merge_all_match", "time": 0.508928291}
{"amount": 1000000, "interpreter": "Jython", "function": "dict", "data_type": "object", "action": "merge_all_match", "time": 0.393035123}
{"amount": 1000000, "interpreter": "Jython", "function": "dict", "data_type": "integer", "action": "merge_all_match", "time": 0.508927954}
{"amount": 1000000, "interpreter": "Jython", "function": "dict", "data_type": "object", "action": "merge_all_match", "time": 0.51064244}
{"amount": 1000000, "interpreter": "Jython", "function": "dict", "data_type": "integer", "action": "merge_half_match", "time": 0.328072505}
{"amount": 1000000, "interpreter": "Jython", "function": "dict", "data_type": "object", "action": "merge_half_match", "time": 0.820480664}
{"amount": 1000000, "interpreter": "Jython", "function": "dict", "data_type": "integer", "action": "merge_half_match", "time": 0.294569974}
{"amount": 1000000, "interpreter": "Jython", "function": "dict", "data_type": "object", "action": "merge_half_match", "time": 0.317711227}
{"amount": 1000000, "interpreter": "Jython", "function": "dict", "data_type": "integer", "action": "merge_half_match", "time": 0.315785654}
{"amount": 1000000, "interpreter": "Jython", "function": "dict", "data_type": "object", "action": "merge_half_match", "time": 0.273400113}
{"amount": 1000000, "interpreter": "Jython", "function": "dict", "data_type": "integer", "action": "merge_half_match", "time": 0.250837582}
{"amount": 1000000, "interpreter": "Jython", "function": "dict", "data_type": "object", "action": "merge_half_match", "time": 0.279307663}
{"amount": 1000000, "interpreter": "Jython", "function": "dict", "data_type": "integer", "action": "merge_half_match", "time": 0.250896619}
{"amount": 1000000, "interpreter": "Jython", "function": "dict", "data_type": "object", "action": "merge_half_match", "time": 0.330802688}
{"amount": 1000000, "interpreter": "Jython", "function": "dict", "data_type": "integer", "action": "merge_none_match", "time": 0.120276254}
{"amount": 1000000, "interpreter": "Jython", "function": "dict", "data_type": "object", "action": "merge_none_match", "time": 0.122699197}
{"amount": 1000000, "interpreter": "Jython", "function": "dict", "data_type": "integer", "action": "merge_none_match", "time": 0.144054932}
{"amount": 1000000, "interpreter": "Jython", "function": "dict", "data_type": "object", "action": "merge_none_match", "time": 0.130036856}
{"amount": 1000000, "interpreter": "Jython", "function": "dict", "data_type": "integer", "action": "merge_none_match", "time": 0.146265898}
{"amount": 1000000, "interpreter": "Jython", "function": "dict", "data_type": "object", "action": "merge_none_match", "time": 0.13003187}
{"amount": 1000000, "interpreter": "Jython", "function": "dict", "data_type": "integer", "action": "merge_none_match", "time": 0.149437052}
{"amount": 1000000, "interpreter": "Jython", "function": "dict", "data_type": "object", "action": "merge_none_match", "time": 0.111955568}
{"amount": 1000000, "interpreter": "Jython", "function": "dict", "data_type": "integer", "action": "merge_none_match", "time": 0.130102863}
{"amount": 1000000, "interpreter": "Jython", "function": "dict", "data_type": "object", "action": "merge_none_match", "time": 0.143196185}
{"amount": 1000000, "interpreter": "Jython", "function": "list", "data_type": "integer", "action": "list_comprehension", "time": 0.349003702}
{"amount": 1000000, "interpreter": "Jython", "function": "list", "data_type": "object", "action": "list_comprehension", "time": 0.658411205}
{"amount": 1000000, "interpreter": "Jython", "function": "list", "data_type": "integer", "action": "list_comprehension", "time": 0.171535395}
{"amount": 1000000, "interpreter": "Jython", "function": "list", "data_type": "object", "action": "list_comprehension", "time": 0.823436884}
{"amount": 1000000, "interpreter": "Jython", "function": "list", "data_type": "integer", "action": "list_comprehension", "time": 0.280286343}
{"amount": 1000000, "interpreter": "Jython", "function": "list", "data_type": "object", "action": "list_comprehension", "time": 0.687505651}
{"amount": 1000000, "interpreter": "Jython", "function": "list", "data_type": "integer", "action": "list_comprehension", "time": 0.182020367}
{"amount": 1000000, "interpreter": "Jython", "function": "list", "data_type": "object", "action": "list_comprehension", "time": 0.655022019}
{"amount": 1000000, "interpreter": "Jython", "function": "list", "data_type": "integer", "action": "list_comprehension", "time": 0.259595969}
{"amount": 1000000, "interpreter": "Jython", "function": "list", "data_type": "object", "action": "list_comprehension", "time": 0.674750085}
{"amount": 1000000, "interpreter": "Jython", "function": "list", "data_type": "integer", "action": "append", "time": 0.38176868600000424}
{"amount": 1000000, "interpreter": "Jython", "function": "list", "data_type": "object", "action": "append", "time": 0.48307644499985913}
{"amount": 1000000, "interpreter": "Jython", "function": "list", "data_type": "integer", "action": "append", "time": 0.38761555700012096}
{"amount": 1000000, "interpreter": "Jython", "function": "list", "data_type": "object", "action": "append", "time": 0.4664450390000263}
{"amount": 1000000, "interpreter": "Jython", "function": "list", "data_type": "integer", "action": "append", "time": 0.39471158699996256}
{"amount": 1000000, "interpreter": "Jython", "function": "list", "data_type": "object", "action": "append", "time": 0.49482490099995513}
{"amount": 1000000, "interpreter": "Jython", "function": "list", "data_type": "integer", "action": "append", "time": 0.40044068400001737}
{"amount": 1000000, "interpreter": "Jython", "function": "list", "data_type": "object", "action": "append", "time": 0.49335965599979514}
{"amount": 1000000, "interpreter": "Jython", "function": "list", "data_type": "integer", "action": "append", "time": 0.6586407070000393}
{"amount": 1000000, "interpreter": "Jython", "function": "list", "data_type": "object", "action": "append", "time": 0.4796992329999882}
{"amount": 1000000, "interpreter": "Jython", "function": "list", "data_type": "integer", "action": "sort", "time": 0.735528026}
{"amount": 1000000, "interpreter": "Jython", "function": "list", "data_type": "object", "action": "sort", "time": 1.525280187}
{"amount": 1000000, "interpreter": "Jython", "function": "list", "data_type": "integer", "action": "sort", "time": 0.598563985}
{"amount": 1000000, "interpreter": "Jython", "function": "list", "data_type": "object", "action": "sort", "time": 1.425555776}
{"amount": 1000000, "interpreter": "Jython", "function": "list", "data_type": "integer", "action": "sort", "time": 0.620871814}
{"amount": 1000000, "interpreter": "Jython", "function": "list", "data_type": "object", "action": "sort", "time": 1.473020362}
{"amount": 1000000, "interpreter": "Jython", "function": "list", "data_type": "integer", "action": "sort", "time": 0.606852575}
{"amount": 1000000, "interpreter": "Jython", "function": "list", "data_type": "object", "action": "sort", "time": 1.306083505}
{"amount": 1000000, "interpreter": "Jython", "function": "list", "data_type": "integer", "action": "sort", "time": 0.599683354}
{"amount": 1000000, "interpreter": "Jython", "function": "list", "data_type": "object", "action": "sort", "time": 1.44948188}
{"amount": 1000000, "interpreter": "Jython", "function": "generator", "data_type": "integer", "action": "generate", "time": 0.41885529800201826}
{"amount": 1000000, "interpreter": "Jython", "function": "generator", "data_type": "object", "action": "generate", "time": 0.42412018999818657}
{"amount": 1000000, "interpreter": "Jython", "function": "generator", "data_type": "integer", "action": "generate", "time": 0.4124563049993185}
{"amount": 1000000, "interpreter": "Jython", "function": "generator", "data_type": "object", "action": "generate", "time": 0.9894052899999106}
{"amount": 1000000, "interpreter": "Jython", "function": "generator", "data_type": "integer", "action": "generate", "time": 0.39827538500121495}
{"amount": 1000000, "interpreter": "Jython", "function": "generator", "data_type": "object", "action": "generate", "time": 0.4894179800001988}
{"amount": 1000000, "interpreter": "Jython", "function": "generator", "data_type": "integer", "action": "generate", "time": 0.3938517499993169}
{"amount": 1000000, "interpreter": "Jython", "function": "generator", "data_type": "object", "action": "generate", "time": 0.4559334829994668}
{"amount": 1000000, "interpreter": "Jython", "function": "generator", "data_type": "integer", "action": "generate", "time": 0.4234429480012466}
{"amount": 1000000, "interpreter": "Jython", "function": "generator", "data_type": "object", "action": "generate", "time": 0.43018171500101554}
{"amount": 1000000, "interpreter": "Jython", "function": "objects", "data_type": "object", "action": "generate", "time": 0.5235360270000852}
{"amount": 1000000, "interpreter": "Jython", "function": "objects", "data_type": "object", "action": "generate", "time": 0.5198468850000003}
{"amount": 1000000, "interpreter": "Jython", "function": "objects", "data_type": "object", "action": "generate", "time": 0.5281334570001703}
{"amount": 1000000, "interpreter": "Jython", "function": "objects", "data_type": "object", "action": "generate", "time": 0.5327498149999488}
{"amount": 1000000, "interpreter": "Jython", "function": "objects", "data_type": "object", "action": "generate", "time": 0.5233170929998472}
{"amount": 1000000, "interpreter": "Jython", "function": "objects", "data_type": "object", "action": "add", "time": 1.243521040000127}
{"amount": 1000000, "interpreter": "Jython", "function": "objects", "data_type": "object", "action": "add", "time": 0.6550325870002267}
{"amount": 1000000, "interpreter": "Jython", "function": "objects", "data_type": "object", "action": "add", "time": 0.6941918269999403}
{"amount": 1000000, "interpreter": "Jython", "function": "objects", "data_type": "object", "action": "add", "time": 0.6913239830002036}
{"amount": 1000000, "interpreter": "Jython", "function": "objects", "data_type": "object", "action": "add", "time": 0.6506787770001674}
{"amount": 1000000, "interpreter": "Jython", "function": "tuple", "data_type": "integer", "action": "append", "time": 643.757702780988}
{"amount": 1000000, "interpreter": "Jython", "function": "tuple", "data_type": "object", "action": "append", "time": 645.7663816840044}
{"amount": 1000000, "interpreter": "Jython", "function": "tuple", "data_type": "integer", "action": "append", "time": 643.0630192760198}
{"amount": 1000000, "interpreter": "Jython", "function": "tuple", "data_type": "object", "action": "append", "time": 643.6662296539995}
{"amount": 1000000, "interpreter": "Jython", "function": "tuple", "data_type": "integer", "action": "append", "time": 643.628841354006}
{"amount": 1000000, "interpreter": "Jython", "function": "tuple", "data_type": "object", "action": "append", "time": 644.8036086999938}
{"amount": 1000000, "interpreter": "Jython", "function": "tuple", "data_type": "integer", "action": "append", "time": 643.1959850319593}
{"amount": 1000000, "interpreter": "Jython", "function": "tuple", "data_type": "object", "action": "append", "time": 643.0597648369953}
{"amount": 1000000, "interpreter": "Jython", "function": "tuple", "data_type": "integer", "action": "append", "time": 642.1475196580005}
{"amount": 1000000, "interpreter": "Jython", "function": "tuple", "data_type": "object", "action": "append", "time": 644.167870206994}
{"amount": 1000000, "interpreter": "Jython", "function": "tuple", "data_type": "integer", "action": "sort", "time": 0.848882637}
{"amount": 1000000, "interpreter": "Jython", "function": "tuple", "data_type": "object", "action": "sort", "time": 1.184606103}
{"amount": 1000000, "interpreter": "Jython", "function": "tuple", "data_type": "integer", "action": "sort", "time": 0.89338326}
{"amount": 1000000, "interpreter": "Jython", "function": "tuple", "data_type": "object", "action": "sort", "time": 1.155695309}
{"amount": 1000000, "interpreter": "Jython", "function": "tuple", "data_type": "integer", "action": "sort", "time": 0.703124621}
{"amount": 1000000, "interpreter": "Jython", "function": "tuple", "data_type": "object", "action": "sort", "time": 1.204625052}
{"amount": 1000000, "interpreter": "Jython", "function": "tuple", "data_type": "integer", "action": "sort", "time": 0.714265224}
{"amount": 1000000, "interpreter": "Jython", "function": "tuple", "data_type": "object", "action": "sort", "time": 1.110474574}
{"amount": 1000000, "interpreter": "Jython", "function": "tuple", "data_type": "integer", "action": "sort", "time": 0.696361573}
{"amount": 1000000, "interpreter": "Jython", "function": "tuple", "data_type": "object", "action": "sort", "time": 1.185786279}
{"amount": 5000000, "interpreter": "Jython", "function": "list", "data_type": "integer", "action": "list_comprehension", "time": 0.878403345}
{"amount": 5000000, "interpreter": "Jython", "function": "list", "data_type": "object", "action": "list_comprehension", "time": 3.870162173}
{"amount": 5000000, "interpreter": "Jython", "function": "list", "data_type": "integer", "action": "list_comprehension", "time": 0.904823128}
{"amount": 5000000, "interpreter": "Jython", "function": "list", "data_type": "object", "action": "list_comprehension", "time": 3.835081301}
{"amount": 5000000, "interpreter": "Jython", "function": "list", "data_type": "integer", "action": "list_comprehension", "time": 0.99334712}
{"amount": 5000000, "interpreter": "Jython", "function": "list", "data_type": "object", "action": "list_comprehension", "time": 3.93935488}
{"amount": 5000000, "interpreter": "Jython", "function": "list", "data_type": "integer", "action": "list_comprehension", "time": 0.89074255}
{"amount": 5000000, "interpreter": "Jython", "function": "list", "data_type": "object", "action": "list_comprehension", "time": 3.848130459}
{"amount": 5000000, "interpreter": "Jython", "function": "list", "data_type": "integer", "action": "list_comprehension", "time": 1.010814645}
{"amount": 5000000, "interpreter": "Jython", "function": "list", "data_type": "object", "action": "list_comprehension", "time": 3.968836308}
{"amount": 5000000, "interpreter": "Jython", "function": "list", "data_type": "integer", "action": "append", "time": 1.6494547969998652}
{"amount": 5000000, "interpreter": "Jython", "function": "list", "data_type": "object", "action": "append", "time": 2.037458679999951}
{"amount": 5000000, "interpreter": "Jython", "function": "list", "data_type": "integer", "action": "append", "time": 1.708924156999689}
{"amount": 5000000, "interpreter": "Jython", "function": "list", "data_type": "object", "action": "append", "time": 2.020215943000025}
{"amount": 5000000, "interpreter": "Jython", "function": "list", "data_type": "integer", "action": "append", "time": 1.7740826549999467}
{"amount": 5000000, "interpreter": "Jython", "function": "list", "data_type": "object", "action": "append", "time": 2.0244082589995878}
{"amount": 5000000, "interpreter": "Jython", "function": "list", "data_type": "integer", "action": "append", "time": 1.5189734049997239}
{"amount": 5000000, "interpreter": "Jython", "function": "list", "data_type": "object", "action": "append", "time": 2.040962514001026}
{"amount": 5000000, "interpreter": "Jython", "function": "list", "data_type": "integer", "action": "append", "time": 1.5758499369998793}
{"amount": 5000000, "interpreter": "Jython", "function": "list", "data_type": "object", "action": "append", "time": 1.9851988439999448}
{"amount": 5000000, "interpreter": "Jython", "function": "list", "data_type": "integer", "action": "sort", "time": 3.915752214}
{"amount": 5000000, "interpreter": "Jython", "function": "list", "data_type": "object", "action": "sort", "time": 6.785025861}
{"amount": 5000000, "interpreter": "Jython", "function": "list", "data_type": "integer", "action": "sort", "time": 3.877245215}
{"amount": 5000000, "interpreter": "Jython", "function": "list", "data_type": "object", "action": "sort", "time": 6.885320282}
{"amount": 5000000, "interpreter": "Jython", "function": "list", "data_type": "integer", "action": "sort", "time": 3.358519073}
{"amount": 5000000, "interpreter": "Jython", "function": "list", "data_type": "object", "action": "sort", "time": 6.852595706}
{"amount": 5000000, "interpreter": "Jython", "function": "list", "data_type": "integer", "action": "sort", "time": 4.433915061}
{"amount": 5000000, "interpreter": "Jython", "function": "list", "data_type": "object", "action": "sort", "time": 6.02363722}
{"amount": 5000000, "interpreter": "Jython", "function": "list", "data_type": "integer", "action": "sort", "time": 4.434962526}
{"amount": 5000000, "interpreter": "Jython", "function": "list", "data_type": "object", "action": "sort", "time": 6.67564735}
{"amount": 5000000, "interpreter": "Jython", "function": "generator", "data_type": "integer", "action": "generate", "time": 2.3995570480039654}
{"amount": 5000000, "interpreter": "Jython", "function": "generator", "data_type": "object", "action": "generate", "time": 2.067450922986702}
{"amount": 5000000, "interpreter": "Jython", "function": "generator", "data_type": "integer", "action": "generate", "time": 2.1476032810232217}
{"amount": 5000000, "interpreter": "Jython", "function": "generator", "data_type": "object", "action": "generate", "time": 1.906564666986136}
{"amount": 5000000, "interpreter": "Jython", "function": "generator", "data_type": "integer", "action": "generate", "time": 2.0051113780128786}
{"amount": 5000000, "interpreter": "Jython", "function": "generator", "data_type": "object", "action": "generate", "time": 2.78162552600472}
{"amount": 5000000, "interpreter": "Jython", "function": "generator", "data_type": "integer", "action": "generate", "time": 1.9126518539949688}
{"amount": 5000000, "interpreter": "Jython", "function": "generator", "data_type": "object", "action": "generate", "time": 3.351787686998208}
{"amount": 5000000, "interpreter": "Jython", "function": "generator", "data_type": "integer", "action": "generate", "time": 1.863619446985187}
{"amount": 5000000, "interpreter": "Jython", "function": "generator", "data_type": "object", "action": "generate", "time": 2.547714972975879}
{"amount": 5000000, "interpreter": "Jython", "function": "objects", "data_type": "object", "action": "generate", "time": 4.019685649998726}
{"amount": 5000000, "interpreter": "Jython", "function": "objects", "data_type": "object", "action": "generate", "time": 2.5940544940012433}
{"amount": 5000000, "interpreter": "Jython", "function": "objects", "data_type": "object", "action": "generate", "time": 2.844757253000254}
{"amount": 5000000, "interpreter": "Jython", "function": "objects", "data_type": "object", "action": "generate", "time": 2.8811778140009974}
{"amount": 5000000, "interpreter": "Jython", "function": "objects", "data_type": "object", "action": "generate", "time": 3.6189177600010174}
{"amount": 5000000, "interpreter": "Jython", "function": "objects", "data_type": "object", "action": "add", "time": 4.20701603900022}
{"amount": 5000000, "interpreter": "Jython", "function": "objects", "data_type": "object", "action": "add", "time": 3.816383391000537}
{"amount": 5000000, "interpreter": "Jython", "function": "objects", "data_type": "object", "action": "add", "time": 3.8238056960012403}
{"amount": 5000000, "interpreter": "Jython", "function": "objects", "data_type": "object", "action": "add", "time": 5.766564024999721}
{"amount": 5000000, "interpreter": "Jython", "function": "objects", "data_type": "object", "action": "add", "time": 3.7016254429977278}
{"amount": 5000000, "interpreter": "Jython", "function": "tuple", "data_type": "integer", "action": "sort", "time": 4.264948945}
{"amount": 5000000, "interpreter": "Jython", "function": "tuple", "data_type": "object", "action": "sort", "time": 6.491134901}
{"amount": 5000000, "interpreter": "Jython", "function": "tuple", "data_type": "integer", "action": "sort", "time": 4.180013769}
{"amount": 5000000, "interpreter": "Jython", "function": "tuple", "data_type": "object", "action": "sort", "time": 6.498324024}
{"amount": 5000000, "interpreter": "Jython", "function": "tuple", "data_type": "integer", "action": "sort", "time": 4.263018187}
{"amount": 5000000, "interpreter": "Jython", "function": "tuple", "data_type": "object", "action": "sort", "time": 6.420413812}
{"amount": 5000000, "interpreter": "Jython", "function": "tuple", "data_type": "integer", "action": "sort", "time": 3.74907446}
{"amount": 5000000, "interpreter": "Jython", "function": "tuple", "data_type": "object", "action": "sort", "time": 6.413340394}
{"amount": 5000000, "interpreter": "Jython", "function": "tuple", "data_type": "integer", "action": "sort", "time": 3.216516662}
{"amount": 5000000, "interpreter": "Jython", "function": "tuple", "data_type": "object", "action": "sort", "time": 6.371165231}
